{"frames": {

"Dropper_Blue_OUT_0001.png":
{
	"frame": {"x":0,"y":0,"w":51,"h":288},
	"rotated": false,
	"trimmed": false,
	"spriteSourceSize": {"x":0,"y":0,"w":51,"h":288},
	"sourceSize": {"w":51,"h":288}
},
"Dropper_Blue_OUT_0002.png":
{
	"frame": {"x":51,"y":0,"w":51,"h":288},
	"rotated": false,
	"trimmed": false,
	"spriteSourceSize": {"x":0,"y":0,"w":51,"h":288},
	"sourceSize": {"w":51,"h":288}
},
"Dropper_Blue_OUT_0003.png":
{
	"frame": {"x":102,"y":0,"w":51,"h":288},
	"rotated": false,
	"trimmed": false,
	"spriteSourceSize": {"x":0,"y":0,"w":51,"h":288},
	"sourceSize": {"w":51,"h":288}
},
"Dropper_Blue_OUT_0004.png":
{
	"frame": {"x":153,"y":0,"w":51,"h":288},
	"rotated": false,
	"trimmed": false,
	"spriteSourceSize": {"x":0,"y":0,"w":51,"h":288},
	"sourceSize": {"w":51,"h":288}
},
"Dropper_Blue_OUT_0005.png":
{
	"frame": {"x":204,"y":0,"w":51,"h":288},
	"rotated": false,
	"trimmed": false,
	"spriteSourceSize": {"x":0,"y":0,"w":51,"h":288},
	"sourceSize": {"w":51,"h":288}
},
"Dropper_Blue_OUT_0006.png":
{
	"frame": {"x":255,"y":0,"w":51,"h":288},
	"rotated": false,
	"trimmed": false,
	"spriteSourceSize": {"x":0,"y":0,"w":51,"h":288},
	"sourceSize": {"w":51,"h":288}
},
"Dropper_Blue_OUT_0007.png":
{
	"frame": {"x":306,"y":0,"w":51,"h":288},
	"rotated": false,
	"trimmed": false,
	"spriteSourceSize": {"x":0,"y":0,"w":51,"h":288},
	"sourceSize": {"w":51,"h":288}
},
"Dropper_Blue_OUT_0008.png":
{
	"frame": {"x":357,"y":0,"w":51,"h":288},
	"rotated": false,
	"trimmed": false,
	"spriteSourceSize": {"x":0,"y":0,"w":51,"h":288},
	"sourceSize": {"w":51,"h":288}
},
"Dropper_Blue_OUT_0009.png":
{
	"frame": {"x":408,"y":0,"w":51,"h":288},
	"rotated": false,
	"trimmed": false,
	"spriteSourceSize": {"x":0,"y":0,"w":51,"h":288},
	"sourceSize": {"w":51,"h":288}
},
"Dropper_Blue_OUT_0010.png":
{
	"frame": {"x":459,"y":0,"w":51,"h":288},
	"rotated": false,
	"trimmed": false,
	"spriteSourceSize": {"x":0,"y":0,"w":51,"h":288},
	"sourceSize": {"w":51,"h":288}
},
"Dropper_Blue_OUT_0011.png":
{
	"frame": {"x":0,"y":288,"w":51,"h":288},
	"rotated": false,
	"trimmed": false,
	"spriteSourceSize": {"x":0,"y":0,"w":51,"h":288},
	"sourceSize": {"w":51,"h":288}
},
"Dropper_Blue_OUT_0012.png":
{
	"frame": {"x":51,"y":288,"w":51,"h":288},
	"rotated": false,
	"trimmed": false,
	"spriteSourceSize": {"x":0,"y":0,"w":51,"h":288},
	"sourceSize": {"w":51,"h":288}
},
"Dropper_Blue_OUT_0013.png":
{
	"frame": {"x":102,"y":288,"w":51,"h":288},
	"rotated": false,
	"trimmed": false,
	"spriteSourceSize": {"x":0,"y":0,"w":51,"h":288},
	"sourceSize": {"w":51,"h":288}
},
"Dropper_Blue_OUT_0014.png":
{
	"frame": {"x":153,"y":288,"w":51,"h":288},
	"rotated": false,
	"trimmed": false,
	"spriteSourceSize": {"x":0,"y":0,"w":51,"h":288},
	"sourceSize": {"w":51,"h":288}
},
"Dropper_Blue_OUT_0015.png":
{
	"frame": {"x":204,"y":288,"w":51,"h":288},
	"rotated": false,
	"trimmed": false,
	"spriteSourceSize": {"x":0,"y":0,"w":51,"h":288},
	"sourceSize": {"w":51,"h":288}
},
"Dropper_Blue_OUT_0016.png":
{
	"frame": {"x":255,"y":288,"w":51,"h":288},
	"rotated": false,
	"trimmed": false,
	"spriteSourceSize": {"x":0,"y":0,"w":51,"h":288},
	"sourceSize": {"w":51,"h":288}
}},
"meta": {
	"app": "https://www.codeandweb.com/texturepacker",
	"version": "1.0",
	"image": "Dropper_Blue_OUT.png",
	"format": "RGBA8888",
	"size": {"w":512,"h":1024},
	"scale": "1",
	"smartupdate": "$TexturePacker:SmartUpdate:a70a8f5fcb5fd295e2f57835db2aca47:f9c38e39b26ddd77cba3288db2510c8c:b537c293d1cb62b7ec3e7999e319c5d1$"
}
}
