{"frames": {

"Second_Drop_to_Beaker0001.png":
{
	"frame": {"x":0,"y":0,"w":300,"h":500},
	"rotated": false,
	"trimmed": false,
	"spriteSourceSize": {"x":0,"y":0,"w":300,"h":500},
	"sourceSize": {"w":300,"h":500}
},
"Second_Drop_to_Beaker0002.png":
{
	"frame": {"x":300,"y":0,"w":300,"h":500},
	"rotated": false,
	"trimmed": false,
	"spriteSourceSize": {"x":0,"y":0,"w":300,"h":500},
	"sourceSize": {"w":300,"h":500}
},
"Second_Drop_to_Beaker0003.png":
{
	"frame": {"x":600,"y":0,"w":300,"h":500},
	"rotated": false,
	"trimmed": false,
	"spriteSourceSize": {"x":0,"y":0,"w":300,"h":500},
	"sourceSize": {"w":300,"h":500}
},
"Second_Drop_to_Beaker0004.png":
{
	"frame": {"x":900,"y":0,"w":300,"h":500},
	"rotated": false,
	"trimmed": false,
	"spriteSourceSize": {"x":0,"y":0,"w":300,"h":500},
	"sourceSize": {"w":300,"h":500}
},
"Second_Drop_to_Beaker0005.png":
{
	"frame": {"x":1200,"y":0,"w":300,"h":500},
	"rotated": false,
	"trimmed": false,
	"spriteSourceSize": {"x":0,"y":0,"w":300,"h":500},
	"sourceSize": {"w":300,"h":500}
},
"Second_Drop_to_Beaker0006.png":
{
	"frame": {"x":1500,"y":0,"w":300,"h":500},
	"rotated": false,
	"trimmed": false,
	"spriteSourceSize": {"x":0,"y":0,"w":300,"h":500},
	"sourceSize": {"w":300,"h":500}
},
"Second_Drop_to_Beaker0007.png":
{
	"frame": {"x":0,"y":500,"w":300,"h":500},
	"rotated": false,
	"trimmed": false,
	"spriteSourceSize": {"x":0,"y":0,"w":300,"h":500},
	"sourceSize": {"w":300,"h":500}
},
"Second_Drop_to_Beaker0008.png":
{
	"frame": {"x":300,"y":500,"w":300,"h":500},
	"rotated": false,
	"trimmed": false,
	"spriteSourceSize": {"x":0,"y":0,"w":300,"h":500},
	"sourceSize": {"w":300,"h":500}
},
"Second_Drop_to_Beaker0009.png":
{
	"frame": {"x":600,"y":500,"w":300,"h":500},
	"rotated": false,
	"trimmed": false,
	"spriteSourceSize": {"x":0,"y":0,"w":300,"h":500},
	"sourceSize": {"w":300,"h":500}
},
"Second_Drop_to_Beaker0010.png":
{
	"frame": {"x":900,"y":500,"w":300,"h":500},
	"rotated": false,
	"trimmed": false,
	"spriteSourceSize": {"x":0,"y":0,"w":300,"h":500},
	"sourceSize": {"w":300,"h":500}
},
"Second_Drop_to_Beaker0011.png":
{
	"frame": {"x":1200,"y":500,"w":300,"h":500},
	"rotated": false,
	"trimmed": false,
	"spriteSourceSize": {"x":0,"y":0,"w":300,"h":500},
	"sourceSize": {"w":300,"h":500}
},
"Second_Drop_to_Beaker0012.png":
{
	"frame": {"x":1500,"y":500,"w":300,"h":500},
	"rotated": false,
	"trimmed": false,
	"spriteSourceSize": {"x":0,"y":0,"w":300,"h":500},
	"sourceSize": {"w":300,"h":500}
},
"Second_Drop_to_Beaker0013.png":
{
	"frame": {"x":0,"y":1000,"w":300,"h":500},
	"rotated": false,
	"trimmed": false,
	"spriteSourceSize": {"x":0,"y":0,"w":300,"h":500},
	"sourceSize": {"w":300,"h":500}
},
"Second_Drop_to_Beaker0014.png":
{
	"frame": {"x":300,"y":1000,"w":300,"h":500},
	"rotated": false,
	"trimmed": false,
	"spriteSourceSize": {"x":0,"y":0,"w":300,"h":500},
	"sourceSize": {"w":300,"h":500}
},
"Second_Drop_to_Beaker0015.png":
{
	"frame": {"x":600,"y":1000,"w":300,"h":500},
	"rotated": false,
	"trimmed": false,
	"spriteSourceSize": {"x":0,"y":0,"w":300,"h":500},
	"sourceSize": {"w":300,"h":500}
},
"Second_Drop_to_Beaker0016.png":
{
	"frame": {"x":900,"y":1000,"w":300,"h":500},
	"rotated": false,
	"trimmed": false,
	"spriteSourceSize": {"x":0,"y":0,"w":300,"h":500},
	"sourceSize": {"w":300,"h":500}
},
"Second_Drop_to_Beaker0017.png":
{
	"frame": {"x":1200,"y":1000,"w":300,"h":500},
	"rotated": false,
	"trimmed": false,
	"spriteSourceSize": {"x":0,"y":0,"w":300,"h":500},
	"sourceSize": {"w":300,"h":500}
},
"Second_Drop_to_Beaker0018.png":
{
	"frame": {"x":1500,"y":1000,"w":300,"h":500},
	"rotated": false,
	"trimmed": false,
	"spriteSourceSize": {"x":0,"y":0,"w":300,"h":500},
	"sourceSize": {"w":300,"h":500}
},
"Second_Drop_to_Beaker0019.png":
{
	"frame": {"x":0,"y":1500,"w":300,"h":500},
	"rotated": false,
	"trimmed": false,
	"spriteSourceSize": {"x":0,"y":0,"w":300,"h":500},
	"sourceSize": {"w":300,"h":500}
},
"Second_Drop_to_Beaker0020.png":
{
	"frame": {"x":300,"y":1500,"w":300,"h":500},
	"rotated": false,
	"trimmed": false,
	"spriteSourceSize": {"x":0,"y":0,"w":300,"h":500},
	"sourceSize": {"w":300,"h":500}
}},
"meta": {
	"app": "https://www.codeandweb.com/texturepacker",
	"version": "1.0",
	"image": "Second_Drop.png",
	"format": "RGBA8888",
	"size": {"w":2048,"h":2048},
	"scale": "1",
	"smartupdate": "$TexturePacker:SmartUpdate:5a5881795bcd149b11362336a8665fb3:a1bd40545ae1d49b34acc57408f41f36:0892b1f93e66efcc5dded52f2b0c7834$"
}
}
