{"frames": {

"Blue Flame0001.png":
{
	"frame": {"x":0,"y":0,"w":150,"h":150},
	"rotated": false,
	"trimmed": false,
	"spriteSourceSize": {"x":0,"y":0,"w":150,"h":150},
	"sourceSize": {"w":150,"h":150}
},
"Blue Flame0002.png":
{
	"frame": {"x":150,"y":0,"w":150,"h":150},
	"rotated": false,
	"trimmed": false,
	"spriteSourceSize": {"x":0,"y":0,"w":150,"h":150},
	"sourceSize": {"w":150,"h":150}
},
"Blue Flame0003.png":
{
	"frame": {"x":300,"y":0,"w":150,"h":150},
	"rotated": false,
	"trimmed": false,
	"spriteSourceSize": {"x":0,"y":0,"w":150,"h":150},
	"sourceSize": {"w":150,"h":150}
},
"Blue Flame0004.png":
{
	"frame": {"x":0,"y":150,"w":150,"h":150},
	"rotated": false,
	"trimmed": false,
	"spriteSourceSize": {"x":0,"y":0,"w":150,"h":150},
	"sourceSize": {"w":150,"h":150}
},
"Blue Flame0005.png":
{
	"frame": {"x":150,"y":150,"w":150,"h":150},
	"rotated": false,
	"trimmed": false,
	"spriteSourceSize": {"x":0,"y":0,"w":150,"h":150},
	"sourceSize": {"w":150,"h":150}
},
"Blue Flame0006.png":
{
	"frame": {"x":300,"y":150,"w":150,"h":150},
	"rotated": false,
	"trimmed": false,
	"spriteSourceSize": {"x":0,"y":0,"w":150,"h":150},
	"sourceSize": {"w":150,"h":150}
},
"Blue Flame0007.png":
{
	"frame": {"x":0,"y":300,"w":150,"h":150},
	"rotated": false,
	"trimmed": false,
	"spriteSourceSize": {"x":0,"y":0,"w":150,"h":150},
	"sourceSize": {"w":150,"h":150}
},
"Blue Flame0008.png":
{
	"frame": {"x":150,"y":300,"w":150,"h":150},
	"rotated": false,
	"trimmed": false,
	"spriteSourceSize": {"x":0,"y":0,"w":150,"h":150},
	"sourceSize": {"w":150,"h":150}
},
"Blue Flame0009.png":
{
	"frame": {"x":300,"y":300,"w":150,"h":150},
	"rotated": false,
	"trimmed": false,
	"spriteSourceSize": {"x":0,"y":0,"w":150,"h":150},
	"sourceSize": {"w":150,"h":150}
},
"Blue Flame0010.png":
{
	"frame": {"x":0,"y":450,"w":150,"h":150},
	"rotated": false,
	"trimmed": false,
	"spriteSourceSize": {"x":0,"y":0,"w":150,"h":150},
	"sourceSize": {"w":150,"h":150}
},
"Blue Flame0011.png":
{
	"frame": {"x":150,"y":450,"w":150,"h":150},
	"rotated": false,
	"trimmed": false,
	"spriteSourceSize": {"x":0,"y":0,"w":150,"h":150},
	"sourceSize": {"w":150,"h":150}
},
"Blue Flame0012.png":
{
	"frame": {"x":300,"y":450,"w":150,"h":150},
	"rotated": false,
	"trimmed": false,
	"spriteSourceSize": {"x":0,"y":0,"w":150,"h":150},
	"sourceSize": {"w":150,"h":150}
},
"Blue Flame0013.png":
{
	"frame": {"x":0,"y":600,"w":150,"h":150},
	"rotated": false,
	"trimmed": false,
	"spriteSourceSize": {"x":0,"y":0,"w":150,"h":150},
	"sourceSize": {"w":150,"h":150}
},
"Blue Flame0014.png":
{
	"frame": {"x":150,"y":600,"w":150,"h":150},
	"rotated": false,
	"trimmed": false,
	"spriteSourceSize": {"x":0,"y":0,"w":150,"h":150},
	"sourceSize": {"w":150,"h":150}
},
"Blue Flame0015.png":
{
	"frame": {"x":300,"y":600,"w":150,"h":150},
	"rotated": false,
	"trimmed": false,
	"spriteSourceSize": {"x":0,"y":0,"w":150,"h":150},
	"sourceSize": {"w":150,"h":150}
}},
"meta": {
	"app": "https://www.codeandweb.com/texturepacker",
	"version": "1.0",
	"image": "Blue_flame.png",
	"format": "RGBA8888",
	"size": {"w":450,"h":750},
	"scale": "1",
	"smartupdate": "$TexturePacker:SmartUpdate:f25138f51f5718e001dbf3aa3c40859e:6715d008fb7d2ee581a0d326d7891c6c:0e5a0c4efcd0a50d206a1c4abad0064b$"
}
}
