{"frames": {

"Peel_to-water_fromstain0001.png":
{
	"frame": {"x":0,"y":0,"w":500,"h":400},
	"rotated": false,
	"trimmed": false,
	"spriteSourceSize": {"x":0,"y":0,"w":500,"h":400},
	"sourceSize": {"w":500,"h":400}
},
"Peel_to-water_fromstain0002.png":
{
	"frame": {"x":500,"y":0,"w":500,"h":400},
	"rotated": false,
	"trimmed": false,
	"spriteSourceSize": {"x":0,"y":0,"w":500,"h":400},
	"sourceSize": {"w":500,"h":400}
},
"Peel_to-water_fromstain0003.png":
{
	"frame": {"x":1000,"y":0,"w":500,"h":400},
	"rotated": false,
	"trimmed": false,
	"spriteSourceSize": {"x":0,"y":0,"w":500,"h":400},
	"sourceSize": {"w":500,"h":400}
},
"Peel_to-water_fromstain0004.png":
{
	"frame": {"x":1500,"y":0,"w":500,"h":400},
	"rotated": false,
	"trimmed": false,
	"spriteSourceSize": {"x":0,"y":0,"w":500,"h":400},
	"sourceSize": {"w":500,"h":400}
},
"Peel_to-water_fromstain0005.png":
{
	"frame": {"x":0,"y":400,"w":500,"h":400},
	"rotated": false,
	"trimmed": false,
	"spriteSourceSize": {"x":0,"y":0,"w":500,"h":400},
	"sourceSize": {"w":500,"h":400}
},
"Peel_to-water_fromstain0006.png":
{
	"frame": {"x":500,"y":400,"w":500,"h":400},
	"rotated": false,
	"trimmed": false,
	"spriteSourceSize": {"x":0,"y":0,"w":500,"h":400},
	"sourceSize": {"w":500,"h":400}
},
"Peel_to-water_fromstain0007.png":
{
	"frame": {"x":1000,"y":400,"w":500,"h":400},
	"rotated": false,
	"trimmed": false,
	"spriteSourceSize": {"x":0,"y":0,"w":500,"h":400},
	"sourceSize": {"w":500,"h":400}
},
"Peel_to-water_fromstain0008.png":
{
	"frame": {"x":1500,"y":400,"w":500,"h":400},
	"rotated": false,
	"trimmed": false,
	"spriteSourceSize": {"x":0,"y":0,"w":500,"h":400},
	"sourceSize": {"w":500,"h":400}
},
"Peel_to-water_fromstain0009.png":
{
	"frame": {"x":0,"y":800,"w":500,"h":400},
	"rotated": false,
	"trimmed": false,
	"spriteSourceSize": {"x":0,"y":0,"w":500,"h":400},
	"sourceSize": {"w":500,"h":400}
},
"Peel_to-water_fromstain0010.png":
{
	"frame": {"x":500,"y":800,"w":500,"h":400},
	"rotated": false,
	"trimmed": false,
	"spriteSourceSize": {"x":0,"y":0,"w":500,"h":400},
	"sourceSize": {"w":500,"h":400}
},
"Peel_to-water_fromstain0011.png":
{
	"frame": {"x":1000,"y":800,"w":500,"h":400},
	"rotated": false,
	"trimmed": false,
	"spriteSourceSize": {"x":0,"y":0,"w":500,"h":400},
	"sourceSize": {"w":500,"h":400}
},
"Peel_to-water_fromstain0012.png":
{
	"frame": {"x":1500,"y":800,"w":500,"h":400},
	"rotated": false,
	"trimmed": false,
	"spriteSourceSize": {"x":0,"y":0,"w":500,"h":400},
	"sourceSize": {"w":500,"h":400}
},
"Peel_to-water_fromstain0013.png":
{
	"frame": {"x":0,"y":1200,"w":500,"h":400},
	"rotated": false,
	"trimmed": false,
	"spriteSourceSize": {"x":0,"y":0,"w":500,"h":400},
	"sourceSize": {"w":500,"h":400}
},
"Peel_to-water_fromstain0014.png":
{
	"frame": {"x":500,"y":1200,"w":500,"h":400},
	"rotated": false,
	"trimmed": false,
	"spriteSourceSize": {"x":0,"y":0,"w":500,"h":400},
	"sourceSize": {"w":500,"h":400}
},
"Peel_to-water_fromstain0015.png":
{
	"frame": {"x":1000,"y":1200,"w":500,"h":400},
	"rotated": false,
	"trimmed": false,
	"spriteSourceSize": {"x":0,"y":0,"w":500,"h":400},
	"sourceSize": {"w":500,"h":400}
},
"Peel_to-water_fromstain0016.png":
{
	"frame": {"x":1500,"y":1200,"w":500,"h":400},
	"rotated": false,
	"trimmed": false,
	"spriteSourceSize": {"x":0,"y":0,"w":500,"h":400},
	"sourceSize": {"w":500,"h":400}
}},
"meta": {
	"app": "https://www.codeandweb.com/texturepacker",
	"version": "1.0",
	"image": "Peel_to-water_fromstain.png",
	"format": "RGBA8888",
	"size": {"w":2048,"h":2048},
	"scale": "1",
	"smartupdate": "$TexturePacker:SmartUpdate:1e476f1d67f3492f6066e285e3b3c046:c1b120bebe1d98cb8a435c042b012bed:e492eac3768059d1bfc4725932579148$"
}
}
