{"frames": {

"Water_beaker_to_tube0001.png":
{
	"frame": {"x":0,"y":0,"w":500,"h":500},
	"rotated": false,
	"trimmed": false,
	"spriteSourceSize": {"x":0,"y":0,"w":500,"h":500},
	"sourceSize": {"w":500,"h":500}
},
"Water_beaker_to_tube0002.png":
{
	"frame": {"x":500,"y":0,"w":500,"h":500},
	"rotated": false,
	"trimmed": false,
	"spriteSourceSize": {"x":0,"y":0,"w":500,"h":500},
	"sourceSize": {"w":500,"h":500}
},
"Water_beaker_to_tube0003.png":
{
	"frame": {"x":1000,"y":0,"w":500,"h":500},
	"rotated": false,
	"trimmed": false,
	"spriteSourceSize": {"x":0,"y":0,"w":500,"h":500},
	"sourceSize": {"w":500,"h":500}
},
"Water_beaker_to_tube0004.png":
{
	"frame": {"x":1500,"y":0,"w":500,"h":500},
	"rotated": false,
	"trimmed": false,
	"spriteSourceSize": {"x":0,"y":0,"w":500,"h":500},
	"sourceSize": {"w":500,"h":500}
},
"Water_beaker_to_tube0005.png":
{
	"frame": {"x":2000,"y":0,"w":500,"h":500},
	"rotated": false,
	"trimmed": false,
	"spriteSourceSize": {"x":0,"y":0,"w":500,"h":500},
	"sourceSize": {"w":500,"h":500}
},
"Water_beaker_to_tube0006.png":
{
	"frame": {"x":2500,"y":0,"w":500,"h":500},
	"rotated": false,
	"trimmed": false,
	"spriteSourceSize": {"x":0,"y":0,"w":500,"h":500},
	"sourceSize": {"w":500,"h":500}
},
"Water_beaker_to_tube0007.png":
{
	"frame": {"x":3000,"y":0,"w":500,"h":500},
	"rotated": false,
	"trimmed": false,
	"spriteSourceSize": {"x":0,"y":0,"w":500,"h":500},
	"sourceSize": {"w":500,"h":500}
},
"Water_beaker_to_tube0008.png":
{
	"frame": {"x":3500,"y":0,"w":500,"h":500},
	"rotated": false,
	"trimmed": false,
	"spriteSourceSize": {"x":0,"y":0,"w":500,"h":500},
	"sourceSize": {"w":500,"h":500}
},
"Water_beaker_to_tube0009.png":
{
	"frame": {"x":0,"y":500,"w":500,"h":500},
	"rotated": false,
	"trimmed": false,
	"spriteSourceSize": {"x":0,"y":0,"w":500,"h":500},
	"sourceSize": {"w":500,"h":500}
},
"Water_beaker_to_tube0010.png":
{
	"frame": {"x":500,"y":500,"w":500,"h":500},
	"rotated": false,
	"trimmed": false,
	"spriteSourceSize": {"x":0,"y":0,"w":500,"h":500},
	"sourceSize": {"w":500,"h":500}
},
"Water_beaker_to_tube0011.png":
{
	"frame": {"x":1000,"y":500,"w":500,"h":500},
	"rotated": false,
	"trimmed": false,
	"spriteSourceSize": {"x":0,"y":0,"w":500,"h":500},
	"sourceSize": {"w":500,"h":500}
},
"Water_beaker_to_tube0012.png":
{
	"frame": {"x":1500,"y":500,"w":500,"h":500},
	"rotated": false,
	"trimmed": false,
	"spriteSourceSize": {"x":0,"y":0,"w":500,"h":500},
	"sourceSize": {"w":500,"h":500}
},
"Water_beaker_to_tube0013.png":
{
	"frame": {"x":2000,"y":500,"w":500,"h":500},
	"rotated": false,
	"trimmed": false,
	"spriteSourceSize": {"x":0,"y":0,"w":500,"h":500},
	"sourceSize": {"w":500,"h":500}
},
"Water_beaker_to_tube0014.png":
{
	"frame": {"x":2500,"y":500,"w":500,"h":500},
	"rotated": false,
	"trimmed": false,
	"spriteSourceSize": {"x":0,"y":0,"w":500,"h":500},
	"sourceSize": {"w":500,"h":500}
},
"Water_beaker_to_tube0015.png":
{
	"frame": {"x":3000,"y":500,"w":500,"h":500},
	"rotated": false,
	"trimmed": false,
	"spriteSourceSize": {"x":0,"y":0,"w":500,"h":500},
	"sourceSize": {"w":500,"h":500}
},
"Water_beaker_to_tube0016.png":
{
	"frame": {"x":3500,"y":500,"w":500,"h":500},
	"rotated": false,
	"trimmed": false,
	"spriteSourceSize": {"x":0,"y":0,"w":500,"h":500},
	"sourceSize": {"w":500,"h":500}
},
"Water_beaker_to_tube0017.png":
{
	"frame": {"x":0,"y":1000,"w":500,"h":500},
	"rotated": false,
	"trimmed": false,
	"spriteSourceSize": {"x":0,"y":0,"w":500,"h":500},
	"sourceSize": {"w":500,"h":500}
},
"Water_beaker_to_tube0018.png":
{
	"frame": {"x":500,"y":1000,"w":500,"h":500},
	"rotated": false,
	"trimmed": false,
	"spriteSourceSize": {"x":0,"y":0,"w":500,"h":500},
	"sourceSize": {"w":500,"h":500}
},
"Water_beaker_to_tube0019.png":
{
	"frame": {"x":1000,"y":1000,"w":500,"h":500},
	"rotated": false,
	"trimmed": false,
	"spriteSourceSize": {"x":0,"y":0,"w":500,"h":500},
	"sourceSize": {"w":500,"h":500}
},
"Water_beaker_to_tube0020.png":
{
	"frame": {"x":1500,"y":1000,"w":500,"h":500},
	"rotated": false,
	"trimmed": false,
	"spriteSourceSize": {"x":0,"y":0,"w":500,"h":500},
	"sourceSize": {"w":500,"h":500}
},
"Water_beaker_to_tube0021.png":
{
	"frame": {"x":2000,"y":1000,"w":500,"h":500},
	"rotated": false,
	"trimmed": false,
	"spriteSourceSize": {"x":0,"y":0,"w":500,"h":500},
	"sourceSize": {"w":500,"h":500}
},
"Water_beaker_to_tube0022.png":
{
	"frame": {"x":2500,"y":1000,"w":500,"h":500},
	"rotated": false,
	"trimmed": false,
	"spriteSourceSize": {"x":0,"y":0,"w":500,"h":500},
	"sourceSize": {"w":500,"h":500}
},
"Water_beaker_to_tube0023.png":
{
	"frame": {"x":3000,"y":1000,"w":500,"h":500},
	"rotated": false,
	"trimmed": false,
	"spriteSourceSize": {"x":0,"y":0,"w":500,"h":500},
	"sourceSize": {"w":500,"h":500}
},
"Water_beaker_to_tube0024.png":
{
	"frame": {"x":3500,"y":1000,"w":500,"h":500},
	"rotated": false,
	"trimmed": false,
	"spriteSourceSize": {"x":0,"y":0,"w":500,"h":500},
	"sourceSize": {"w":500,"h":500}
},
"Water_beaker_to_tube0025.png":
{
	"frame": {"x":0,"y":1500,"w":500,"h":500},
	"rotated": false,
	"trimmed": false,
	"spriteSourceSize": {"x":0,"y":0,"w":500,"h":500},
	"sourceSize": {"w":500,"h":500}
},
"Water_beaker_to_tube0026.png":
{
	"frame": {"x":500,"y":1500,"w":500,"h":500},
	"rotated": false,
	"trimmed": false,
	"spriteSourceSize": {"x":0,"y":0,"w":500,"h":500},
	"sourceSize": {"w":500,"h":500}
},
"Water_beaker_to_tube0027.png":
{
	"frame": {"x":1000,"y":1500,"w":500,"h":500},
	"rotated": false,
	"trimmed": false,
	"spriteSourceSize": {"x":0,"y":0,"w":500,"h":500},
	"sourceSize": {"w":500,"h":500}
},
"Water_beaker_to_tube0028.png":
{
	"frame": {"x":1500,"y":1500,"w":500,"h":500},
	"rotated": false,
	"trimmed": false,
	"spriteSourceSize": {"x":0,"y":0,"w":500,"h":500},
	"sourceSize": {"w":500,"h":500}
},
"Water_beaker_to_tube0029.png":
{
	"frame": {"x":2000,"y":1500,"w":500,"h":500},
	"rotated": false,
	"trimmed": false,
	"spriteSourceSize": {"x":0,"y":0,"w":500,"h":500},
	"sourceSize": {"w":500,"h":500}
},
"Water_beaker_to_tube0030.png":
{
	"frame": {"x":2500,"y":1500,"w":500,"h":500},
	"rotated": false,
	"trimmed": false,
	"spriteSourceSize": {"x":0,"y":0,"w":500,"h":500},
	"sourceSize": {"w":500,"h":500}
},
"Water_beaker_to_tube0031.png":
{
	"frame": {"x":3000,"y":1500,"w":500,"h":500},
	"rotated": false,
	"trimmed": false,
	"spriteSourceSize": {"x":0,"y":0,"w":500,"h":500},
	"sourceSize": {"w":500,"h":500}
}},
"meta": {
	"app": "https://www.codeandweb.com/texturepacker",
	"version": "1.0",
	"image": "water.png",
	"format": "RGBA8888",
	"size": {"w":4000,"h":2000},
	"scale": "1",
	"smartupdate": "$TexturePacker:SmartUpdate:1edea32de09e042e9c8be4e7b2b00a0f:430f6ad71d58ca518ec69f3e3ff10612:915b9e2c60291fd5f1d6c786f7274850$"
}
}
