{"frames": {

"Acetic_Acid_to_testube0001.png":
{
	"frame": {"x":0,"y":0,"w":150,"h":500},
	"rotated": false,
	"trimmed": false,
	"spriteSourceSize": {"x":0,"y":0,"w":150,"h":500},
	"sourceSize": {"w":150,"h":500}
},
"Acetic_Acid_to_testube0002.png":
{
	"frame": {"x":150,"y":0,"w":150,"h":500},
	"rotated": false,
	"trimmed": false,
	"spriteSourceSize": {"x":0,"y":0,"w":150,"h":500},
	"sourceSize": {"w":150,"h":500}
},
"Acetic_Acid_to_testube0003.png":
{
	"frame": {"x":300,"y":0,"w":150,"h":500},
	"rotated": false,
	"trimmed": false,
	"spriteSourceSize": {"x":0,"y":0,"w":150,"h":500},
	"sourceSize": {"w":150,"h":500}
},
"Acetic_Acid_to_testube0004.png":
{
	"frame": {"x":450,"y":0,"w":150,"h":500},
	"rotated": false,
	"trimmed": false,
	"spriteSourceSize": {"x":0,"y":0,"w":150,"h":500},
	"sourceSize": {"w":150,"h":500}
},
"Acetic_Acid_to_testube0005.png":
{
	"frame": {"x":600,"y":0,"w":150,"h":500},
	"rotated": false,
	"trimmed": false,
	"spriteSourceSize": {"x":0,"y":0,"w":150,"h":500},
	"sourceSize": {"w":150,"h":500}
},
"Acetic_Acid_to_testube0006.png":
{
	"frame": {"x":750,"y":0,"w":150,"h":500},
	"rotated": false,
	"trimmed": false,
	"spriteSourceSize": {"x":0,"y":0,"w":150,"h":500},
	"sourceSize": {"w":150,"h":500}
},
"Acetic_Acid_to_testube0007.png":
{
	"frame": {"x":900,"y":0,"w":150,"h":500},
	"rotated": false,
	"trimmed": false,
	"spriteSourceSize": {"x":0,"y":0,"w":150,"h":500},
	"sourceSize": {"w":150,"h":500}
},
"Acetic_Acid_to_testube0008.png":
{
	"frame": {"x":1050,"y":0,"w":150,"h":500},
	"rotated": false,
	"trimmed": false,
	"spriteSourceSize": {"x":0,"y":0,"w":150,"h":500},
	"sourceSize": {"w":150,"h":500}
},
"Acetic_Acid_to_testube0009.png":
{
	"frame": {"x":1200,"y":0,"w":150,"h":500},
	"rotated": false,
	"trimmed": false,
	"spriteSourceSize": {"x":0,"y":0,"w":150,"h":500},
	"sourceSize": {"w":150,"h":500}
},
"Acetic_Acid_to_testube0010.png":
{
	"frame": {"x":1350,"y":0,"w":150,"h":500},
	"rotated": false,
	"trimmed": false,
	"spriteSourceSize": {"x":0,"y":0,"w":150,"h":500},
	"sourceSize": {"w":150,"h":500}
},
"Acetic_Acid_to_testube0011.png":
{
	"frame": {"x":1500,"y":0,"w":150,"h":500},
	"rotated": false,
	"trimmed": false,
	"spriteSourceSize": {"x":0,"y":0,"w":150,"h":500},
	"sourceSize": {"w":150,"h":500}
},
"Acetic_Acid_to_testube0012.png":
{
	"frame": {"x":1650,"y":0,"w":150,"h":500},
	"rotated": false,
	"trimmed": false,
	"spriteSourceSize": {"x":0,"y":0,"w":150,"h":500},
	"sourceSize": {"w":150,"h":500}
},
"Acetic_Acid_to_testube0013.png":
{
	"frame": {"x":0,"y":500,"w":150,"h":500},
	"rotated": false,
	"trimmed": false,
	"spriteSourceSize": {"x":0,"y":0,"w":150,"h":500},
	"sourceSize": {"w":150,"h":500}
},
"Acetic_Acid_to_testube0014.png":
{
	"frame": {"x":150,"y":500,"w":150,"h":500},
	"rotated": false,
	"trimmed": false,
	"spriteSourceSize": {"x":0,"y":0,"w":150,"h":500},
	"sourceSize": {"w":150,"h":500}
},
"Acetic_Acid_to_testube0015.png":
{
	"frame": {"x":300,"y":500,"w":150,"h":500},
	"rotated": false,
	"trimmed": false,
	"spriteSourceSize": {"x":0,"y":0,"w":150,"h":500},
	"sourceSize": {"w":150,"h":500}
},
"Acetic_Acid_to_testube0016.png":
{
	"frame": {"x":450,"y":500,"w":150,"h":500},
	"rotated": false,
	"trimmed": false,
	"spriteSourceSize": {"x":0,"y":0,"w":150,"h":500},
	"sourceSize": {"w":150,"h":500}
},
"Acetic_Acid_to_testube0017.png":
{
	"frame": {"x":600,"y":500,"w":150,"h":500},
	"rotated": false,
	"trimmed": false,
	"spriteSourceSize": {"x":0,"y":0,"w":150,"h":500},
	"sourceSize": {"w":150,"h":500}
},
"Acetic_Acid_to_testube0018.png":
{
	"frame": {"x":750,"y":500,"w":150,"h":500},
	"rotated": false,
	"trimmed": false,
	"spriteSourceSize": {"x":0,"y":0,"w":150,"h":500},
	"sourceSize": {"w":150,"h":500}
},
"Acetic_Acid_to_testube0019.png":
{
	"frame": {"x":900,"y":500,"w":150,"h":500},
	"rotated": false,
	"trimmed": false,
	"spriteSourceSize": {"x":0,"y":0,"w":150,"h":500},
	"sourceSize": {"w":150,"h":500}
},
"Acetic_Acid_to_testube0020.png":
{
	"frame": {"x":1050,"y":500,"w":150,"h":500},
	"rotated": false,
	"trimmed": false,
	"spriteSourceSize": {"x":0,"y":0,"w":150,"h":500},
	"sourceSize": {"w":150,"h":500}
},
"Acetic_Acid_to_testube0021.png":
{
	"frame": {"x":1200,"y":500,"w":150,"h":500},
	"rotated": false,
	"trimmed": false,
	"spriteSourceSize": {"x":0,"y":0,"w":150,"h":500},
	"sourceSize": {"w":150,"h":500}
},
"Acetic_Acid_to_testube0022.png":
{
	"frame": {"x":1350,"y":500,"w":150,"h":500},
	"rotated": false,
	"trimmed": false,
	"spriteSourceSize": {"x":0,"y":0,"w":150,"h":500},
	"sourceSize": {"w":150,"h":500}
},
"Acetic_Acid_to_testube0023.png":
{
	"frame": {"x":1500,"y":500,"w":150,"h":500},
	"rotated": false,
	"trimmed": false,
	"spriteSourceSize": {"x":0,"y":0,"w":150,"h":500},
	"sourceSize": {"w":150,"h":500}
}},
"meta": {
	"app": "https://www.codeandweb.com/texturepacker",
	"version": "1.0",
	"image": "Acetic_Acid_to_testube.png",
	"format": "RGBA8888",
	"size": {"w":1800,"h":1000},
	"scale": "1",
	"smartupdate": "$TexturePacker:SmartUpdate:b0717c0f37b5e883dd901d2e4f3c8f90:053ed7e01950fabd83814f2568665bd5:078d58008b93dfbe9d843c67460d1ff1$"
}
}
