{"frames": {

"Microscope_Lenz0001.png":
{
	"frame": {"x":0,"y":0,"w":170,"h":140},
	"rotated": false,
	"trimmed": false,
	"spriteSourceSize": {"x":0,"y":0,"w":170,"h":140},
	"sourceSize": {"w":170,"h":140}
},
"Microscope_Lenz0002.png":
{
	"frame": {"x":170,"y":0,"w":170,"h":140},
	"rotated": false,
	"trimmed": false,
	"spriteSourceSize": {"x":0,"y":0,"w":170,"h":140},
	"sourceSize": {"w":170,"h":140}
},
"Microscope_Lenz0003.png":
{
	"frame": {"x":340,"y":0,"w":170,"h":140},
	"rotated": false,
	"trimmed": false,
	"spriteSourceSize": {"x":0,"y":0,"w":170,"h":140},
	"sourceSize": {"w":170,"h":140}
},
"Microscope_Lenz0004.png":
{
	"frame": {"x":510,"y":0,"w":170,"h":140},
	"rotated": false,
	"trimmed": false,
	"spriteSourceSize": {"x":0,"y":0,"w":170,"h":140},
	"sourceSize": {"w":170,"h":140}
},
"Microscope_Lenz0005.png":
{
	"frame": {"x":680,"y":0,"w":170,"h":140},
	"rotated": false,
	"trimmed": false,
	"spriteSourceSize": {"x":0,"y":0,"w":170,"h":140},
	"sourceSize": {"w":170,"h":140}
},
"Microscope_Lenz0006.png":
{
	"frame": {"x":0,"y":140,"w":170,"h":140},
	"rotated": false,
	"trimmed": false,
	"spriteSourceSize": {"x":0,"y":0,"w":170,"h":140},
	"sourceSize": {"w":170,"h":140}
},
"Microscope_Lenz0007.png":
{
	"frame": {"x":170,"y":140,"w":170,"h":140},
	"rotated": false,
	"trimmed": false,
	"spriteSourceSize": {"x":0,"y":0,"w":170,"h":140},
	"sourceSize": {"w":170,"h":140}
},
"Microscope_Lenz0008.png":
{
	"frame": {"x":340,"y":140,"w":170,"h":140},
	"rotated": false,
	"trimmed": false,
	"spriteSourceSize": {"x":0,"y":0,"w":170,"h":140},
	"sourceSize": {"w":170,"h":140}
},
"Microscope_Lenz0009.png":
{
	"frame": {"x":510,"y":140,"w":170,"h":140},
	"rotated": false,
	"trimmed": false,
	"spriteSourceSize": {"x":0,"y":0,"w":170,"h":140},
	"sourceSize": {"w":170,"h":140}
},
"Microscope_Lenz0010.png":
{
	"frame": {"x":680,"y":140,"w":170,"h":140},
	"rotated": false,
	"trimmed": false,
	"spriteSourceSize": {"x":0,"y":0,"w":170,"h":140},
	"sourceSize": {"w":170,"h":140}
},
"Microscope_Lenz0011.png":
{
	"frame": {"x":0,"y":280,"w":170,"h":140},
	"rotated": false,
	"trimmed": false,
	"spriteSourceSize": {"x":0,"y":0,"w":170,"h":140},
	"sourceSize": {"w":170,"h":140}
},
"Microscope_Lenz0012.png":
{
	"frame": {"x":170,"y":280,"w":170,"h":140},
	"rotated": false,
	"trimmed": false,
	"spriteSourceSize": {"x":0,"y":0,"w":170,"h":140},
	"sourceSize": {"w":170,"h":140}
},
"Microscope_Lenz0013.png":
{
	"frame": {"x":340,"y":280,"w":170,"h":140},
	"rotated": false,
	"trimmed": false,
	"spriteSourceSize": {"x":0,"y":0,"w":170,"h":140},
	"sourceSize": {"w":170,"h":140}
},
"Microscope_Lenz0014.png":
{
	"frame": {"x":510,"y":280,"w":170,"h":140},
	"rotated": false,
	"trimmed": false,
	"spriteSourceSize": {"x":0,"y":0,"w":170,"h":140},
	"sourceSize": {"w":170,"h":140}
},
"Microscope_Lenz0015.png":
{
	"frame": {"x":680,"y":280,"w":170,"h":140},
	"rotated": false,
	"trimmed": false,
	"spriteSourceSize": {"x":0,"y":0,"w":170,"h":140},
	"sourceSize": {"w":170,"h":140}
}},
"meta": {
	"app": "https://www.codeandweb.com/texturepacker",
	"version": "1.0",
	"image": "eyePiece_rotating_sprite.png",
	"format": "RGBA8888",
	"size": {"w":850,"h":420},
	"scale": "1",
	"smartupdate": "$TexturePacker:SmartUpdate:d62ce51055d28bffc368a9bf054991e5:cd62191b665813bd46c8a27351268b23:ff536b66288081368fe59e86cf9e9579$"
}
}
