{
    "totalQuestionsToShow":5,
    "randomize":false,
    "bloomsOrder":["Understanding","Analyzing","Evaluating","Evaluating","Evaluating"],
    "bloomClr":["#511e95","#168c16","#176cc6","#176cc6","#176cc6"],
    "headOrder":["r2","r4","r5","r5","r5"],
    "questions":[
        
        {
            "question":"Animal species in the laboratory are generally stored in ________.", 
            "answers":["Alcohol","Water","Acetone","Formalin"],
            "correctAnswerIndex":3
        },
        {
            "question":"Which of the following has an air bladder?",
            "answers":["Frog","Snake","Bony fishes","Cartilaginous fish"],
            "correctAnswerIndex":2
        },
        {
            "question":"A cockroach is _________.",
            "answers":["Herbivorous","Carnivorous","Omnivorous","Detrivorous"],
            "correctAnswerIndex":2
        },
        {
            "question":"In a bony fish, how are the gills covered?",
            "answers":["Covered with operculum.","Covered with pectoral fin.","Covered with scales.","Exposed."],
            "correctAnswerIndex":0
        },
        {
            "question":"Which of the following is not clearly visible in birds?",
            "answers":["Head","Forelimbs","Eyes","Hind limbs"],
            "correctAnswerIndex":1
        }

    ]
}