{"frames": {

"Burner_sprite_0.png":
{
	"frame": {"x":1,"y":1,"w":344,"h":429},
	"rotated": false,
	"trimmed": false,
	"spriteSourceSize": {"x":0,"y":0,"w":344,"h":429},
	"sourceSize": {"w":344,"h":429},
	"pivot": {"x":0.8,"y":1}
},
"Burner_sprite_1.png":
{
	"frame": {"x":1,"y":432,"w":344,"h":424},
	"rotated": false,
	"trimmed": false,
	"spriteSourceSize": {"x":0,"y":0,"w":344,"h":424},
	"sourceSize": {"w":344,"h":424},
	"pivot": {"x":0.8,"y":1}
},
"Burner_sprite_2.png":
{
	"frame": {"x":1,"y":858,"w":344,"h":411},
	"rotated": false,
	"trimmed": false,
	"spriteSourceSize": {"x":0,"y":0,"w":344,"h":411},
	"sourceSize": {"w":344,"h":411},
	"pivot": {"x":0.8,"y":1}
},
"Burner_sprite_3.png":
{
	"frame": {"x":1,"y":1271,"w":344,"h":404},
	"rotated": false,
	"trimmed": false,
	"spriteSourceSize": {"x":0,"y":0,"w":344,"h":404},
	"sourceSize": {"w":344,"h":404},
	"pivot": {"x":0.8,"y":1}
}},
"meta": {
	"app": "https://www.codeandweb.com/texturepacker",
	"version": "1.0",
	"image": "burner_sprites.png",
	"format": "RGBA8888",
	"size": {"w":346,"h":1676},
	"scale": "1",
	"smartupdate": "$TexturePacker:SmartUpdate:434296d9d4d1a51a7ce4bb28fdd26c32:06ebe7bfe1e610450b7d5fae3b7b1685:442ac223e57b7e1f9adcb5ae3b42c20d$"
}
}
