{"frames": {

"arrow.png":
{
	"frame": {"x":0,"y":0,"w":888,"h":115},
	"rotated": false,
	"trimmed": false,
	"spriteSourceSize": {"x":0,"y":0,"w":888,"h":115},
	"sourceSize": {"w":888,"h":115}
},
"eq1.png":
{
	"frame": {"x":888,"y":0,"w":863,"h":863},
	"rotated": false,
	"trimmed": false,
	"spriteSourceSize": {"x":0,"y":0,"w":863,"h":863},
	"sourceSize": {"w":863,"h":863}
},
"eq2.png":
{
	"frame": {"x":0,"y":863,"w":647,"h":647},
	"rotated": false,
	"trimmed": false,
	"spriteSourceSize": {"x":0,"y":0,"w":647,"h":647},
	"sourceSize": {"w":647,"h":647}
},
"eq3.png":
{
	"frame": {"x":647,"y":863,"w":647,"h":647},
	"rotated": false,
	"trimmed": false,
	"spriteSourceSize": {"x":0,"y":0,"w":647,"h":647},
	"sourceSize": {"w":647,"h":647}
},
"eq4.png":
{
	"frame": {"x":1294,"y":863,"w":647,"h":647},
	"rotated": false,
	"trimmed": false,
	"spriteSourceSize": {"x":0,"y":0,"w":647,"h":647},
	"sourceSize": {"w":647,"h":647}
},
"Ferric.png":
{
	"frame": {"x":0,"y":1510,"w":847,"h":90},
	"rotated": false,
	"trimmed": false,
	"spriteSourceSize": {"x":0,"y":0,"w":847,"h":90},
	"sourceSize": {"w":847,"h":90}
},
"Ferrous_sulphate.png":
{
	"frame": {"x":0,"y":1600,"w":1175,"h":97},
	"rotated": false,
	"trimmed": false,
	"spriteSourceSize": {"x":0,"y":0,"w":1175,"h":97},
	"sourceSize": {"w":1175,"h":97}
},
"heat.png":
{
	"frame": {"x":1175,"y":1600,"w":307,"h":76},
	"rotated": false,
	"trimmed": false,
	"spriteSourceSize": {"x":0,"y":0,"w":307,"h":76},
	"sourceSize": {"w":307,"h":76}
},
"plus.png":
{
	"frame": {"x":1482,"y":1600,"w":197,"h":196},
	"rotated": false,
	"trimmed": false,
	"spriteSourceSize": {"x":0,"y":0,"w":197,"h":196},
	"sourceSize": {"w":197,"h":196}
}},
"meta": {
	"app": "https://www.codeandweb.com/texturepacker",
	"version": "1.0",
	"image": "equations.png",
	"format": "RGBA8888",
	"size": {"w":1941,"h":1796},
	"scale": "1",
	"smartupdate": "$TexturePacker:SmartUpdate:a975dbce0cc3bb385ea9c7573343380d:4a33f8fb5cd439d6db29cc15da0cd30e:6abc22f71383b629ac20373a8a3c0e02$"
}
}
