{"frames": {

"NaHCo3_LSPaper_colour0001.png":
{
	"frame": {"x":0,"y":0,"w":400,"h":150},
	"rotated": false,
	"trimmed": false,
	"spriteSourceSize": {"x":0,"y":0,"w":400,"h":150},
	"sourceSize": {"w":400,"h":150}
},
"NaHCo3_LSPaper_colour0002.png":
{
	"frame": {"x":400,"y":0,"w":400,"h":150},
	"rotated": false,
	"trimmed": false,
	"spriteSourceSize": {"x":0,"y":0,"w":400,"h":150},
	"sourceSize": {"w":400,"h":150}
},
"NaHCo3_LSPaper_colour0003.png":
{
	"frame": {"x":0,"y":150,"w":400,"h":150},
	"rotated": false,
	"trimmed": false,
	"spriteSourceSize": {"x":0,"y":0,"w":400,"h":150},
	"sourceSize": {"w":400,"h":150}
},
"NaHCo3_LSPaper_colour0004.png":
{
	"frame": {"x":400,"y":150,"w":400,"h":150},
	"rotated": false,
	"trimmed": false,
	"spriteSourceSize": {"x":0,"y":0,"w":400,"h":150},
	"sourceSize": {"w":400,"h":150}
},
"NaHCo3_LSPaper_colour0005.png":
{
	"frame": {"x":0,"y":300,"w":400,"h":150},
	"rotated": false,
	"trimmed": false,
	"spriteSourceSize": {"x":0,"y":0,"w":400,"h":150},
	"sourceSize": {"w":400,"h":150}
},
"NaHCo3_LSPaper_colour0006.png":
{
	"frame": {"x":400,"y":300,"w":400,"h":150},
	"rotated": false,
	"trimmed": false,
	"spriteSourceSize": {"x":0,"y":0,"w":400,"h":150},
	"sourceSize": {"w":400,"h":150}
},
"NaHCo3_LSPaper_colour0007.png":
{
	"frame": {"x":0,"y":450,"w":400,"h":150},
	"rotated": false,
	"trimmed": false,
	"spriteSourceSize": {"x":0,"y":0,"w":400,"h":150},
	"sourceSize": {"w":400,"h":150}
},
"NaHCo3_LSPaper_colour0008.png":
{
	"frame": {"x":400,"y":450,"w":400,"h":150},
	"rotated": false,
	"trimmed": false,
	"spriteSourceSize": {"x":0,"y":0,"w":400,"h":150},
	"sourceSize": {"w":400,"h":150}
},
"NaHCo3_LSPaper_colour0009.png":
{
	"frame": {"x":0,"y":600,"w":400,"h":150},
	"rotated": false,
	"trimmed": false,
	"spriteSourceSize": {"x":0,"y":0,"w":400,"h":150},
	"sourceSize": {"w":400,"h":150}
},
"NaHCo3_LSPaper_colour0010.png":
{
	"frame": {"x":400,"y":600,"w":400,"h":150},
	"rotated": false,
	"trimmed": false,
	"spriteSourceSize": {"x":0,"y":0,"w":400,"h":150},
	"sourceSize": {"w":400,"h":150}
},
"NaHCo3_LSPaper_colour0011.png":
{
	"frame": {"x":0,"y":750,"w":400,"h":150},
	"rotated": false,
	"trimmed": false,
	"spriteSourceSize": {"x":0,"y":0,"w":400,"h":150},
	"sourceSize": {"w":400,"h":150}
},
"NaHCo3_LSPaper_colour0012.png":
{
	"frame": {"x":400,"y":750,"w":400,"h":150},
	"rotated": false,
	"trimmed": false,
	"spriteSourceSize": {"x":0,"y":0,"w":400,"h":150},
	"sourceSize": {"w":400,"h":150}
}},
"meta": {
	"app": "https://www.codeandweb.com/texturepacker",
	"version": "1.0",
	"image": "NaHCO3_litmus_sprite.png",
	"format": "RGBA8888",
	"size": {"w":800,"h":900},
	"scale": "1",
	"smartupdate": "$TexturePacker:SmartUpdate:b80e7358b6893bae52e9fe4193240c5e:38e98102c2ad80b0e7a80d35f4db66d3:50ae0eb1cc781366fe7a4f4a57f91388$"
}
}
