{"frames": {

"Universal_SL_to_CH3COOHtestube0001.png":
{
	"frame": {"x":0,"y":0,"w":100,"h":350},
	"rotated": false,
	"trimmed": false,
	"spriteSourceSize": {"x":0,"y":0,"w":100,"h":350},
	"sourceSize": {"w":100,"h":350}
},
"Universal_SL_to_CH3COOHtestube0002.png":
{
	"frame": {"x":100,"y":0,"w":100,"h":350},
	"rotated": false,
	"trimmed": false,
	"spriteSourceSize": {"x":0,"y":0,"w":100,"h":350},
	"sourceSize": {"w":100,"h":350}
},
"Universal_SL_to_CH3COOHtestube0003.png":
{
	"frame": {"x":200,"y":0,"w":100,"h":350},
	"rotated": false,
	"trimmed": false,
	"spriteSourceSize": {"x":0,"y":0,"w":100,"h":350},
	"sourceSize": {"w":100,"h":350}
},
"Universal_SL_to_CH3COOHtestube0004.png":
{
	"frame": {"x":300,"y":0,"w":100,"h":350},
	"rotated": false,
	"trimmed": false,
	"spriteSourceSize": {"x":0,"y":0,"w":100,"h":350},
	"sourceSize": {"w":100,"h":350}
},
"Universal_SL_to_CH3COOHtestube0005.png":
{
	"frame": {"x":400,"y":0,"w":100,"h":350},
	"rotated": false,
	"trimmed": false,
	"spriteSourceSize": {"x":0,"y":0,"w":100,"h":350},
	"sourceSize": {"w":100,"h":350}
},
"Universal_SL_to_CH3COOHtestube0006.png":
{
	"frame": {"x":0,"y":350,"w":100,"h":350},
	"rotated": false,
	"trimmed": false,
	"spriteSourceSize": {"x":0,"y":0,"w":100,"h":350},
	"sourceSize": {"w":100,"h":350}
},
"Universal_SL_to_CH3COOHtestube0007.png":
{
	"frame": {"x":100,"y":350,"w":100,"h":350},
	"rotated": false,
	"trimmed": false,
	"spriteSourceSize": {"x":0,"y":0,"w":100,"h":350},
	"sourceSize": {"w":100,"h":350}
},
"Universal_SL_to_CH3COOHtestube0008.png":
{
	"frame": {"x":200,"y":350,"w":100,"h":350},
	"rotated": false,
	"trimmed": false,
	"spriteSourceSize": {"x":0,"y":0,"w":100,"h":350},
	"sourceSize": {"w":100,"h":350}
},
"Universal_SL_to_CH3COOHtestube0009.png":
{
	"frame": {"x":300,"y":350,"w":100,"h":350},
	"rotated": false,
	"trimmed": false,
	"spriteSourceSize": {"x":0,"y":0,"w":100,"h":350},
	"sourceSize": {"w":100,"h":350}
},
"Universal_SL_to_CH3COOHtestube0010.png":
{
	"frame": {"x":400,"y":350,"w":100,"h":350},
	"rotated": false,
	"trimmed": false,
	"spriteSourceSize": {"x":0,"y":0,"w":100,"h":350},
	"sourceSize": {"w":100,"h":350}
}},
"meta": {
	"app": "https://www.codeandweb.com/texturepacker",
	"version": "1.0",
	"image": "UI_to_ch3cooh_sprite.png",
	"format": "RGBA8888",
	"size": {"w":500,"h":700},
	"scale": "1",
	"smartupdate": "$TexturePacker:SmartUpdate:729a2643ebcd232a4ea2344942912863:87073d1d6d6123a82155aeb63f7a5d0a:a69f456e2bc58b70951739271d8982c6$"
}
}
