{"frames": {

"Dill_Water_to_testube0001.png":
{
	"frame": {"x":0,"y":0,"w":100,"h":350},
	"rotated": false,
	"trimmed": false,
	"spriteSourceSize": {"x":0,"y":0,"w":100,"h":350},
	"sourceSize": {"w":100,"h":350}
},
"Dill_Water_to_testube0002.png":
{
	"frame": {"x":100,"y":0,"w":100,"h":350},
	"rotated": false,
	"trimmed": false,
	"spriteSourceSize": {"x":0,"y":0,"w":100,"h":350},
	"sourceSize": {"w":100,"h":350}
},
"Dill_Water_to_testube0003.png":
{
	"frame": {"x":200,"y":0,"w":100,"h":350},
	"rotated": false,
	"trimmed": false,
	"spriteSourceSize": {"x":0,"y":0,"w":100,"h":350},
	"sourceSize": {"w":100,"h":350}
},
"Dill_Water_to_testube0004.png":
{
	"frame": {"x":300,"y":0,"w":100,"h":350},
	"rotated": false,
	"trimmed": false,
	"spriteSourceSize": {"x":0,"y":0,"w":100,"h":350},
	"sourceSize": {"w":100,"h":350}
},
"Dill_Water_to_testube0005.png":
{
	"frame": {"x":400,"y":0,"w":100,"h":350},
	"rotated": false,
	"trimmed": false,
	"spriteSourceSize": {"x":0,"y":0,"w":100,"h":350},
	"sourceSize": {"w":100,"h":350}
},
"Dill_Water_to_testube0006.png":
{
	"frame": {"x":0,"y":350,"w":100,"h":350},
	"rotated": false,
	"trimmed": false,
	"spriteSourceSize": {"x":0,"y":0,"w":100,"h":350},
	"sourceSize": {"w":100,"h":350}
},
"Dill_Water_to_testube0007.png":
{
	"frame": {"x":100,"y":350,"w":100,"h":350},
	"rotated": false,
	"trimmed": false,
	"spriteSourceSize": {"x":0,"y":0,"w":100,"h":350},
	"sourceSize": {"w":100,"h":350}
},
"Dill_Water_to_testube0008.png":
{
	"frame": {"x":200,"y":350,"w":100,"h":350},
	"rotated": false,
	"trimmed": false,
	"spriteSourceSize": {"x":0,"y":0,"w":100,"h":350},
	"sourceSize": {"w":100,"h":350}
},
"Dill_Water_to_testube0009.png":
{
	"frame": {"x":300,"y":350,"w":100,"h":350},
	"rotated": false,
	"trimmed": false,
	"spriteSourceSize": {"x":0,"y":0,"w":100,"h":350},
	"sourceSize": {"w":100,"h":350}
},
"Dill_Water_to_testube0010.png":
{
	"frame": {"x":400,"y":350,"w":100,"h":350},
	"rotated": false,
	"trimmed": false,
	"spriteSourceSize": {"x":0,"y":0,"w":100,"h":350},
	"sourceSize": {"w":100,"h":350}
},
"Dill_Water_to_testube0011.png":
{
	"frame": {"x":0,"y":700,"w":100,"h":350},
	"rotated": false,
	"trimmed": false,
	"spriteSourceSize": {"x":0,"y":0,"w":100,"h":350},
	"sourceSize": {"w":100,"h":350}
},
"Dill_Water_to_testube0012.png":
{
	"frame": {"x":100,"y":700,"w":100,"h":350},
	"rotated": false,
	"trimmed": false,
	"spriteSourceSize": {"x":0,"y":0,"w":100,"h":350},
	"sourceSize": {"w":100,"h":350}
},
"Dill_Water_to_testube0013.png":
{
	"frame": {"x":200,"y":700,"w":100,"h":350},
	"rotated": false,
	"trimmed": false,
	"spriteSourceSize": {"x":0,"y":0,"w":100,"h":350},
	"sourceSize": {"w":100,"h":350}
},
"Dill_Water_to_testube0014.png":
{
	"frame": {"x":300,"y":700,"w":100,"h":350},
	"rotated": false,
	"trimmed": false,
	"spriteSourceSize": {"x":0,"y":0,"w":100,"h":350},
	"sourceSize": {"w":100,"h":350}
},
"Dill_Water_to_testube0015.png":
{
	"frame": {"x":400,"y":700,"w":100,"h":350},
	"rotated": false,
	"trimmed": false,
	"spriteSourceSize": {"x":0,"y":0,"w":100,"h":350},
	"sourceSize": {"w":100,"h":350}
},
"Dill_Water_to_testube0016.png":
{
	"frame": {"x":0,"y":1050,"w":100,"h":350},
	"rotated": false,
	"trimmed": false,
	"spriteSourceSize": {"x":0,"y":0,"w":100,"h":350},
	"sourceSize": {"w":100,"h":350}
},
"Dill_Water_to_testube0017.png":
{
	"frame": {"x":100,"y":1050,"w":100,"h":350},
	"rotated": false,
	"trimmed": false,
	"spriteSourceSize": {"x":0,"y":0,"w":100,"h":350},
	"sourceSize": {"w":100,"h":350}
},
"Dill_Water_to_testube0018.png":
{
	"frame": {"x":200,"y":1050,"w":100,"h":350},
	"rotated": false,
	"trimmed": false,
	"spriteSourceSize": {"x":0,"y":0,"w":100,"h":350},
	"sourceSize": {"w":100,"h":350}
},
"Dill_Water_to_testube0019.png":
{
	"frame": {"x":300,"y":1050,"w":100,"h":350},
	"rotated": false,
	"trimmed": false,
	"spriteSourceSize": {"x":0,"y":0,"w":100,"h":350},
	"sourceSize": {"w":100,"h":350}
},
"Dill_Water_to_testube0020.png":
{
	"frame": {"x":400,"y":1050,"w":100,"h":350},
	"rotated": false,
	"trimmed": false,
	"spriteSourceSize": {"x":0,"y":0,"w":100,"h":350},
	"sourceSize": {"w":100,"h":350}
},
"Dill_Water_to_testube0021.png":
{
	"frame": {"x":0,"y":1400,"w":100,"h":350},
	"rotated": false,
	"trimmed": false,
	"spriteSourceSize": {"x":0,"y":0,"w":100,"h":350},
	"sourceSize": {"w":100,"h":350}
},
"Dill_Water_to_testube0022.png":
{
	"frame": {"x":100,"y":1400,"w":100,"h":350},
	"rotated": false,
	"trimmed": false,
	"spriteSourceSize": {"x":0,"y":0,"w":100,"h":350},
	"sourceSize": {"w":100,"h":350}
},
"Dill_Water_to_testube0023.png":
{
	"frame": {"x":200,"y":1400,"w":100,"h":350},
	"rotated": false,
	"trimmed": false,
	"spriteSourceSize": {"x":0,"y":0,"w":100,"h":350},
	"sourceSize": {"w":100,"h":350}
},
"Dill_Water_to_testube0024.png":
{
	"frame": {"x":300,"y":1400,"w":100,"h":350},
	"rotated": false,
	"trimmed": false,
	"spriteSourceSize": {"x":0,"y":0,"w":100,"h":350},
	"sourceSize": {"w":100,"h":350}
}},
"meta": {
	"app": "https://www.codeandweb.com/texturepacker",
	"version": "1.0",
	"image": "Water_to_testtube.png",
	"format": "RGBA8888",
	"size": {"w":500,"h":1750},
	"scale": "1",
	"smartupdate": "$TexturePacker:SmartUpdate:420fe7390e5d798bc1294fec8e035228:339dc40d5dbcaea220e0b351bf7ac4ab:d53d0571fd6844c6bc5ee478d641a3a8$"
}
}
