{"frames": {

"Soil_to_beaker0001.png":
{
	"frame": {"x":0,"y":0,"w":300,"h":500},
	"rotated": false,
	"trimmed": false,
	"spriteSourceSize": {"x":0,"y":0,"w":300,"h":500},
	"sourceSize": {"w":300,"h":500}
},
"Soil_to_beaker0002.png":
{
	"frame": {"x":300,"y":0,"w":300,"h":500},
	"rotated": false,
	"trimmed": false,
	"spriteSourceSize": {"x":0,"y":0,"w":300,"h":500},
	"sourceSize": {"w":300,"h":500}
},
"Soil_to_beaker0003.png":
{
	"frame": {"x":600,"y":0,"w":300,"h":500},
	"rotated": false,
	"trimmed": false,
	"spriteSourceSize": {"x":0,"y":0,"w":300,"h":500},
	"sourceSize": {"w":300,"h":500}
},
"Soil_to_beaker0004.png":
{
	"frame": {"x":900,"y":0,"w":300,"h":500},
	"rotated": false,
	"trimmed": false,
	"spriteSourceSize": {"x":0,"y":0,"w":300,"h":500},
	"sourceSize": {"w":300,"h":500}
},
"Soil_to_beaker0005.png":
{
	"frame": {"x":1200,"y":0,"w":300,"h":500},
	"rotated": false,
	"trimmed": false,
	"spriteSourceSize": {"x":0,"y":0,"w":300,"h":500},
	"sourceSize": {"w":300,"h":500}
},
"Soil_to_beaker0006.png":
{
	"frame": {"x":0,"y":500,"w":300,"h":500},
	"rotated": false,
	"trimmed": false,
	"spriteSourceSize": {"x":0,"y":0,"w":300,"h":500},
	"sourceSize": {"w":300,"h":500}
},
"Soil_to_beaker0007.png":
{
	"frame": {"x":300,"y":500,"w":300,"h":500},
	"rotated": false,
	"trimmed": false,
	"spriteSourceSize": {"x":0,"y":0,"w":300,"h":500},
	"sourceSize": {"w":300,"h":500}
},
"Soil_to_beaker0008.png":
{
	"frame": {"x":600,"y":500,"w":300,"h":500},
	"rotated": false,
	"trimmed": false,
	"spriteSourceSize": {"x":0,"y":0,"w":300,"h":500},
	"sourceSize": {"w":300,"h":500}
},
"Soil_to_beaker0009.png":
{
	"frame": {"x":900,"y":500,"w":300,"h":500},
	"rotated": false,
	"trimmed": false,
	"spriteSourceSize": {"x":0,"y":0,"w":300,"h":500},
	"sourceSize": {"w":300,"h":500}
},
"Soil_to_beaker0010.png":
{
	"frame": {"x":1200,"y":500,"w":300,"h":500},
	"rotated": false,
	"trimmed": false,
	"spriteSourceSize": {"x":0,"y":0,"w":300,"h":500},
	"sourceSize": {"w":300,"h":500}
},
"Soil_to_beaker0011.png":
{
	"frame": {"x":0,"y":1000,"w":300,"h":500},
	"rotated": false,
	"trimmed": false,
	"spriteSourceSize": {"x":0,"y":0,"w":300,"h":500},
	"sourceSize": {"w":300,"h":500}
},
"Soil_to_beaker0012.png":
{
	"frame": {"x":300,"y":1000,"w":300,"h":500},
	"rotated": false,
	"trimmed": false,
	"spriteSourceSize": {"x":0,"y":0,"w":300,"h":500},
	"sourceSize": {"w":300,"h":500}
},
"Soil_to_beaker0013.png":
{
	"frame": {"x":600,"y":1000,"w":300,"h":500},
	"rotated": false,
	"trimmed": false,
	"spriteSourceSize": {"x":0,"y":0,"w":300,"h":500},
	"sourceSize": {"w":300,"h":500}
}},
"meta": {
	"app": "https://www.codeandweb.com/texturepacker",
	"version": "1.0",
	"image": "soiltobeakers.png",
	"format": "RGBA8888",
	"size": {"w":1500,"h":1500},
	"scale": "1",
	"smartupdate": "$TexturePacker:SmartUpdate:54c86b450ecd83b028c3acc643062af3:69953ca62a8baa3a934594b12cd22002:226706a503907b5f1594afa1b1f669f6$"
}
}
