{
    "totalQuestionsToShow":5,
    "randomize":false,
    "questions":[
        {
            "question":"What is the effect of acetic acid on litmus?",
            "answers":["Blue into red","Red into blue","Yellow to blue","Colourless to pink"],
            "correctAnswerIndex":0
        },
        {
            "question":"Which one of the following is correct about acetic acid?",
            "answers":["It is a weak acid.","It is a mineral acid.","It is a strong acid.","It is a dicarboxylic acid."],
            "correctAnswerIndex":0
        },
        {
            "question":"On adding sodium bicarbonate to acetic acid, what do you immediately\nobserve?",
            "answers":["Hear hissing sound.","Observe brisk effervescence.","Smell pungent odour.","Observe a white precipitate."],
            "correctAnswerIndex":1
        },
        {
            "question":"What is the functional group present in acetic acid?",
            "answers":["–OH","–COOH","–COR","–CHO"],
            "correctAnswerIndex":1
          },
        {
            "question":"What is the common name of dil. acetic acid?",
            "answers":["Glacial acetic acid","Butanoic acid","Methanoic acid","Vinegar"],
            "correctAnswerIndex":3
        }
]

      }
