{"frames": {

"Spoon_Salt0001.png":
{
	"frame": {"x":0,"y":0,"w":300,"h":250},
	"rotated": false,
	"trimmed": false,
	"spriteSourceSize": {"x":0,"y":0,"w":300,"h":250},
	"sourceSize": {"w":300,"h":250}
},
"Spoon_Salt0002.png":
{
	"frame": {"x":0,"y":250,"w":300,"h":250},
	"rotated": false,
	"trimmed": false,
	"spriteSourceSize": {"x":0,"y":0,"w":300,"h":250},
	"sourceSize": {"w":300,"h":250}
},
"Spoon_Salt0003.png":
{
	"frame": {"x":0,"y":500,"w":300,"h":250},
	"rotated": false,
	"trimmed": false,
	"spriteSourceSize": {"x":0,"y":0,"w":300,"h":250},
	"sourceSize": {"w":300,"h":250}
},
"Spoon_Salt0004.png":
{
	"frame": {"x":0,"y":750,"w":300,"h":250},
	"rotated": false,
	"trimmed": false,
	"spriteSourceSize": {"x":0,"y":0,"w":300,"h":250},
	"sourceSize": {"w":300,"h":250}
},
"Spoon_Salt0005.png":
{
	"frame": {"x":0,"y":1000,"w":300,"h":250},
	"rotated": false,
	"trimmed": false,
	"spriteSourceSize": {"x":0,"y":0,"w":300,"h":250},
	"sourceSize": {"w":300,"h":250}
},
"Spoon_Salt0006.png":
{
	"frame": {"x":0,"y":1250,"w":300,"h":250},
	"rotated": false,
	"trimmed": false,
	"spriteSourceSize": {"x":0,"y":0,"w":300,"h":250},
	"sourceSize": {"w":300,"h":250}
},
"Spoon_Salt0007.png":
{
	"frame": {"x":0,"y":1500,"w":300,"h":250},
	"rotated": false,
	"trimmed": false,
	"spriteSourceSize": {"x":0,"y":0,"w":300,"h":250},
	"sourceSize": {"w":300,"h":250}
},
"Spoon_Salt0008.png":
{
	"frame": {"x":0,"y":1750,"w":300,"h":250},
	"rotated": false,
	"trimmed": false,
	"spriteSourceSize": {"x":0,"y":0,"w":300,"h":250},
	"sourceSize": {"w":300,"h":250}
}},
"meta": {
	"app": "https://www.codeandweb.com/texturepacker",
	"version": "1.0",
	"image": "spoonsalt.png",
	"format": "RGBA8888",
	"size": {"w":300,"h":2000},
	"scale": "1",
	"smartupdate": "$TexturePacker:SmartUpdate:2a430745de209a7bb3d1e8b723883fdf:baa7ac37239438d34803c7eb1ef480de:606325a5b20fff343d6adab112ad24ec$"
}
}
