{"frames": {

"Zinc_Spoon0001.png":
{
	"frame": {"x":0,"y":0,"w":250,"h":250},
	"rotated": false,
	"trimmed": false,
	"spriteSourceSize": {"x":0,"y":0,"w":250,"h":250},
	"sourceSize": {"w":250,"h":250}
},
"Zinc_Spoon0002.png":
{
	"frame": {"x":250,"y":0,"w":250,"h":250},
	"rotated": false,
	"trimmed": false,
	"spriteSourceSize": {"x":0,"y":0,"w":250,"h":250},
	"sourceSize": {"w":250,"h":250}
},
"Zinc_Spoon0003.png":
{
	"frame": {"x":500,"y":0,"w":250,"h":250},
	"rotated": false,
	"trimmed": false,
	"spriteSourceSize": {"x":0,"y":0,"w":250,"h":250},
	"sourceSize": {"w":250,"h":250}
},
"Zinc_Spoon0004.png":
{
	"frame": {"x":750,"y":0,"w":250,"h":250},
	"rotated": false,
	"trimmed": false,
	"spriteSourceSize": {"x":0,"y":0,"w":250,"h":250},
	"sourceSize": {"w":250,"h":250}
},
"Zinc_Spoon0005.png":
{
	"frame": {"x":0,"y":250,"w":250,"h":250},
	"rotated": false,
	"trimmed": false,
	"spriteSourceSize": {"x":0,"y":0,"w":250,"h":250},
	"sourceSize": {"w":250,"h":250}
},
"Zinc_Spoon0006.png":
{
	"frame": {"x":250,"y":250,"w":250,"h":250},
	"rotated": false,
	"trimmed": false,
	"spriteSourceSize": {"x":0,"y":0,"w":250,"h":250},
	"sourceSize": {"w":250,"h":250}
},
"Zinc_Spoon0007.png":
{
	"frame": {"x":500,"y":250,"w":250,"h":250},
	"rotated": false,
	"trimmed": false,
	"spriteSourceSize": {"x":0,"y":0,"w":250,"h":250},
	"sourceSize": {"w":250,"h":250}
},
"Zinc_Spoon0008.png":
{
	"frame": {"x":750,"y":250,"w":250,"h":250},
	"rotated": false,
	"trimmed": false,
	"spriteSourceSize": {"x":0,"y":0,"w":250,"h":250},
	"sourceSize": {"w":250,"h":250}
},
"Zinc_Spoon0009.png":
{
	"frame": {"x":0,"y":500,"w":250,"h":250},
	"rotated": false,
	"trimmed": false,
	"spriteSourceSize": {"x":0,"y":0,"w":250,"h":250},
	"sourceSize": {"w":250,"h":250}
},
"Zinc_Spoon0010.png":
{
	"frame": {"x":250,"y":500,"w":250,"h":250},
	"rotated": false,
	"trimmed": false,
	"spriteSourceSize": {"x":0,"y":0,"w":250,"h":250},
	"sourceSize": {"w":250,"h":250}
}},
"meta": {
	"app": "https://www.codeandweb.com/texturepacker",
	"version": "1.0",
	"image": "Zinc_Spoon.png",
	"format": "RGBA8888",
	"size": {"w":1024,"h":1024},
	"scale": "1",
	"smartupdate": "$TexturePacker:SmartUpdate:e79e88ed7dafcfbc32631e69fc107573:66495da374b320c43db1a2ce427b7aca:9898c780a9b57e7e6ba2b5acb84bc6e5$"
}
}
