{"frames": {

"Zinc_to_Aluminium_Sulphate0001.png":
{
	"frame": {"x":0,"y":0,"w":150,"h":500},
	"rotated": false,
	"trimmed": false,
	"spriteSourceSize": {"x":0,"y":0,"w":150,"h":500},
	"sourceSize": {"w":150,"h":500}
},
"Zinc_to_Aluminium_Sulphate0002.png":
{
	"frame": {"x":150,"y":0,"w":150,"h":500},
	"rotated": false,
	"trimmed": false,
	"spriteSourceSize": {"x":0,"y":0,"w":150,"h":500},
	"sourceSize": {"w":150,"h":500}
},
"Zinc_to_Aluminium_Sulphate0003.png":
{
	"frame": {"x":300,"y":0,"w":150,"h":500},
	"rotated": false,
	"trimmed": false,
	"spriteSourceSize": {"x":0,"y":0,"w":150,"h":500},
	"sourceSize": {"w":150,"h":500}
},
"Zinc_to_Aluminium_Sulphate0004.png":
{
	"frame": {"x":450,"y":0,"w":150,"h":500},
	"rotated": false,
	"trimmed": false,
	"spriteSourceSize": {"x":0,"y":0,"w":150,"h":500},
	"sourceSize": {"w":150,"h":500}
},
"Zinc_to_Aluminium_Sulphate0005.png":
{
	"frame": {"x":600,"y":0,"w":150,"h":500},
	"rotated": false,
	"trimmed": false,
	"spriteSourceSize": {"x":0,"y":0,"w":150,"h":500},
	"sourceSize": {"w":150,"h":500}
},
"Zinc_to_Aluminium_Sulphate0006.png":
{
	"frame": {"x":750,"y":0,"w":150,"h":500},
	"rotated": false,
	"trimmed": false,
	"spriteSourceSize": {"x":0,"y":0,"w":150,"h":500},
	"sourceSize": {"w":150,"h":500}
},
"Zinc_to_Aluminium_Sulphate0007.png":
{
	"frame": {"x":900,"y":0,"w":150,"h":500},
	"rotated": false,
	"trimmed": false,
	"spriteSourceSize": {"x":0,"y":0,"w":150,"h":500},
	"sourceSize": {"w":150,"h":500}
},
"Zinc_to_Aluminium_Sulphate0008.png":
{
	"frame": {"x":1050,"y":0,"w":150,"h":500},
	"rotated": false,
	"trimmed": false,
	"spriteSourceSize": {"x":0,"y":0,"w":150,"h":500},
	"sourceSize": {"w":150,"h":500}
},
"Zinc_to_Aluminium_Sulphate0009.png":
{
	"frame": {"x":1200,"y":0,"w":150,"h":500},
	"rotated": false,
	"trimmed": false,
	"spriteSourceSize": {"x":0,"y":0,"w":150,"h":500},
	"sourceSize": {"w":150,"h":500}
},
"Zinc_to_Aluminium_Sulphate0010.png":
{
	"frame": {"x":1350,"y":0,"w":150,"h":500},
	"rotated": false,
	"trimmed": false,
	"spriteSourceSize": {"x":0,"y":0,"w":150,"h":500},
	"sourceSize": {"w":150,"h":500}
},
"Zinc_to_Aluminium_Sulphate0011.png":
{
	"frame": {"x":1500,"y":0,"w":150,"h":500},
	"rotated": false,
	"trimmed": false,
	"spriteSourceSize": {"x":0,"y":0,"w":150,"h":500},
	"sourceSize": {"w":150,"h":500}
},
"Zinc_to_Aluminium_Sulphate0012.png":
{
	"frame": {"x":1650,"y":0,"w":150,"h":500},
	"rotated": false,
	"trimmed": false,
	"spriteSourceSize": {"x":0,"y":0,"w":150,"h":500},
	"sourceSize": {"w":150,"h":500}
},
"Zinc_to_Aluminium_Sulphate0013.png":
{
	"frame": {"x":1800,"y":0,"w":150,"h":500},
	"rotated": false,
	"trimmed": false,
	"spriteSourceSize": {"x":0,"y":0,"w":150,"h":500},
	"sourceSize": {"w":150,"h":500}
},
"Zinc_to_Aluminium_Sulphate0014.png":
{
	"frame": {"x":0,"y":500,"w":150,"h":500},
	"rotated": false,
	"trimmed": false,
	"spriteSourceSize": {"x":0,"y":0,"w":150,"h":500},
	"sourceSize": {"w":150,"h":500}
},
"Zinc_to_Aluminium_Sulphate0015.png":
{
	"frame": {"x":150,"y":500,"w":150,"h":500},
	"rotated": false,
	"trimmed": false,
	"spriteSourceSize": {"x":0,"y":0,"w":150,"h":500},
	"sourceSize": {"w":150,"h":500}
}},
"meta": {
	"app": "https://www.codeandweb.com/texturepacker",
	"version": "1.0",
	"image": "Zinc_to_Aluminium_Sulphate.png",
	"format": "RGBA8888",
	"size": {"w":2048,"h":1024},
	"scale": "1",
	"smartupdate": "$TexturePacker:SmartUpdate:cc8ae92f4986716b403e540c9960cdd2:41f3370d6d75286144d53db13db991dd:10b6817d23b8849c10f25a84636da570$"
}
}
