{"frames": {

"Aluminium_in_Aluminium_sulphate.png":
{
	"frame": {"x":0,"y":0,"w":400,"h":400},
	"rotated": false,
	"trimmed": false,
	"spriteSourceSize": {"x":0,"y":0,"w":400,"h":400},
	"sourceSize": {"w":400,"h":400}
},
"Aluminium_in_Copper_sulphate.png":
{
	"frame": {"x":400,"y":0,"w":400,"h":400},
	"rotated": false,
	"trimmed": false,
	"spriteSourceSize": {"x":0,"y":0,"w":400,"h":400},
	"sourceSize": {"w":400,"h":400}
},
"Aluminium_in_Ferrous_sulphate.png":
{
	"frame": {"x":800,"y":0,"w":400,"h":400},
	"rotated": false,
	"trimmed": false,
	"spriteSourceSize": {"x":0,"y":0,"w":400,"h":400},
	"sourceSize": {"w":400,"h":400}
},
"Aluminium_in_Zinc_sulphate.png":
{
	"frame": {"x":1200,"y":0,"w":400,"h":400},
	"rotated": false,
	"trimmed": false,
	"spriteSourceSize": {"x":0,"y":0,"w":400,"h":400},
	"sourceSize": {"w":400,"h":400}
},
"Copper_in_Aluminium_sulphate.png":
{
	"frame": {"x":1600,"y":0,"w":400,"h":400},
	"rotated": false,
	"trimmed": false,
	"spriteSourceSize": {"x":0,"y":0,"w":400,"h":400},
	"sourceSize": {"w":400,"h":400}
},
"Copper_in_Copper_sulphate.png":
{
	"frame": {"x":0,"y":400,"w":400,"h":400},
	"rotated": false,
	"trimmed": false,
	"spriteSourceSize": {"x":0,"y":0,"w":400,"h":400},
	"sourceSize": {"w":400,"h":400}
},
"Copper_in_Ferrous_sulphate.png":
{
	"frame": {"x":400,"y":400,"w":400,"h":400},
	"rotated": false,
	"trimmed": false,
	"spriteSourceSize": {"x":0,"y":0,"w":400,"h":400},
	"sourceSize": {"w":400,"h":400}
},
"Copper_in_Zinc_sulphate.png":
{
	"frame": {"x":800,"y":400,"w":400,"h":400},
	"rotated": false,
	"trimmed": false,
	"spriteSourceSize": {"x":0,"y":0,"w":400,"h":400},
	"sourceSize": {"w":400,"h":400}
},
"Iron_in_Aluminium_sulphate.png":
{
	"frame": {"x":1200,"y":400,"w":400,"h":400},
	"rotated": false,
	"trimmed": false,
	"spriteSourceSize": {"x":0,"y":0,"w":400,"h":400},
	"sourceSize": {"w":400,"h":400}
},
"Iron_in_Copper_sulphate.png":
{
	"frame": {"x":1600,"y":400,"w":400,"h":400},
	"rotated": false,
	"trimmed": false,
	"spriteSourceSize": {"x":0,"y":0,"w":400,"h":400},
	"sourceSize": {"w":400,"h":400}
},
"Iron_in_Ferrous_sulphate.png":
{
	"frame": {"x":0,"y":800,"w":400,"h":400},
	"rotated": false,
	"trimmed": false,
	"spriteSourceSize": {"x":0,"y":0,"w":400,"h":400},
	"sourceSize": {"w":400,"h":400}
},
"Iron_in_Zinc_sulphate.png":
{
	"frame": {"x":400,"y":800,"w":400,"h":400},
	"rotated": false,
	"trimmed": false,
	"spriteSourceSize": {"x":0,"y":0,"w":400,"h":400},
	"sourceSize": {"w":400,"h":400}
},
"Zinc_in_Aluminium_sulphate.png":
{
	"frame": {"x":800,"y":800,"w":400,"h":400},
	"rotated": false,
	"trimmed": false,
	"spriteSourceSize": {"x":0,"y":0,"w":400,"h":400},
	"sourceSize": {"w":400,"h":400}
},
"Zinc_in_Copper_sulphate.png":
{
	"frame": {"x":1200,"y":800,"w":400,"h":400},
	"rotated": false,
	"trimmed": false,
	"spriteSourceSize": {"x":0,"y":0,"w":400,"h":400},
	"sourceSize": {"w":400,"h":400}
},
"Zinc_in_Ferrous_sulphate.png":
{
	"frame": {"x":1600,"y":800,"w":400,"h":400},
	"rotated": false,
	"trimmed": false,
	"spriteSourceSize": {"x":0,"y":0,"w":400,"h":400},
	"sourceSize": {"w":400,"h":400}
},
"Zinc_in_Zinc_sulphate.png":
{
	"frame": {"x":0,"y":1200,"w":400,"h":400},
	"rotated": false,
	"trimmed": false,
	"spriteSourceSize": {"x":0,"y":0,"w":400,"h":400},
	"sourceSize": {"w":400,"h":400}
}},
"meta": {
	"app": "https://www.codeandweb.com/texturepacker",
	"version": "1.0",
	"image": "Zoom_testtube.png",
	"format": "RGBA8888",
	"size": {"w":2048,"h":2048},
	"scale": "1",
	"smartupdate": "$TexturePacker:SmartUpdate:876232ad9c2a0775d2c51cc22fe49fc7:384bf1c84cb3325657e0af8f035420f8:c9cee7df92def269e17cc339fa1cda07$"
}
}
