{"frames": {

"FS_to_Testtube0001.png":
{
	"frame": {"x":0,"y":0,"w":100,"h":350},
	"rotated": false,
	"trimmed": false,
	"spriteSourceSize": {"x":0,"y":0,"w":100,"h":350},
	"sourceSize": {"w":100,"h":350}
},
"FS_to_Testtube0002.png":
{
	"frame": {"x":100,"y":0,"w":100,"h":350},
	"rotated": false,
	"trimmed": false,
	"spriteSourceSize": {"x":0,"y":0,"w":100,"h":350},
	"sourceSize": {"w":100,"h":350}
},
"FS_to_Testtube0003.png":
{
	"frame": {"x":200,"y":0,"w":100,"h":350},
	"rotated": false,
	"trimmed": false,
	"spriteSourceSize": {"x":0,"y":0,"w":100,"h":350},
	"sourceSize": {"w":100,"h":350}
},
"FS_to_Testtube0004.png":
{
	"frame": {"x":300,"y":0,"w":100,"h":350},
	"rotated": false,
	"trimmed": false,
	"spriteSourceSize": {"x":0,"y":0,"w":100,"h":350},
	"sourceSize": {"w":100,"h":350}
},
"FS_to_Testtube0005.png":
{
	"frame": {"x":400,"y":0,"w":100,"h":350},
	"rotated": false,
	"trimmed": false,
	"spriteSourceSize": {"x":0,"y":0,"w":100,"h":350},
	"sourceSize": {"w":100,"h":350}
},
"FS_to_Testtube0006.png":
{
	"frame": {"x":500,"y":0,"w":100,"h":350},
	"rotated": false,
	"trimmed": false,
	"spriteSourceSize": {"x":0,"y":0,"w":100,"h":350},
	"sourceSize": {"w":100,"h":350}
},
"FS_to_Testtube0007.png":
{
	"frame": {"x":600,"y":0,"w":100,"h":350},
	"rotated": false,
	"trimmed": false,
	"spriteSourceSize": {"x":0,"y":0,"w":100,"h":350},
	"sourceSize": {"w":100,"h":350}
},
"FS_to_Testtube0008.png":
{
	"frame": {"x":700,"y":0,"w":100,"h":350},
	"rotated": false,
	"trimmed": false,
	"spriteSourceSize": {"x":0,"y":0,"w":100,"h":350},
	"sourceSize": {"w":100,"h":350}
},
"FS_to_Testtube0009.png":
{
	"frame": {"x":800,"y":0,"w":100,"h":350},
	"rotated": false,
	"trimmed": false,
	"spriteSourceSize": {"x":0,"y":0,"w":100,"h":350},
	"sourceSize": {"w":100,"h":350}
},
"FS_to_Testtube0010.png":
{
	"frame": {"x":900,"y":0,"w":100,"h":350},
	"rotated": false,
	"trimmed": false,
	"spriteSourceSize": {"x":0,"y":0,"w":100,"h":350},
	"sourceSize": {"w":100,"h":350}
},
"FS_to_Testtube0011.png":
{
	"frame": {"x":1000,"y":0,"w":100,"h":350},
	"rotated": false,
	"trimmed": false,
	"spriteSourceSize": {"x":0,"y":0,"w":100,"h":350},
	"sourceSize": {"w":100,"h":350}
},
"FS_to_Testtube0012.png":
{
	"frame": {"x":1100,"y":0,"w":100,"h":350},
	"rotated": false,
	"trimmed": false,
	"spriteSourceSize": {"x":0,"y":0,"w":100,"h":350},
	"sourceSize": {"w":100,"h":350}
}},
"meta": {
	"app": "https://www.codeandweb.com/texturepacker",
	"version": "1.0",
	"image": "FS_Testube.png",
	"format": "RGBA8888",
	"size": {"w":1200,"h":350},
	"scale": "1",
	"smartupdate": "$TexturePacker:SmartUpdate:acc741f1634d234bdd75f801fe23b007:d2a4fbbcf817c5a4afca1f175324d92a:13d14288fe6f2eb0cab490c35965c4e9$"
}
}
