{"frames": {

"Salt_to_water0014.png":
{
	"frame": {"x":0,"y":0,"w":400,"h":600},
	"rotated": false,
	"trimmed": false,
	"spriteSourceSize": {"x":0,"y":0,"w":400,"h":600},
	"sourceSize": {"w":400,"h":600}
},
"Salt_to_water0015.png":
{
	"frame": {"x":400,"y":0,"w":400,"h":600},
	"rotated": false,
	"trimmed": false,
	"spriteSourceSize": {"x":0,"y":0,"w":400,"h":600},
	"sourceSize": {"w":400,"h":600}
},
"Salt_to_water0016.png":
{
	"frame": {"x":800,"y":0,"w":400,"h":600},
	"rotated": false,
	"trimmed": false,
	"spriteSourceSize": {"x":0,"y":0,"w":400,"h":600},
	"sourceSize": {"w":400,"h":600}
},
"Salt_to_water0017.png":
{
	"frame": {"x":1200,"y":0,"w":400,"h":600},
	"rotated": false,
	"trimmed": false,
	"spriteSourceSize": {"x":0,"y":0,"w":400,"h":600},
	"sourceSize": {"w":400,"h":600}
},
"Salt_to_water0018.png":
{
	"frame": {"x":1600,"y":0,"w":400,"h":600},
	"rotated": false,
	"trimmed": false,
	"spriteSourceSize": {"x":0,"y":0,"w":400,"h":600},
	"sourceSize": {"w":400,"h":600}
},
"Salt_to_water0019.png":
{
	"frame": {"x":2000,"y":0,"w":400,"h":600},
	"rotated": false,
	"trimmed": false,
	"spriteSourceSize": {"x":0,"y":0,"w":400,"h":600},
	"sourceSize": {"w":400,"h":600}
},
"Salt_to_water0020.png":
{
	"frame": {"x":2400,"y":0,"w":400,"h":600},
	"rotated": false,
	"trimmed": false,
	"spriteSourceSize": {"x":0,"y":0,"w":400,"h":600},
	"sourceSize": {"w":400,"h":600}
},
"Salt_to_water0021.png":
{
	"frame": {"x":2800,"y":0,"w":400,"h":600},
	"rotated": false,
	"trimmed": false,
	"spriteSourceSize": {"x":0,"y":0,"w":400,"h":600},
	"sourceSize": {"w":400,"h":600}
},
"Salt_to_water0022.png":
{
	"frame": {"x":0,"y":600,"w":400,"h":600},
	"rotated": false,
	"trimmed": false,
	"spriteSourceSize": {"x":0,"y":0,"w":400,"h":600},
	"sourceSize": {"w":400,"h":600}
},
"Salt_to_water0023.png":
{
	"frame": {"x":400,"y":600,"w":400,"h":600},
	"rotated": false,
	"trimmed": false,
	"spriteSourceSize": {"x":0,"y":0,"w":400,"h":600},
	"sourceSize": {"w":400,"h":600}
},
"Salt_to_water0024.png":
{
	"frame": {"x":800,"y":600,"w":400,"h":600},
	"rotated": false,
	"trimmed": false,
	"spriteSourceSize": {"x":0,"y":0,"w":400,"h":600},
	"sourceSize": {"w":400,"h":600}
},
"Salt_to_water0025.png":
{
	"frame": {"x":1200,"y":600,"w":400,"h":600},
	"rotated": false,
	"trimmed": false,
	"spriteSourceSize": {"x":0,"y":0,"w":400,"h":600},
	"sourceSize": {"w":400,"h":600}
},
"Salt_to_water0026.png":
{
	"frame": {"x":1600,"y":600,"w":400,"h":600},
	"rotated": false,
	"trimmed": false,
	"spriteSourceSize": {"x":0,"y":0,"w":400,"h":600},
	"sourceSize": {"w":400,"h":600}
},
"Salt_to_water0027.png":
{
	"frame": {"x":2000,"y":600,"w":400,"h":600},
	"rotated": false,
	"trimmed": false,
	"spriteSourceSize": {"x":0,"y":0,"w":400,"h":600},
	"sourceSize": {"w":400,"h":600}
},
"Salt_to_water0028.png":
{
	"frame": {"x":2400,"y":600,"w":400,"h":600},
	"rotated": false,
	"trimmed": false,
	"spriteSourceSize": {"x":0,"y":0,"w":400,"h":600},
	"sourceSize": {"w":400,"h":600}
},
"Salt_to_water0029.png":
{
	"frame": {"x":2800,"y":600,"w":400,"h":600},
	"rotated": false,
	"trimmed": false,
	"spriteSourceSize": {"x":0,"y":0,"w":400,"h":600},
	"sourceSize": {"w":400,"h":600}
},
"Salt_to_water0030.png":
{
	"frame": {"x":0,"y":1200,"w":400,"h":600},
	"rotated": false,
	"trimmed": false,
	"spriteSourceSize": {"x":0,"y":0,"w":400,"h":600},
	"sourceSize": {"w":400,"h":600}
},
"Salt_to_water0031.png":
{
	"frame": {"x":400,"y":1200,"w":400,"h":600},
	"rotated": false,
	"trimmed": false,
	"spriteSourceSize": {"x":0,"y":0,"w":400,"h":600},
	"sourceSize": {"w":400,"h":600}
},
"Salt_to_water0032.png":
{
	"frame": {"x":800,"y":1200,"w":400,"h":600},
	"rotated": false,
	"trimmed": false,
	"spriteSourceSize": {"x":0,"y":0,"w":400,"h":600},
	"sourceSize": {"w":400,"h":600}
},
"Salt_to_water0033.png":
{
	"frame": {"x":1200,"y":1200,"w":400,"h":600},
	"rotated": false,
	"trimmed": false,
	"spriteSourceSize": {"x":0,"y":0,"w":400,"h":600},
	"sourceSize": {"w":400,"h":600}
},
"Salt_to_water0034.png":
{
	"frame": {"x":1600,"y":1200,"w":400,"h":600},
	"rotated": false,
	"trimmed": false,
	"spriteSourceSize": {"x":0,"y":0,"w":400,"h":600},
	"sourceSize": {"w":400,"h":600}
},
"Salt_to_water0035.png":
{
	"frame": {"x":2000,"y":1200,"w":400,"h":600},
	"rotated": false,
	"trimmed": false,
	"spriteSourceSize": {"x":0,"y":0,"w":400,"h":600},
	"sourceSize": {"w":400,"h":600}
},
"Salt_to_water0036.png":
{
	"frame": {"x":2400,"y":1200,"w":400,"h":600},
	"rotated": false,
	"trimmed": false,
	"spriteSourceSize": {"x":0,"y":0,"w":400,"h":600},
	"sourceSize": {"w":400,"h":600}
},
"Salt_to_water0037.png":
{
	"frame": {"x":2800,"y":1200,"w":400,"h":600},
	"rotated": false,
	"trimmed": false,
	"spriteSourceSize": {"x":0,"y":0,"w":400,"h":600},
	"sourceSize": {"w":400,"h":600}
},
"Salt_to_water0038.png":
{
	"frame": {"x":0,"y":1800,"w":400,"h":600},
	"rotated": false,
	"trimmed": false,
	"spriteSourceSize": {"x":0,"y":0,"w":400,"h":600},
	"sourceSize": {"w":400,"h":600}
},
"Salt_to_water0039.png":
{
	"frame": {"x":400,"y":1800,"w":400,"h":600},
	"rotated": false,
	"trimmed": false,
	"spriteSourceSize": {"x":0,"y":0,"w":400,"h":600},
	"sourceSize": {"w":400,"h":600}
},
"Salt_to_water0040.png":
{
	"frame": {"x":800,"y":1800,"w":400,"h":600},
	"rotated": false,
	"trimmed": false,
	"spriteSourceSize": {"x":0,"y":0,"w":400,"h":600},
	"sourceSize": {"w":400,"h":600}
},
"Salt_to_water0041.png":
{
	"frame": {"x":1200,"y":1800,"w":400,"h":600},
	"rotated": false,
	"trimmed": false,
	"spriteSourceSize": {"x":0,"y":0,"w":400,"h":600},
	"sourceSize": {"w":400,"h":600}
},
"Salt_to_water0042.png":
{
	"frame": {"x":1600,"y":1800,"w":400,"h":600},
	"rotated": false,
	"trimmed": false,
	"spriteSourceSize": {"x":0,"y":0,"w":400,"h":600},
	"sourceSize": {"w":400,"h":600}
},
"Salt_to_water0043.png":
{
	"frame": {"x":2000,"y":1800,"w":400,"h":600},
	"rotated": false,
	"trimmed": false,
	"spriteSourceSize": {"x":0,"y":0,"w":400,"h":600},
	"sourceSize": {"w":400,"h":600}
},
"Salt_to_water0044.png":
{
	"frame": {"x":2400,"y":1800,"w":400,"h":600},
	"rotated": false,
	"trimmed": false,
	"spriteSourceSize": {"x":0,"y":0,"w":400,"h":600},
	"sourceSize": {"w":400,"h":600}
},
"Salt_to_water0045.png":
{
	"frame": {"x":2800,"y":1800,"w":400,"h":600},
	"rotated": false,
	"trimmed": false,
	"spriteSourceSize": {"x":0,"y":0,"w":400,"h":600},
	"sourceSize": {"w":400,"h":600}
}},
"meta": {
	"app": "https://www.codeandweb.com/texturepacker",
	"version": "1.0",
	"image": "beakersaltwaterrod.png",
	"format": "RGBA8888",
	"size": {"w":3200,"h":2400},
	"scale": "1",
	"smartupdate": "$TexturePacker:SmartUpdate:5aef880172dfb1585106c9bee7c51ab2:f905673f4bbbd2e7513e4c2cbaf8d96f:b9bc7335ca7eb5f59a686ff39a06a53c$"
}
}
