{"frames": {

"Copper_to_beaker0001.png":
{
	"frame": {"x":0,"y":0,"w":300,"h":550},
	"rotated": false,
	"trimmed": false,
	"spriteSourceSize": {"x":0,"y":0,"w":300,"h":550},
	"sourceSize": {"w":300,"h":550}
},
"Copper_to_beaker0002.png":
{
	"frame": {"x":300,"y":0,"w":300,"h":550},
	"rotated": false,
	"trimmed": false,
	"spriteSourceSize": {"x":0,"y":0,"w":300,"h":550},
	"sourceSize": {"w":300,"h":550}
},
"Copper_to_beaker0003.png":
{
	"frame": {"x":600,"y":0,"w":300,"h":550},
	"rotated": false,
	"trimmed": false,
	"spriteSourceSize": {"x":0,"y":0,"w":300,"h":550},
	"sourceSize": {"w":300,"h":550}
},
"Copper_to_beaker0004.png":
{
	"frame": {"x":900,"y":0,"w":300,"h":550},
	"rotated": false,
	"trimmed": false,
	"spriteSourceSize": {"x":0,"y":0,"w":300,"h":550},
	"sourceSize": {"w":300,"h":550}
},
"Copper_to_beaker0005.png":
{
	"frame": {"x":1200,"y":0,"w":300,"h":550},
	"rotated": false,
	"trimmed": false,
	"spriteSourceSize": {"x":0,"y":0,"w":300,"h":550},
	"sourceSize": {"w":300,"h":550}
},
"Copper_to_beaker0006.png":
{
	"frame": {"x":1500,"y":0,"w":300,"h":550},
	"rotated": false,
	"trimmed": false,
	"spriteSourceSize": {"x":0,"y":0,"w":300,"h":550},
	"sourceSize": {"w":300,"h":550}
},
"Copper_to_beaker0007.png":
{
	"frame": {"x":0,"y":550,"w":300,"h":550},
	"rotated": false,
	"trimmed": false,
	"spriteSourceSize": {"x":0,"y":0,"w":300,"h":550},
	"sourceSize": {"w":300,"h":550}
},
"Copper_to_beaker0008.png":
{
	"frame": {"x":300,"y":550,"w":300,"h":550},
	"rotated": false,
	"trimmed": false,
	"spriteSourceSize": {"x":0,"y":0,"w":300,"h":550},
	"sourceSize": {"w":300,"h":550}
},
"Copper_to_beaker0009.png":
{
	"frame": {"x":600,"y":550,"w":300,"h":550},
	"rotated": false,
	"trimmed": false,
	"spriteSourceSize": {"x":0,"y":0,"w":300,"h":550},
	"sourceSize": {"w":300,"h":550}
},
"Copper_to_beaker0010.png":
{
	"frame": {"x":900,"y":550,"w":300,"h":550},
	"rotated": false,
	"trimmed": false,
	"spriteSourceSize": {"x":0,"y":0,"w":300,"h":550},
	"sourceSize": {"w":300,"h":550}
},
"Copper_to_beaker0011.png":
{
	"frame": {"x":1200,"y":550,"w":300,"h":550},
	"rotated": false,
	"trimmed": false,
	"spriteSourceSize": {"x":0,"y":0,"w":300,"h":550},
	"sourceSize": {"w":300,"h":550}
},
"Copper_to_beaker0012.png":
{
	"frame": {"x":1500,"y":550,"w":300,"h":550},
	"rotated": false,
	"trimmed": false,
	"spriteSourceSize": {"x":0,"y":0,"w":300,"h":550},
	"sourceSize": {"w":300,"h":550}
}},
"meta": {
	"app": "https://www.codeandweb.com/texturepacker",
	"version": "1.0",
	"image": "Copper_to_beaker.png",
	"format": "RGBA8888",
	"size": {"w":1800,"h":1100},
	"scale": "1",
	"smartupdate": "$TexturePacker:SmartUpdate:7f8ad0690d22c06a107f67f41a20179f:c6d0cc40d7911654ff52e609f607aece:995d64fb9fb461ac39d4567d25c5feef$"
}
}
