{"frames": {

"Zink_with_rod0001.png":
{
	"frame": {"x":0,"y":0,"w":300,"h":550},
	"rotated": false,
	"trimmed": false,
	"spriteSourceSize": {"x":0,"y":0,"w":300,"h":550},
	"sourceSize": {"w":300,"h":550}
},
"Zink_with_rod0002.png":
{
	"frame": {"x":300,"y":0,"w":300,"h":550},
	"rotated": false,
	"trimmed": false,
	"spriteSourceSize": {"x":0,"y":0,"w":300,"h":550},
	"sourceSize": {"w":300,"h":550}
},
"Zink_with_rod0003.png":
{
	"frame": {"x":600,"y":0,"w":300,"h":550},
	"rotated": false,
	"trimmed": false,
	"spriteSourceSize": {"x":0,"y":0,"w":300,"h":550},
	"sourceSize": {"w":300,"h":550}
},
"Zink_with_rod0004.png":
{
	"frame": {"x":900,"y":0,"w":300,"h":550},
	"rotated": false,
	"trimmed": false,
	"spriteSourceSize": {"x":0,"y":0,"w":300,"h":550},
	"sourceSize": {"w":300,"h":550}
},
"Zink_with_rod0005.png":
{
	"frame": {"x":1200,"y":0,"w":300,"h":550},
	"rotated": false,
	"trimmed": false,
	"spriteSourceSize": {"x":0,"y":0,"w":300,"h":550},
	"sourceSize": {"w":300,"h":550}
},
"Zink_with_rod0006.png":
{
	"frame": {"x":1500,"y":0,"w":300,"h":550},
	"rotated": false,
	"trimmed": false,
	"spriteSourceSize": {"x":0,"y":0,"w":300,"h":550},
	"sourceSize": {"w":300,"h":550}
},
"Zink_with_rod0007.png":
{
	"frame": {"x":1800,"y":0,"w":300,"h":550},
	"rotated": false,
	"trimmed": false,
	"spriteSourceSize": {"x":0,"y":0,"w":300,"h":550},
	"sourceSize": {"w":300,"h":550}
},
"Zink_with_rod0008.png":
{
	"frame": {"x":2100,"y":0,"w":300,"h":550},
	"rotated": false,
	"trimmed": false,
	"spriteSourceSize": {"x":0,"y":0,"w":300,"h":550},
	"sourceSize": {"w":300,"h":550}
},
"Zink_with_rod0009.png":
{
	"frame": {"x":2400,"y":0,"w":300,"h":550},
	"rotated": false,
	"trimmed": false,
	"spriteSourceSize": {"x":0,"y":0,"w":300,"h":550},
	"sourceSize": {"w":300,"h":550}
},
"Zink_with_rod0010.png":
{
	"frame": {"x":2700,"y":0,"w":300,"h":550},
	"rotated": false,
	"trimmed": false,
	"spriteSourceSize": {"x":0,"y":0,"w":300,"h":550},
	"sourceSize": {"w":300,"h":550}
},
"Zink_with_rod0011.png":
{
	"frame": {"x":3000,"y":0,"w":300,"h":550},
	"rotated": false,
	"trimmed": false,
	"spriteSourceSize": {"x":0,"y":0,"w":300,"h":550},
	"sourceSize": {"w":300,"h":550}
},
"Zink_with_rod0012.png":
{
	"frame": {"x":3300,"y":0,"w":300,"h":550},
	"rotated": false,
	"trimmed": false,
	"spriteSourceSize": {"x":0,"y":0,"w":300,"h":550},
	"sourceSize": {"w":300,"h":550}
},
"Zink_with_rod0013.png":
{
	"frame": {"x":0,"y":550,"w":300,"h":550},
	"rotated": false,
	"trimmed": false,
	"spriteSourceSize": {"x":0,"y":0,"w":300,"h":550},
	"sourceSize": {"w":300,"h":550}
},
"Zink_with_rod0014.png":
{
	"frame": {"x":300,"y":550,"w":300,"h":550},
	"rotated": false,
	"trimmed": false,
	"spriteSourceSize": {"x":0,"y":0,"w":300,"h":550},
	"sourceSize": {"w":300,"h":550}
},
"Zink_with_rod0015.png":
{
	"frame": {"x":600,"y":550,"w":300,"h":550},
	"rotated": false,
	"trimmed": false,
	"spriteSourceSize": {"x":0,"y":0,"w":300,"h":550},
	"sourceSize": {"w":300,"h":550}
},
"Zink_with_rod0016.png":
{
	"frame": {"x":900,"y":550,"w":300,"h":550},
	"rotated": false,
	"trimmed": false,
	"spriteSourceSize": {"x":0,"y":0,"w":300,"h":550},
	"sourceSize": {"w":300,"h":550}
},
"Zink_with_rod0017.png":
{
	"frame": {"x":1200,"y":550,"w":300,"h":550},
	"rotated": false,
	"trimmed": false,
	"spriteSourceSize": {"x":0,"y":0,"w":300,"h":550},
	"sourceSize": {"w":300,"h":550}
},
"Zink_with_rod0018.png":
{
	"frame": {"x":1500,"y":550,"w":300,"h":550},
	"rotated": false,
	"trimmed": false,
	"spriteSourceSize": {"x":0,"y":0,"w":300,"h":550},
	"sourceSize": {"w":300,"h":550}
},
"Zink_with_rod0019.png":
{
	"frame": {"x":1800,"y":550,"w":300,"h":550},
	"rotated": false,
	"trimmed": false,
	"spriteSourceSize": {"x":0,"y":0,"w":300,"h":550},
	"sourceSize": {"w":300,"h":550}
},
"Zink_with_rod0020.png":
{
	"frame": {"x":2100,"y":550,"w":300,"h":550},
	"rotated": false,
	"trimmed": false,
	"spriteSourceSize": {"x":0,"y":0,"w":300,"h":550},
	"sourceSize": {"w":300,"h":550}
},
"Zink_with_rod0021.png":
{
	"frame": {"x":2400,"y":550,"w":300,"h":550},
	"rotated": false,
	"trimmed": false,
	"spriteSourceSize": {"x":0,"y":0,"w":300,"h":550},
	"sourceSize": {"w":300,"h":550}
},
"Zink_with_rod0022.png":
{
	"frame": {"x":2700,"y":550,"w":300,"h":550},
	"rotated": false,
	"trimmed": false,
	"spriteSourceSize": {"x":0,"y":0,"w":300,"h":550},
	"sourceSize": {"w":300,"h":550}
},
"Zink_with_rod0023.png":
{
	"frame": {"x":3000,"y":550,"w":300,"h":550},
	"rotated": false,
	"trimmed": false,
	"spriteSourceSize": {"x":0,"y":0,"w":300,"h":550},
	"sourceSize": {"w":300,"h":550}
},
"Zink_with_rod0024.png":
{
	"frame": {"x":3300,"y":550,"w":300,"h":550},
	"rotated": false,
	"trimmed": false,
	"spriteSourceSize": {"x":0,"y":0,"w":300,"h":550},
	"sourceSize": {"w":300,"h":550}
},
"Zink_with_rod0025.png":
{
	"frame": {"x":0,"y":1100,"w":300,"h":550},
	"rotated": false,
	"trimmed": false,
	"spriteSourceSize": {"x":0,"y":0,"w":300,"h":550},
	"sourceSize": {"w":300,"h":550}
},
"Zink_with_rod0026.png":
{
	"frame": {"x":300,"y":1100,"w":300,"h":550},
	"rotated": false,
	"trimmed": false,
	"spriteSourceSize": {"x":0,"y":0,"w":300,"h":550},
	"sourceSize": {"w":300,"h":550}
},
"Zink_with_rod0027.png":
{
	"frame": {"x":600,"y":1100,"w":300,"h":550},
	"rotated": false,
	"trimmed": false,
	"spriteSourceSize": {"x":0,"y":0,"w":300,"h":550},
	"sourceSize": {"w":300,"h":550}
},
"Zink_with_rod0028.png":
{
	"frame": {"x":900,"y":1100,"w":300,"h":550},
	"rotated": false,
	"trimmed": false,
	"spriteSourceSize": {"x":0,"y":0,"w":300,"h":550},
	"sourceSize": {"w":300,"h":550}
},
"Zink_with_rod0029.png":
{
	"frame": {"x":1200,"y":1100,"w":300,"h":550},
	"rotated": false,
	"trimmed": false,
	"spriteSourceSize": {"x":0,"y":0,"w":300,"h":550},
	"sourceSize": {"w":300,"h":550}
},
"Zink_with_rod0030.png":
{
	"frame": {"x":1500,"y":1100,"w":300,"h":550},
	"rotated": false,
	"trimmed": false,
	"spriteSourceSize": {"x":0,"y":0,"w":300,"h":550},
	"sourceSize": {"w":300,"h":550}
},
"Zink_with_rod0031.png":
{
	"frame": {"x":1800,"y":1100,"w":300,"h":550},
	"rotated": false,
	"trimmed": false,
	"spriteSourceSize": {"x":0,"y":0,"w":300,"h":550},
	"sourceSize": {"w":300,"h":550}
},
"Zink_with_rod0032.png":
{
	"frame": {"x":2100,"y":1100,"w":300,"h":550},
	"rotated": false,
	"trimmed": false,
	"spriteSourceSize": {"x":0,"y":0,"w":300,"h":550},
	"sourceSize": {"w":300,"h":550}
},
"Zink_with_rod0033.png":
{
	"frame": {"x":2400,"y":1100,"w":300,"h":550},
	"rotated": false,
	"trimmed": false,
	"spriteSourceSize": {"x":0,"y":0,"w":300,"h":550},
	"sourceSize": {"w":300,"h":550}
},
"Zink_with_rod0034.png":
{
	"frame": {"x":2700,"y":1100,"w":300,"h":550},
	"rotated": false,
	"trimmed": false,
	"spriteSourceSize": {"x":0,"y":0,"w":300,"h":550},
	"sourceSize": {"w":300,"h":550}
}},
"meta": {
	"app": "https://www.codeandweb.com/texturepacker",
	"version": "1.0",
	"image": "Zink_with_rod.png",
	"format": "RGBA8888",
	"size": {"w":3600,"h":1650},
	"scale": "1",
	"smartupdate": "$TexturePacker:SmartUpdate:4cfac36ba6f333da4dfab3281e5199fe:7242b9c9a07d988c64d371b553528681:b2e6174ab7f7073a24727751be7b02bf$"
}
}
