{"frames": {

"base_bottom.png":
{
	"frame": {"x":299,"y":0,"w":118,"h":114},
	"rotated": false,
	"trimmed": false,
	"spriteSourceSize": {"x":0,"y":0,"w":118,"h":114},
	"sourceSize": {"w":118,"h":114}
},
"break.png":
{
	"frame": {"x":0,"y":1168,"w":149,"h":147},
	"rotated": false,
	"trimmed": false,
	"spriteSourceSize": {"x":0,"y":0,"w":149,"h":147},
	"sourceSize": {"w":149,"h":147}
},
"break_disabled.png":
{
	"frame": {"x":298,"y":1168,"w":149,"h":147},
	"rotated": false,
	"trimmed": false,
	"spriteSourceSize": {"x":0,"y":0,"w":149,"h":147},
	"sourceSize": {"w":149,"h":147}
},
"break_pressed.png":
{
	"frame": {"x":745,"y":1168,"w":149,"h":147},
	"rotated": false,
	"trimmed": false,
	"spriteSourceSize": {"x":0,"y":0,"w":149,"h":147},
	"sourceSize": {"w":149,"h":147}
},
"bullet.png":
{
	"frame": {"x":0,"y":0,"w":49,"h":48},
	"rotated": false,
	"trimmed": false,
	"spriteSourceSize": {"x":0,"y":0,"w":49,"h":48},
	"sourceSize": {"w":49,"h":48}
},
"checkbox.png":
{
	"frame": {"x":49,"y":0,"w":60,"h":60},
	"rotated": false,
	"trimmed": false,
	"spriteSourceSize": {"x":0,"y":0,"w":60,"h":60},
	"sourceSize": {"w":60,"h":60}
},
"checkbox2.png":
{
	"frame": {"x":109,"y":0,"w":60,"h":60},
	"rotated": false,
	"trimmed": false,
	"spriteSourceSize": {"x":0,"y":0,"w":60,"h":60},
	"sourceSize": {"w":60,"h":60}
},
"enter.png":
{
	"frame": {"x":234,"y":0,"w":65,"h":64},
	"rotated": false,
	"trimmed": false,
	"spriteSourceSize": {"x":0,"y":0,"w":65,"h":64},
	"sourceSize": {"w":65,"h":64}
},
"enter_pressed.png":
{
	"frame": {"x":169,"y":0,"w":65,"h":64},
	"rotated": false,
	"trimmed": false,
	"spriteSourceSize": {"x":0,"y":0,"w":65,"h":64},
	"sourceSize": {"w":65,"h":64}
},
"folder.png":
{
	"frame": {"x":447,"y":1168,"w":149,"h":147},
	"rotated": false,
	"trimmed": false,
	"spriteSourceSize": {"x":0,"y":0,"w":149,"h":147},
	"sourceSize": {"w":149,"h":147}
},
"folder_disabled.png":
{
	"frame": {"x":596,"y":1168,"w":149,"h":147},
	"rotated": false,
	"trimmed": false,
	"spriteSourceSize": {"x":0,"y":0,"w":149,"h":147},
	"sourceSize": {"w":149,"h":147}
},
"folder_pressed.png":
{
	"frame": {"x":149,"y":1168,"w":149,"h":147},
	"rotated": false,
	"trimmed": false,
	"spriteSourceSize": {"x":0,"y":0,"w":149,"h":147},
	"sourceSize": {"w":149,"h":147}
},
"forward.png":
{
	"frame": {"x":745,"y":1021,"w":149,"h":147},
	"rotated": false,
	"trimmed": false,
	"spriteSourceSize": {"x":0,"y":0,"w":149,"h":147},
	"sourceSize": {"w":149,"h":147}
},
"graph.png":
{
	"frame": {"x":745,"y":874,"w":149,"h":147},
	"rotated": false,
	"trimmed": false,
	"spriteSourceSize": {"x":0,"y":0,"w":149,"h":147},
	"sourceSize": {"w":149,"h":147}
},
"graph_disabled.png":
{
	"frame": {"x":149,"y":1021,"w":149,"h":147},
	"rotated": false,
	"trimmed": false,
	"spriteSourceSize": {"x":0,"y":0,"w":149,"h":147},
	"sourceSize": {"w":149,"h":147}
},
"graph_pressed.png":
{
	"frame": {"x":596,"y":1021,"w":149,"h":147},
	"rotated": false,
	"trimmed": false,
	"spriteSourceSize": {"x":0,"y":0,"w":149,"h":147},
	"sourceSize": {"w":149,"h":147}
},
"home.png":
{
	"frame": {"x":298,"y":1021,"w":149,"h":147},
	"rotated": false,
	"trimmed": false,
	"spriteSourceSize": {"x":0,"y":0,"w":149,"h":147},
	"sourceSize": {"w":149,"h":147}
},
"home_disabled.png":
{
	"frame": {"x":0,"y":1315,"w":149,"h":147},
	"rotated": false,
	"trimmed": false,
	"spriteSourceSize": {"x":0,"y":0,"w":149,"h":147},
	"sourceSize": {"w":149,"h":147}
},
"home_pressed.png":
{
	"frame": {"x":0,"y":1021,"w":149,"h":147},
	"rotated": false,
	"trimmed": false,
	"spriteSourceSize": {"x":0,"y":0,"w":149,"h":147},
	"sourceSize": {"w":149,"h":147}
},
"hot.png":
{
	"frame": {"x":0,"y":1462,"w":149,"h":147},
	"rotated": false,
	"trimmed": false,
	"spriteSourceSize": {"x":0,"y":0,"w":149,"h":147},
	"sourceSize": {"w":149,"h":147}
},
"hot_disabled.png":
{
	"frame": {"x":149,"y":1462,"w":149,"h":147},
	"rotated": false,
	"trimmed": false,
	"spriteSourceSize": {"x":0,"y":0,"w":149,"h":147},
	"sourceSize": {"w":149,"h":147}
},
"hot_pressed.png":
{
	"frame": {"x":298,"y":1462,"w":149,"h":147},
	"rotated": false,
	"trimmed": false,
	"spriteSourceSize": {"x":0,"y":0,"w":149,"h":147},
	"sourceSize": {"w":149,"h":147}
},
"hot_red.png":
{
	"frame": {"x":596,"y":1462,"w":149,"h":147},
	"rotated": false,
	"trimmed": false,
	"spriteSourceSize": {"x":0,"y":0,"w":149,"h":147},
	"sourceSize": {"w":149,"h":147}
},
"instruction.png":
{
	"frame": {"x":447,"y":1462,"w":149,"h":147},
	"rotated": false,
	"trimmed": false,
	"spriteSourceSize": {"x":0,"y":0,"w":149,"h":147},
	"sourceSize": {"w":149,"h":147}
},
"instruction_disabled.png":
{
	"frame": {"x":745,"y":1462,"w":149,"h":147},
	"rotated": false,
	"trimmed": false,
	"spriteSourceSize": {"x":0,"y":0,"w":149,"h":147},
	"sourceSize": {"w":149,"h":147}
},
"instruction_pressed.png":
{
	"frame": {"x":298,"y":1315,"w":149,"h":147},
	"rotated": false,
	"trimmed": false,
	"spriteSourceSize": {"x":0,"y":0,"w":149,"h":147},
	"sourceSize": {"w":149,"h":147}
},
"learning.png":
{
	"frame": {"x":149,"y":1315,"w":149,"h":147},
	"rotated": false,
	"trimmed": false,
	"spriteSourceSize": {"x":0,"y":0,"w":149,"h":147},
	"sourceSize": {"w":149,"h":147}
},
"learning_disbaled.png":
{
	"frame": {"x":447,"y":1315,"w":149,"h":147},
	"rotated": false,
	"trimmed": false,
	"spriteSourceSize": {"x":0,"y":0,"w":149,"h":147},
	"sourceSize": {"w":149,"h":147}
},
"learning_pressed.png":
{
	"frame": {"x":596,"y":874,"w":149,"h":147},
	"rotated": false,
	"trimmed": false,
	"spriteSourceSize": {"x":0,"y":0,"w":149,"h":147},
	"sourceSize": {"w":149,"h":147}
},
"mute.png":
{
	"frame": {"x":596,"y":1315,"w":149,"h":147},
	"rotated": false,
	"trimmed": false,
	"spriteSourceSize": {"x":0,"y":0,"w":149,"h":147},
	"sourceSize": {"w":149,"h":147}
},
"mute_disabled.png":
{
	"frame": {"x":447,"y":1021,"w":149,"h":147},
	"rotated": false,
	"trimmed": false,
	"spriteSourceSize": {"x":0,"y":0,"w":149,"h":147},
	"sourceSize": {"w":149,"h":147}
},
"mute_pressed.png":
{
	"frame": {"x":298,"y":874,"w":149,"h":147},
	"rotated": false,
	"trimmed": false,
	"spriteSourceSize": {"x":0,"y":0,"w":149,"h":147},
	"sourceSize": {"w":149,"h":147}
},
"next.png":
{
	"frame": {"x":298,"y":580,"w":149,"h":147},
	"rotated": false,
	"trimmed": false,
	"spriteSourceSize": {"x":0,"y":0,"w":149,"h":147},
	"sourceSize": {"w":149,"h":147}
},
"next_disabled.png":
{
	"frame": {"x":149,"y":580,"w":149,"h":147},
	"rotated": false,
	"trimmed": false,
	"spriteSourceSize": {"x":0,"y":0,"w":149,"h":147},
	"sourceSize": {"w":149,"h":147}
},
"next_pressed.png":
{
	"frame": {"x":447,"y":580,"w":149,"h":147},
	"rotated": false,
	"trimmed": false,
	"spriteSourceSize": {"x":0,"y":0,"w":149,"h":147},
	"sourceSize": {"w":149,"h":147}
},
"optedimg.png":
{
	"frame": {"x":0,"y":1609,"w":158,"h":81},
	"rotated": false,
	"trimmed": false,
	"spriteSourceSize": {"x":0,"y":0,"w":158,"h":81},
	"sourceSize": {"w":158,"h":81}
},
"optionimg.png":
{
	"frame": {"x":158,"y":1609,"w":158,"h":81},
	"rotated": false,
	"trimmed": false,
	"spriteSourceSize": {"x":0,"y":0,"w":158,"h":81},
	"sourceSize": {"w":158,"h":81}
},
"Panel_green_button_off.png":
{
	"frame": {"x":417,"y":0,"w":138,"h":433},
	"rotated": false,
	"trimmed": false,
	"spriteSourceSize": {"x":0,"y":0,"w":138,"h":433},
	"sourceSize": {"w":138,"h":433}
},
"Panel_green_button_on.png":
{
	"frame": {"x":555,"y":0,"w":138,"h":433},
	"rotated": false,
	"trimmed": false,
	"spriteSourceSize": {"x":0,"y":0,"w":138,"h":433},
	"sourceSize": {"w":138,"h":433}
},
"pause.png":
{
	"frame": {"x":596,"y":433,"w":149,"h":147},
	"rotated": false,
	"trimmed": false,
	"spriteSourceSize": {"x":0,"y":0,"w":149,"h":147},
	"sourceSize": {"w":149,"h":147}
},
"pause_disabled.png":
{
	"frame": {"x":0,"y":580,"w":149,"h":147},
	"rotated": false,
	"trimmed": false,
	"spriteSourceSize": {"x":0,"y":0,"w":149,"h":147},
	"sourceSize": {"w":149,"h":147}
},
"pause_pressed.png":
{
	"frame": {"x":298,"y":433,"w":149,"h":147},
	"rotated": false,
	"trimmed": false,
	"spriteSourceSize": {"x":0,"y":0,"w":149,"h":147},
	"sourceSize": {"w":149,"h":147}
},
"play.png":
{
	"frame": {"x":0,"y":433,"w":149,"h":147},
	"rotated": false,
	"trimmed": false,
	"spriteSourceSize": {"x":0,"y":0,"w":149,"h":147},
	"sourceSize": {"w":149,"h":147}
},
"play_disabled.png":
{
	"frame": {"x":447,"y":433,"w":149,"h":147},
	"rotated": false,
	"trimmed": false,
	"spriteSourceSize": {"x":0,"y":0,"w":149,"h":147},
	"sourceSize": {"w":149,"h":147}
},
"play_pressed.png":
{
	"frame": {"x":149,"y":433,"w":149,"h":147},
	"rotated": false,
	"trimmed": false,
	"spriteSourceSize": {"x":0,"y":0,"w":149,"h":147},
	"sourceSize": {"w":149,"h":147}
},
"previous.png":
{
	"frame": {"x":745,"y":433,"w":149,"h":147},
	"rotated": false,
	"trimmed": false,
	"spriteSourceSize": {"x":0,"y":0,"w":149,"h":147},
	"sourceSize": {"w":149,"h":147}
},
"previous_disabled.png":
{
	"frame": {"x":0,"y":727,"w":149,"h":147},
	"rotated": false,
	"trimmed": false,
	"spriteSourceSize": {"x":0,"y":0,"w":149,"h":147},
	"sourceSize": {"w":149,"h":147}
},
"previuos_pressed.png":
{
	"frame": {"x":745,"y":727,"w":149,"h":147},
	"rotated": false,
	"trimmed": false,
	"spriteSourceSize": {"x":0,"y":0,"w":149,"h":147},
	"sourceSize": {"w":149,"h":147}
},
"quit.png":
{
	"frame": {"x":149,"y":874,"w":149,"h":147},
	"rotated": false,
	"trimmed": false,
	"spriteSourceSize": {"x":0,"y":0,"w":149,"h":147},
	"sourceSize": {"w":149,"h":147}
},
"quit1.png":
{
	"frame": {"x":447,"y":874,"w":149,"h":147},
	"rotated": false,
	"trimmed": false,
	"spriteSourceSize": {"x":0,"y":0,"w":149,"h":147},
	"sourceSize": {"w":149,"h":147}
},
"quit1_disabled.png":
{
	"frame": {"x":596,"y":580,"w":149,"h":147},
	"rotated": false,
	"trimmed": false,
	"spriteSourceSize": {"x":0,"y":0,"w":149,"h":147},
	"sourceSize": {"w":149,"h":147}
},
"quit1_pressed.png":
{
	"frame": {"x":0,"y":874,"w":149,"h":147},
	"rotated": false,
	"trimmed": false,
	"spriteSourceSize": {"x":0,"y":0,"w":149,"h":147},
	"sourceSize": {"w":149,"h":147}
},
"quit_disabled.png":
{
	"frame": {"x":596,"y":727,"w":149,"h":147},
	"rotated": false,
	"trimmed": false,
	"spriteSourceSize": {"x":0,"y":0,"w":149,"h":147},
	"sourceSize": {"w":149,"h":147}
},
"quit_pressed.png":
{
	"frame": {"x":745,"y":580,"w":149,"h":147},
	"rotated": false,
	"trimmed": false,
	"spriteSourceSize": {"x":0,"y":0,"w":149,"h":147},
	"sourceSize": {"w":149,"h":147}
},
"quiz3.png":
{
	"frame": {"x":0,"y":1690,"w":770,"h":202},
	"rotated": false,
	"trimmed": false,
	"spriteSourceSize": {"x":0,"y":0,"w":770,"h":202},
	"sourceSize": {"w":770,"h":202}
},
"reset.png":
{
	"frame": {"x":149,"y":727,"w":149,"h":147},
	"rotated": false,
	"trimmed": false,
	"spriteSourceSize": {"x":0,"y":0,"w":149,"h":147},
	"sourceSize": {"w":149,"h":147}
},
"reset_disabled.png":
{
	"frame": {"x":447,"y":727,"w":149,"h":147},
	"rotated": false,
	"trimmed": false,
	"spriteSourceSize": {"x":0,"y":0,"w":149,"h":147},
	"sourceSize": {"w":149,"h":147}
},
"reset_pressed.png":
{
	"frame": {"x":298,"y":727,"w":149,"h":147},
	"rotated": false,
	"trimmed": false,
	"spriteSourceSize": {"x":0,"y":0,"w":149,"h":147},
	"sourceSize": {"w":149,"h":147}
},
"skip_next.png":
{
	"frame": {"x":693,"y":0,"w":143,"h":143},
	"rotated": false,
	"trimmed": false,
	"spriteSourceSize": {"x":0,"y":0,"w":143,"h":143},
	"sourceSize": {"w":143,"h":143}
},
"skip_previous.png":
{
	"frame": {"x":836,"y":0,"w":143,"h":143},
	"rotated": false,
	"trimmed": false,
	"spriteSourceSize": {"x":0,"y":0,"w":143,"h":143},
	"sourceSize": {"w":143,"h":143}
},
"volume.png":
{
	"frame": {"x":745,"y":1315,"w":149,"h":147},
	"rotated": false,
	"trimmed": false,
	"spriteSourceSize": {"x":0,"y":0,"w":149,"h":147},
	"sourceSize": {"w":149,"h":147}
}},
"meta": {
	"app": "https://www.codeandweb.com/texturepacker",
	"version": "1.0",
	"image": "base_components.png",
	"format": "RGBA8888",
	"size": {"w":1024,"h":2048},
	"scale": "1",
	"smartupdate": "$TexturePacker:SmartUpdate:8a62b89906914bd913d85dc0b3a5225c:5f9c5a59ee4d5711c88ea5346f16e5d2:f777736f7dec08adcef84a0c59fa9eb4$"
}
}
