{"frames": {

"female_cone.png":
{
	"frame": {"x":0,"y":0,"w":248,"h":316},
	"rotated": false,
	"trimmed": false,
	"spriteSourceSize": {"x":0,"y":0,"w":248,"h":316},
	"sourceSize": {"w":248,"h":316}
},
"foliage_leaves.png":
{
	"frame": {"x":248,"y":0,"w":870,"h":774},
	"rotated": false,
	"trimmed": false,
	"spriteSourceSize": {"x":0,"y":0,"w":870,"h":774},
	"sourceSize": {"w":870,"h":774}
},
"male_cone.png":
{
	"frame": {"x":1118,"y":0,"w":462,"h":189},
	"rotated": false,
	"trimmed": false,
	"spriteSourceSize": {"x":0,"y":0,"w":462,"h":189},
	"sourceSize": {"w":462,"h":189}
},
"pinus_full.png":
{
	"frame": {"x":0,"y":774,"w":1000,"h":1000},
	"rotated": false,
	"trimmed": false,
	"spriteSourceSize": {"x":0,"y":0,"w":1000,"h":1000},
	"sourceSize": {"w":1000,"h":1000}
},
"pinus_half.png":
{
	"frame": {"x":1000,"y":774,"w":1000,"h":1000},
	"rotated": false,
	"trimmed": false,
	"spriteSourceSize": {"x":0,"y":0,"w":1000,"h":1000},
	"sourceSize": {"w":1000,"h":1000}
}},
"meta": {
	"app": "https://www.codeandweb.com/texturepacker",
	"version": "1.0",
	"image": "pinus_sprite.png",
	"format": "RGBA8888",
	"size": {"w":2000,"h":1774},
	"scale": "1",
	"smartupdate": "$TexturePacker:SmartUpdate:972160e046db8bd9f84ea69e8cff4120:1cddc745d66ca00fc82bf1df11103ccc:dfa853306759d2041ae3aa7f1a911a17$"
}
}
