{"frames": {

"Sodium_to_testube0001.png":
{
	"frame": {"x":0,"y":0,"w":100,"h":350},
	"rotated": false,
	"trimmed": false,
	"spriteSourceSize": {"x":0,"y":0,"w":100,"h":350},
	"sourceSize": {"w":100,"h":350}
},
"Sodium_to_testube0002.png":
{
	"frame": {"x":100,"y":0,"w":100,"h":350},
	"rotated": false,
	"trimmed": false,
	"spriteSourceSize": {"x":0,"y":0,"w":100,"h":350},
	"sourceSize": {"w":100,"h":350}
},
"Sodium_to_testube0003.png":
{
	"frame": {"x":200,"y":0,"w":100,"h":350},
	"rotated": false,
	"trimmed": false,
	"spriteSourceSize": {"x":0,"y":0,"w":100,"h":350},
	"sourceSize": {"w":100,"h":350}
},
"Sodium_to_testube0004.png":
{
	"frame": {"x":300,"y":0,"w":100,"h":350},
	"rotated": false,
	"trimmed": false,
	"spriteSourceSize": {"x":0,"y":0,"w":100,"h":350},
	"sourceSize": {"w":100,"h":350}
},
"Sodium_to_testube0005.png":
{
	"frame": {"x":400,"y":0,"w":100,"h":350},
	"rotated": false,
	"trimmed": false,
	"spriteSourceSize": {"x":0,"y":0,"w":100,"h":350},
	"sourceSize": {"w":100,"h":350}
},
"Sodium_to_testube0006.png":
{
	"frame": {"x":500,"y":0,"w":100,"h":350},
	"rotated": false,
	"trimmed": false,
	"spriteSourceSize": {"x":0,"y":0,"w":100,"h":350},
	"sourceSize": {"w":100,"h":350}
},
"Sodium_to_testube0007.png":
{
	"frame": {"x":600,"y":0,"w":100,"h":350},
	"rotated": false,
	"trimmed": false,
	"spriteSourceSize": {"x":0,"y":0,"w":100,"h":350},
	"sourceSize": {"w":100,"h":350}
},
"Sodium_to_testube0008.png":
{
	"frame": {"x":700,"y":0,"w":100,"h":350},
	"rotated": false,
	"trimmed": false,
	"spriteSourceSize": {"x":0,"y":0,"w":100,"h":350},
	"sourceSize": {"w":100,"h":350}
},
"Sodium_to_testube0009.png":
{
	"frame": {"x":800,"y":0,"w":100,"h":350},
	"rotated": false,
	"trimmed": false,
	"spriteSourceSize": {"x":0,"y":0,"w":100,"h":350},
	"sourceSize": {"w":100,"h":350}
}},
"meta": {
	"app": "https://www.codeandweb.com/texturepacker",
	"version": "1.0",
	"image": "NaCO3_testtube.png",
	"format": "RGBA8888",
	"size": {"w":900,"h":350},
	"scale": "1",
	"smartupdate": "$TexturePacker:SmartUpdate:e38cdec0ee6b9a0921ffa432d3b937aa:406798cb4b0e9e242daf6c25391abc8b:1aec272b750bb4b302ef396db700ae8d$"
}
}
