{"frames": {

"Lime_water_colourchange0001.png":
{
	"frame": {"x":0,"y":0,"w":100,"h":350},
	"rotated": false,
	"trimmed": false,
	"spriteSourceSize": {"x":0,"y":0,"w":100,"h":350},
	"sourceSize": {"w":100,"h":350}
},
"Lime_water_colourchange0002.png":
{
	"frame": {"x":100,"y":0,"w":100,"h":350},
	"rotated": false,
	"trimmed": false,
	"spriteSourceSize": {"x":0,"y":0,"w":100,"h":350},
	"sourceSize": {"w":100,"h":350}
},
"Lime_water_colourchange0003.png":
{
	"frame": {"x":200,"y":0,"w":100,"h":350},
	"rotated": false,
	"trimmed": false,
	"spriteSourceSize": {"x":0,"y":0,"w":100,"h":350},
	"sourceSize": {"w":100,"h":350}
},
"Lime_water_colourchange0004.png":
{
	"frame": {"x":300,"y":0,"w":100,"h":350},
	"rotated": false,
	"trimmed": false,
	"spriteSourceSize": {"x":0,"y":0,"w":100,"h":350},
	"sourceSize": {"w":100,"h":350}
},
"Lime_water_colourchange0005.png":
{
	"frame": {"x":400,"y":0,"w":100,"h":350},
	"rotated": false,
	"trimmed": false,
	"spriteSourceSize": {"x":0,"y":0,"w":100,"h":350},
	"sourceSize": {"w":100,"h":350}
},
"Lime_water_colourchange0006.png":
{
	"frame": {"x":500,"y":0,"w":100,"h":350},
	"rotated": false,
	"trimmed": false,
	"spriteSourceSize": {"x":0,"y":0,"w":100,"h":350},
	"sourceSize": {"w":100,"h":350}
},
"Lime_water_colourchange0007.png":
{
	"frame": {"x":600,"y":0,"w":100,"h":350},
	"rotated": false,
	"trimmed": false,
	"spriteSourceSize": {"x":0,"y":0,"w":100,"h":350},
	"sourceSize": {"w":100,"h":350}
},
"Lime_water_colourchange0008.png":
{
	"frame": {"x":700,"y":0,"w":100,"h":350},
	"rotated": false,
	"trimmed": false,
	"spriteSourceSize": {"x":0,"y":0,"w":100,"h":350},
	"sourceSize": {"w":100,"h":350}
},
"Lime_water_colourchange0009.png":
{
	"frame": {"x":800,"y":0,"w":100,"h":350},
	"rotated": false,
	"trimmed": false,
	"spriteSourceSize": {"x":0,"y":0,"w":100,"h":350},
	"sourceSize": {"w":100,"h":350}
},
"Lime_water_colourchange0010.png":
{
	"frame": {"x":900,"y":0,"w":100,"h":350},
	"rotated": false,
	"trimmed": false,
	"spriteSourceSize": {"x":0,"y":0,"w":100,"h":350},
	"sourceSize": {"w":100,"h":350}
},
"Lime_water_colourchange0011.png":
{
	"frame": {"x":1000,"y":0,"w":100,"h":350},
	"rotated": false,
	"trimmed": false,
	"spriteSourceSize": {"x":0,"y":0,"w":100,"h":350},
	"sourceSize": {"w":100,"h":350}
},
"Lime_water_colourchange0012.png":
{
	"frame": {"x":1100,"y":0,"w":100,"h":350},
	"rotated": false,
	"trimmed": false,
	"spriteSourceSize": {"x":0,"y":0,"w":100,"h":350},
	"sourceSize": {"w":100,"h":350}
},
"Lime_water_colourchange0013.png":
{
	"frame": {"x":1200,"y":0,"w":100,"h":350},
	"rotated": false,
	"trimmed": false,
	"spriteSourceSize": {"x":0,"y":0,"w":100,"h":350},
	"sourceSize": {"w":100,"h":350}
},
"Lime_water_colourchange0014.png":
{
	"frame": {"x":1300,"y":0,"w":100,"h":350},
	"rotated": false,
	"trimmed": false,
	"spriteSourceSize": {"x":0,"y":0,"w":100,"h":350},
	"sourceSize": {"w":100,"h":350}
},
"Lime_water_colourchange0015.png":
{
	"frame": {"x":1400,"y":0,"w":100,"h":350},
	"rotated": false,
	"trimmed": false,
	"spriteSourceSize": {"x":0,"y":0,"w":100,"h":350},
	"sourceSize": {"w":100,"h":350}
},
"Lime_water_colourchange0016.png":
{
	"frame": {"x":1500,"y":0,"w":100,"h":350},
	"rotated": false,
	"trimmed": false,
	"spriteSourceSize": {"x":0,"y":0,"w":100,"h":350},
	"sourceSize": {"w":100,"h":350}
},
"Lime_water_colourchange0017.png":
{
	"frame": {"x":1600,"y":0,"w":100,"h":350},
	"rotated": false,
	"trimmed": false,
	"spriteSourceSize": {"x":0,"y":0,"w":100,"h":350},
	"sourceSize": {"w":100,"h":350}
},
"Lime_water_colourchange0018.png":
{
	"frame": {"x":1700,"y":0,"w":100,"h":350},
	"rotated": false,
	"trimmed": false,
	"spriteSourceSize": {"x":0,"y":0,"w":100,"h":350},
	"sourceSize": {"w":100,"h":350}
},
"Lime_water_colourchange0019.png":
{
	"frame": {"x":0,"y":350,"w":100,"h":350},
	"rotated": false,
	"trimmed": false,
	"spriteSourceSize": {"x":0,"y":0,"w":100,"h":350},
	"sourceSize": {"w":100,"h":350}
},
"Lime_water_colourchange0020.png":
{
	"frame": {"x":100,"y":350,"w":100,"h":350},
	"rotated": false,
	"trimmed": false,
	"spriteSourceSize": {"x":0,"y":0,"w":100,"h":350},
	"sourceSize": {"w":100,"h":350}
},
"Lime_water_colourchange0021.png":
{
	"frame": {"x":200,"y":350,"w":100,"h":350},
	"rotated": false,
	"trimmed": false,
	"spriteSourceSize": {"x":0,"y":0,"w":100,"h":350},
	"sourceSize": {"w":100,"h":350}
},
"Lime_water_colourchange0022.png":
{
	"frame": {"x":300,"y":350,"w":100,"h":350},
	"rotated": false,
	"trimmed": false,
	"spriteSourceSize": {"x":0,"y":0,"w":100,"h":350},
	"sourceSize": {"w":100,"h":350}
},
"Lime_water_colourchange0023.png":
{
	"frame": {"x":400,"y":350,"w":100,"h":350},
	"rotated": false,
	"trimmed": false,
	"spriteSourceSize": {"x":0,"y":0,"w":100,"h":350},
	"sourceSize": {"w":100,"h":350}
},
"Lime_water_colourchange0024.png":
{
	"frame": {"x":500,"y":350,"w":100,"h":350},
	"rotated": false,
	"trimmed": false,
	"spriteSourceSize": {"x":0,"y":0,"w":100,"h":350},
	"sourceSize": {"w":100,"h":350}
},
"Lime_water_colourchange0025.png":
{
	"frame": {"x":600,"y":350,"w":100,"h":350},
	"rotated": false,
	"trimmed": false,
	"spriteSourceSize": {"x":0,"y":0,"w":100,"h":350},
	"sourceSize": {"w":100,"h":350}
},
"Lime_water_colourchange0026.png":
{
	"frame": {"x":700,"y":350,"w":100,"h":350},
	"rotated": false,
	"trimmed": false,
	"spriteSourceSize": {"x":0,"y":0,"w":100,"h":350},
	"sourceSize": {"w":100,"h":350}
},
"Lime_water_colourchange0027.png":
{
	"frame": {"x":800,"y":350,"w":100,"h":350},
	"rotated": false,
	"trimmed": false,
	"spriteSourceSize": {"x":0,"y":0,"w":100,"h":350},
	"sourceSize": {"w":100,"h":350}
},
"Lime_water_colourchange0028.png":
{
	"frame": {"x":900,"y":350,"w":100,"h":350},
	"rotated": false,
	"trimmed": false,
	"spriteSourceSize": {"x":0,"y":0,"w":100,"h":350},
	"sourceSize": {"w":100,"h":350}
},
"Lime_water_colourchange0029.png":
{
	"frame": {"x":1000,"y":350,"w":100,"h":350},
	"rotated": false,
	"trimmed": false,
	"spriteSourceSize": {"x":0,"y":0,"w":100,"h":350},
	"sourceSize": {"w":100,"h":350}
},
"Lime_water_colourchange0030.png":
{
	"frame": {"x":1100,"y":350,"w":100,"h":350},
	"rotated": false,
	"trimmed": false,
	"spriteSourceSize": {"x":0,"y":0,"w":100,"h":350},
	"sourceSize": {"w":100,"h":350}
},
"Lime_water_colourchange0031.png":
{
	"frame": {"x":1200,"y":350,"w":100,"h":350},
	"rotated": false,
	"trimmed": false,
	"spriteSourceSize": {"x":0,"y":0,"w":100,"h":350},
	"sourceSize": {"w":100,"h":350}
},
"Lime_water_colourchange0032.png":
{
	"frame": {"x":1300,"y":350,"w":100,"h":350},
	"rotated": false,
	"trimmed": false,
	"spriteSourceSize": {"x":0,"y":0,"w":100,"h":350},
	"sourceSize": {"w":100,"h":350}
},
"Lime_water_colourchange0033.png":
{
	"frame": {"x":1400,"y":350,"w":100,"h":350},
	"rotated": false,
	"trimmed": false,
	"spriteSourceSize": {"x":0,"y":0,"w":100,"h":350},
	"sourceSize": {"w":100,"h":350}
},
"Lime_water_colourchange0034.png":
{
	"frame": {"x":1500,"y":350,"w":100,"h":350},
	"rotated": false,
	"trimmed": false,
	"spriteSourceSize": {"x":0,"y":0,"w":100,"h":350},
	"sourceSize": {"w":100,"h":350}
},
"Lime_water_colourchange0035.png":
{
	"frame": {"x":1600,"y":350,"w":100,"h":350},
	"rotated": false,
	"trimmed": false,
	"spriteSourceSize": {"x":0,"y":0,"w":100,"h":350},
	"sourceSize": {"w":100,"h":350}
}},
"meta": {
	"app": "https://www.codeandweb.com/texturepacker",
	"version": "1.0",
	"image": "Lime.png",
	"format": "RGBA8888",
	"size": {"w":1800,"h":700},
	"scale": "1",
	"smartupdate": "$TexturePacker:SmartUpdate:9062e19e6f30165077d84c9b46f8b319:1157edd92d7f24899ccaae2cdf8e55d7:2e958a01c41a466958f6a4f7bdf5592f$"
}
}
