{"frames": {

"Aluminium_Sulphate_Dropper0001.png":
{
	"frame": {"x":0,"y":0,"w":50,"h":200},
	"rotated": false,
	"trimmed": false,
	"spriteSourceSize": {"x":0,"y":0,"w":50,"h":200},
	"sourceSize": {"w":50,"h":200}
},
"Aluminium_Sulphate_Dropper0002.png":
{
	"frame": {"x":50,"y":0,"w":50,"h":200},
	"rotated": false,
	"trimmed": false,
	"spriteSourceSize": {"x":0,"y":0,"w":50,"h":200},
	"sourceSize": {"w":50,"h":200}
},
"Aluminium_Sulphate_Dropper0003.png":
{
	"frame": {"x":100,"y":0,"w":50,"h":200},
	"rotated": false,
	"trimmed": false,
	"spriteSourceSize": {"x":0,"y":0,"w":50,"h":200},
	"sourceSize": {"w":50,"h":200}
},
"Aluminium_Sulphate_Dropper0004.png":
{
	"frame": {"x":150,"y":0,"w":50,"h":200},
	"rotated": false,
	"trimmed": false,
	"spriteSourceSize": {"x":0,"y":0,"w":50,"h":200},
	"sourceSize": {"w":50,"h":200}
},
"Aluminium_Sulphate_Dropper0005.png":
{
	"frame": {"x":200,"y":0,"w":50,"h":200},
	"rotated": false,
	"trimmed": false,
	"spriteSourceSize": {"x":0,"y":0,"w":50,"h":200},
	"sourceSize": {"w":50,"h":200}
},
"Aluminium_Sulphate_Dropper0006.png":
{
	"frame": {"x":250,"y":0,"w":50,"h":200},
	"rotated": false,
	"trimmed": false,
	"spriteSourceSize": {"x":0,"y":0,"w":50,"h":200},
	"sourceSize": {"w":50,"h":200}
},
"Aluminium_Sulphate_Dropper0007.png":
{
	"frame": {"x":300,"y":0,"w":50,"h":200},
	"rotated": false,
	"trimmed": false,
	"spriteSourceSize": {"x":0,"y":0,"w":50,"h":200},
	"sourceSize": {"w":50,"h":200}
},
"Aluminium_Sulphate_Dropper0008.png":
{
	"frame": {"x":350,"y":0,"w":50,"h":200},
	"rotated": false,
	"trimmed": false,
	"spriteSourceSize": {"x":0,"y":0,"w":50,"h":200},
	"sourceSize": {"w":50,"h":200}
},
"Aluminium_Sulphate_Dropper0009.png":
{
	"frame": {"x":400,"y":0,"w":50,"h":200},
	"rotated": false,
	"trimmed": false,
	"spriteSourceSize": {"x":0,"y":0,"w":50,"h":200},
	"sourceSize": {"w":50,"h":200}
},
"Aluminium_Sulphate_Dropper0010.png":
{
	"frame": {"x":450,"y":0,"w":50,"h":200},
	"rotated": false,
	"trimmed": false,
	"spriteSourceSize": {"x":0,"y":0,"w":50,"h":200},
	"sourceSize": {"w":50,"h":200}
},
"Aluminium_Sulphate_Dropper0011.png":
{
	"frame": {"x":0,"y":200,"w":50,"h":200},
	"rotated": false,
	"trimmed": false,
	"spriteSourceSize": {"x":0,"y":0,"w":50,"h":200},
	"sourceSize": {"w":50,"h":200}
},
"Aluminium_Sulphate_Dropper0012.png":
{
	"frame": {"x":50,"y":200,"w":50,"h":200},
	"rotated": false,
	"trimmed": false,
	"spriteSourceSize": {"x":0,"y":0,"w":50,"h":200},
	"sourceSize": {"w":50,"h":200}
},
"Aluminium_Sulphate_Dropper0013.png":
{
	"frame": {"x":100,"y":200,"w":50,"h":200},
	"rotated": false,
	"trimmed": false,
	"spriteSourceSize": {"x":0,"y":0,"w":50,"h":200},
	"sourceSize": {"w":50,"h":200}
},
"Aluminium_Sulphate_Dropper0014.png":
{
	"frame": {"x":150,"y":200,"w":50,"h":200},
	"rotated": false,
	"trimmed": false,
	"spriteSourceSize": {"x":0,"y":0,"w":50,"h":200},
	"sourceSize": {"w":50,"h":200}
},
"Aluminium_Sulphate_Dropper0015.png":
{
	"frame": {"x":200,"y":200,"w":50,"h":200},
	"rotated": false,
	"trimmed": false,
	"spriteSourceSize": {"x":0,"y":0,"w":50,"h":200},
	"sourceSize": {"w":50,"h":200}
},
"Aluminium_Sulphate_Dropper0016.png":
{
	"frame": {"x":250,"y":200,"w":50,"h":200},
	"rotated": false,
	"trimmed": false,
	"spriteSourceSize": {"x":0,"y":0,"w":50,"h":200},
	"sourceSize": {"w":50,"h":200}
}},
"meta": {
	"app": "https://www.codeandweb.com/texturepacker",
	"version": "1.0",
	"image": "water_dropper_sprite.png",
	"format": "RGBA8888",
	"size": {"w":512,"h":512},
	"scale": "1",
	"smartupdate": "$TexturePacker:SmartUpdate:1c842c05d853978fe198366859657fc8:c39d6597bc22df2a737ae903fed1978a:8721709b8665e98730a2f8da2c0c1253$"
}
}
