{"frames": {

"Alum_from_beaker0001.png":
{
	"frame": {"x":0,"y":0,"w":500,"h":500},
	"rotated": false,
	"trimmed": false,
	"spriteSourceSize": {"x":0,"y":0,"w":500,"h":500},
	"sourceSize": {"w":500,"h":500}
},
"Alum_from_beaker0002.png":
{
	"frame": {"x":500,"y":0,"w":500,"h":500},
	"rotated": false,
	"trimmed": false,
	"spriteSourceSize": {"x":0,"y":0,"w":500,"h":500},
	"sourceSize": {"w":500,"h":500}
},
"Alum_from_beaker0003.png":
{
	"frame": {"x":1000,"y":0,"w":500,"h":500},
	"rotated": false,
	"trimmed": false,
	"spriteSourceSize": {"x":0,"y":0,"w":500,"h":500},
	"sourceSize": {"w":500,"h":500}
},
"Alum_from_beaker0004.png":
{
	"frame": {"x":1500,"y":0,"w":500,"h":500},
	"rotated": false,
	"trimmed": false,
	"spriteSourceSize": {"x":0,"y":0,"w":500,"h":500},
	"sourceSize": {"w":500,"h":500}
},
"Alum_from_beaker0005.png":
{
	"frame": {"x":2000,"y":0,"w":500,"h":500},
	"rotated": false,
	"trimmed": false,
	"spriteSourceSize": {"x":0,"y":0,"w":500,"h":500},
	"sourceSize": {"w":500,"h":500}
},
"Alum_from_beaker0006.png":
{
	"frame": {"x":2500,"y":0,"w":500,"h":500},
	"rotated": false,
	"trimmed": false,
	"spriteSourceSize": {"x":0,"y":0,"w":500,"h":500},
	"sourceSize": {"w":500,"h":500}
},
"Alum_from_beaker0007.png":
{
	"frame": {"x":3000,"y":0,"w":500,"h":500},
	"rotated": false,
	"trimmed": false,
	"spriteSourceSize": {"x":0,"y":0,"w":500,"h":500},
	"sourceSize": {"w":500,"h":500}
},
"Alum_from_beaker0008.png":
{
	"frame": {"x":3500,"y":0,"w":500,"h":500},
	"rotated": false,
	"trimmed": false,
	"spriteSourceSize": {"x":0,"y":0,"w":500,"h":500},
	"sourceSize": {"w":500,"h":500}
},
"Alum_from_beaker0009.png":
{
	"frame": {"x":0,"y":500,"w":500,"h":500},
	"rotated": false,
	"trimmed": false,
	"spriteSourceSize": {"x":0,"y":0,"w":500,"h":500},
	"sourceSize": {"w":500,"h":500}
},
"Alum_from_beaker0010.png":
{
	"frame": {"x":500,"y":500,"w":500,"h":500},
	"rotated": false,
	"trimmed": false,
	"spriteSourceSize": {"x":0,"y":0,"w":500,"h":500},
	"sourceSize": {"w":500,"h":500}
},
"Alum_from_beaker0011.png":
{
	"frame": {"x":1000,"y":500,"w":500,"h":500},
	"rotated": false,
	"trimmed": false,
	"spriteSourceSize": {"x":0,"y":0,"w":500,"h":500},
	"sourceSize": {"w":500,"h":500}
},
"Alum_from_beaker0012.png":
{
	"frame": {"x":1500,"y":500,"w":500,"h":500},
	"rotated": false,
	"trimmed": false,
	"spriteSourceSize": {"x":0,"y":0,"w":500,"h":500},
	"sourceSize": {"w":500,"h":500}
},
"Alum_from_beaker0013.png":
{
	"frame": {"x":2000,"y":500,"w":500,"h":500},
	"rotated": false,
	"trimmed": false,
	"spriteSourceSize": {"x":0,"y":0,"w":500,"h":500},
	"sourceSize": {"w":500,"h":500}
},
"Alum_from_beaker0014.png":
{
	"frame": {"x":2500,"y":500,"w":500,"h":500},
	"rotated": false,
	"trimmed": false,
	"spriteSourceSize": {"x":0,"y":0,"w":500,"h":500},
	"sourceSize": {"w":500,"h":500}
},
"Alum_from_beaker0015.png":
{
	"frame": {"x":3000,"y":500,"w":500,"h":500},
	"rotated": false,
	"trimmed": false,
	"spriteSourceSize": {"x":0,"y":0,"w":500,"h":500},
	"sourceSize": {"w":500,"h":500}
},
"Alum_from_beaker0016.png":
{
	"frame": {"x":3500,"y":500,"w":500,"h":500},
	"rotated": false,
	"trimmed": false,
	"spriteSourceSize": {"x":0,"y":0,"w":500,"h":500},
	"sourceSize": {"w":500,"h":500}
},
"Alum_from_beaker0017.png":
{
	"frame": {"x":0,"y":1000,"w":500,"h":500},
	"rotated": false,
	"trimmed": false,
	"spriteSourceSize": {"x":0,"y":0,"w":500,"h":500},
	"sourceSize": {"w":500,"h":500}
},
"Alum_from_beaker0018.png":
{
	"frame": {"x":500,"y":1000,"w":500,"h":500},
	"rotated": false,
	"trimmed": false,
	"spriteSourceSize": {"x":0,"y":0,"w":500,"h":500},
	"sourceSize": {"w":500,"h":500}
},
"Alum_from_beaker0019.png":
{
	"frame": {"x":1000,"y":1000,"w":500,"h":500},
	"rotated": false,
	"trimmed": false,
	"spriteSourceSize": {"x":0,"y":0,"w":500,"h":500},
	"sourceSize": {"w":500,"h":500}
},
"Alum_from_beaker0020.png":
{
	"frame": {"x":1500,"y":1000,"w":500,"h":500},
	"rotated": false,
	"trimmed": false,
	"spriteSourceSize": {"x":0,"y":0,"w":500,"h":500},
	"sourceSize": {"w":500,"h":500}
},
"Alum_from_beaker0021.png":
{
	"frame": {"x":2000,"y":1000,"w":500,"h":500},
	"rotated": false,
	"trimmed": false,
	"spriteSourceSize": {"x":0,"y":0,"w":500,"h":500},
	"sourceSize": {"w":500,"h":500}
},
"Alum_from_beaker0022.png":
{
	"frame": {"x":2500,"y":1000,"w":500,"h":500},
	"rotated": false,
	"trimmed": false,
	"spriteSourceSize": {"x":0,"y":0,"w":500,"h":500},
	"sourceSize": {"w":500,"h":500}
},
"Alum_from_beaker0023.png":
{
	"frame": {"x":3000,"y":1000,"w":500,"h":500},
	"rotated": false,
	"trimmed": false,
	"spriteSourceSize": {"x":0,"y":0,"w":500,"h":500},
	"sourceSize": {"w":500,"h":500}
},
"Alum_from_beaker0024.png":
{
	"frame": {"x":3500,"y":1000,"w":500,"h":500},
	"rotated": false,
	"trimmed": false,
	"spriteSourceSize": {"x":0,"y":0,"w":500,"h":500},
	"sourceSize": {"w":500,"h":500}
},
"Alum_from_beaker0025.png":
{
	"frame": {"x":0,"y":1500,"w":500,"h":500},
	"rotated": false,
	"trimmed": false,
	"spriteSourceSize": {"x":0,"y":0,"w":500,"h":500},
	"sourceSize": {"w":500,"h":500}
},
"Alum_from_beaker0026.png":
{
	"frame": {"x":500,"y":1500,"w":500,"h":500},
	"rotated": false,
	"trimmed": false,
	"spriteSourceSize": {"x":0,"y":0,"w":500,"h":500},
	"sourceSize": {"w":500,"h":500}
},
"Alum_from_beaker0027.png":
{
	"frame": {"x":1000,"y":1500,"w":500,"h":500},
	"rotated": false,
	"trimmed": false,
	"spriteSourceSize": {"x":0,"y":0,"w":500,"h":500},
	"sourceSize": {"w":500,"h":500}
},
"Alum_from_beaker0028.png":
{
	"frame": {"x":1500,"y":1500,"w":500,"h":500},
	"rotated": false,
	"trimmed": false,
	"spriteSourceSize": {"x":0,"y":0,"w":500,"h":500},
	"sourceSize": {"w":500,"h":500}
},
"Alum_from_beaker0029.png":
{
	"frame": {"x":2000,"y":1500,"w":500,"h":500},
	"rotated": false,
	"trimmed": false,
	"spriteSourceSize": {"x":0,"y":0,"w":500,"h":500},
	"sourceSize": {"w":500,"h":500}
},
"Alum_from_beaker0030.png":
{
	"frame": {"x":2500,"y":1500,"w":500,"h":500},
	"rotated": false,
	"trimmed": false,
	"spriteSourceSize": {"x":0,"y":0,"w":500,"h":500},
	"sourceSize": {"w":500,"h":500}
},
"Alum_from_beaker0031.png":
{
	"frame": {"x":3000,"y":1500,"w":500,"h":500},
	"rotated": false,
	"trimmed": false,
	"spriteSourceSize": {"x":0,"y":0,"w":500,"h":500},
	"sourceSize": {"w":500,"h":500}
}},
"meta": {
	"app": "https://www.codeandweb.com/texturepacker",
	"version": "1.0",
	"image": "alumbeakertofunnel.png",
	"format": "RGBA8888",
	"size": {"w":4000,"h":2000},
	"scale": "1",
	"smartupdate": "$TexturePacker:SmartUpdate:58c7dcc26cdfa953d48e7e96e5551f3c:e59638ebf4f1f60d89dc1e1a757db3d8:60a15d1c4f3ab1e955e79257ecb02478$"
}
}
