{"frames": {

"Spoon_alum0001.png":
{
	"frame": {"x":0,"y":0,"w":300,"h":250},
	"rotated": false,
	"trimmed": false,
	"spriteSourceSize": {"x":0,"y":0,"w":300,"h":250},
	"sourceSize": {"w":300,"h":250}
},
"Spoon_alum0002.png":
{
	"frame": {"x":0,"y":250,"w":300,"h":250},
	"rotated": false,
	"trimmed": false,
	"spriteSourceSize": {"x":0,"y":0,"w":300,"h":250},
	"sourceSize": {"w":300,"h":250}
},
"Spoon_alum0003.png":
{
	"frame": {"x":0,"y":500,"w":300,"h":250},
	"rotated": false,
	"trimmed": false,
	"spriteSourceSize": {"x":0,"y":0,"w":300,"h":250},
	"sourceSize": {"w":300,"h":250}
},
"Spoon_alum0004.png":
{
	"frame": {"x":0,"y":750,"w":300,"h":250},
	"rotated": false,
	"trimmed": false,
	"spriteSourceSize": {"x":0,"y":0,"w":300,"h":250},
	"sourceSize": {"w":300,"h":250}
},
"Spoon_alum0005.png":
{
	"frame": {"x":0,"y":1000,"w":300,"h":250},
	"rotated": false,
	"trimmed": false,
	"spriteSourceSize": {"x":0,"y":0,"w":300,"h":250},
	"sourceSize": {"w":300,"h":250}
},
"Spoon_alum0006.png":
{
	"frame": {"x":0,"y":1250,"w":300,"h":250},
	"rotated": false,
	"trimmed": false,
	"spriteSourceSize": {"x":0,"y":0,"w":300,"h":250},
	"sourceSize": {"w":300,"h":250}
},
"Spoon_alum0007.png":
{
	"frame": {"x":0,"y":1500,"w":300,"h":250},
	"rotated": false,
	"trimmed": false,
	"spriteSourceSize": {"x":0,"y":0,"w":300,"h":250},
	"sourceSize": {"w":300,"h":250}
},
"Spoon_alum0008.png":
{
	"frame": {"x":0,"y":1750,"w":300,"h":250},
	"rotated": false,
	"trimmed": false,
	"spriteSourceSize": {"x":0,"y":0,"w":300,"h":250},
	"sourceSize": {"w":300,"h":250}
}},
"meta": {
	"app": "https://www.codeandweb.com/texturepacker",
	"version": "1.0",
	"image": "spoonalum.png",
	"format": "RGBA8888",
	"size": {"w":300,"h":2000},
	"scale": "1",
	"smartupdate": "$TexturePacker:SmartUpdate:15a2adadbb84f7fda541d671f1eb5a8a:ce2265981f5a25f707e3dc466e2509e4:a15a84ee84d12dd13b467446a0621ca1$"
}
}
