{"frames": {

"Flame0001.png":
{
	"frame": {"x":0,"y":0,"w":70,"h":100},
	"rotated": false,
	"trimmed": false,
	"spriteSourceSize": {"x":0,"y":0,"w":70,"h":100},
	"sourceSize": {"w":70,"h":100}
},
"Flame0002.png":
{
	"frame": {"x":70,"y":0,"w":70,"h":100},
	"rotated": false,
	"trimmed": false,
	"spriteSourceSize": {"x":0,"y":0,"w":70,"h":100},
	"sourceSize": {"w":70,"h":100}
},
"Flame0003.png":
{
	"frame": {"x":140,"y":0,"w":70,"h":100},
	"rotated": false,
	"trimmed": false,
	"spriteSourceSize": {"x":0,"y":0,"w":70,"h":100},
	"sourceSize": {"w":70,"h":100}
},
"Flame0004.png":
{
	"frame": {"x":0,"y":100,"w":70,"h":100},
	"rotated": false,
	"trimmed": false,
	"spriteSourceSize": {"x":0,"y":0,"w":70,"h":100},
	"sourceSize": {"w":70,"h":100}
},
"Flame0005.png":
{
	"frame": {"x":70,"y":100,"w":70,"h":100},
	"rotated": false,
	"trimmed": false,
	"spriteSourceSize": {"x":0,"y":0,"w":70,"h":100},
	"sourceSize": {"w":70,"h":100}
},
"Flame0006.png":
{
	"frame": {"x":140,"y":100,"w":70,"h":100},
	"rotated": false,
	"trimmed": false,
	"spriteSourceSize": {"x":0,"y":0,"w":70,"h":100},
	"sourceSize": {"w":70,"h":100}
},
"Flame0007.png":
{
	"frame": {"x":0,"y":200,"w":70,"h":100},
	"rotated": false,
	"trimmed": false,
	"spriteSourceSize": {"x":0,"y":0,"w":70,"h":100},
	"sourceSize": {"w":70,"h":100}
},
"Flame0008.png":
{
	"frame": {"x":70,"y":200,"w":70,"h":100},
	"rotated": false,
	"trimmed": false,
	"spriteSourceSize": {"x":0,"y":0,"w":70,"h":100},
	"sourceSize": {"w":70,"h":100}
},
"Flame0009.png":
{
	"frame": {"x":140,"y":200,"w":70,"h":100},
	"rotated": false,
	"trimmed": false,
	"spriteSourceSize": {"x":0,"y":0,"w":70,"h":100},
	"sourceSize": {"w":70,"h":100}
},
"Flame0010.png":
{
	"frame": {"x":0,"y":300,"w":70,"h":100},
	"rotated": false,
	"trimmed": false,
	"spriteSourceSize": {"x":0,"y":0,"w":70,"h":100},
	"sourceSize": {"w":70,"h":100}
},
"Flame0011.png":
{
	"frame": {"x":70,"y":300,"w":70,"h":100},
	"rotated": false,
	"trimmed": false,
	"spriteSourceSize": {"x":0,"y":0,"w":70,"h":100},
	"sourceSize": {"w":70,"h":100}
},
"Flame0012.png":
{
	"frame": {"x":140,"y":300,"w":70,"h":100},
	"rotated": false,
	"trimmed": false,
	"spriteSourceSize": {"x":0,"y":0,"w":70,"h":100},
	"sourceSize": {"w":70,"h":100}
},
"Flame0013.png":
{
	"frame": {"x":0,"y":400,"w":70,"h":100},
	"rotated": false,
	"trimmed": false,
	"spriteSourceSize": {"x":0,"y":0,"w":70,"h":100},
	"sourceSize": {"w":70,"h":100}
},
"Flame0014.png":
{
	"frame": {"x":70,"y":400,"w":70,"h":100},
	"rotated": false,
	"trimmed": false,
	"spriteSourceSize": {"x":0,"y":0,"w":70,"h":100},
	"sourceSize": {"w":70,"h":100}
},
"Flame0015.png":
{
	"frame": {"x":140,"y":400,"w":70,"h":100},
	"rotated": false,
	"trimmed": false,
	"spriteSourceSize": {"x":0,"y":0,"w":70,"h":100},
	"sourceSize": {"w":70,"h":100}
}},
"meta": {
	"app": "https://www.codeandweb.com/texturepacker",
	"version": "1.0",
	"image": "Flame.png",
	"format": "RGBA8888",
	"size": {"w":210,"h":500},
	"scale": "1",
	"smartupdate": "$TexturePacker:SmartUpdate:7f67bfc65b9dc56dbf9eaec68ce58336:40a7dd55ba615fe879fe219a31682875:c4ba3d3f3c8b077728e2c05e29614b8c$"
}
}
