{"frames": {

"arrow_0001.png":
{
	"frame": {"x":0,"y":0,"w":26,"h":70},
	"rotated": false,
	"trimmed": false,
	"spriteSourceSize": {"x":0,"y":0,"w":26,"h":70},
	"sourceSize": {"w":26,"h":70}
},
"arrow_0002.png":
{
	"frame": {"x":0,"y":70,"w":26,"h":70},
	"rotated": false,
	"trimmed": false,
	"spriteSourceSize": {"x":0,"y":0,"w":26,"h":70},
	"sourceSize": {"w":26,"h":70}
},
"arrow_0003.png":
{
	"frame": {"x":0,"y":140,"w":26,"h":70},
	"rotated": false,
	"trimmed": false,
	"spriteSourceSize": {"x":0,"y":0,"w":26,"h":70},
	"sourceSize": {"w":26,"h":70}
},
"arrow_0004.png":
{
	"frame": {"x":0,"y":210,"w":26,"h":70},
	"rotated": false,
	"trimmed": false,
	"spriteSourceSize": {"x":0,"y":0,"w":26,"h":70},
	"sourceSize": {"w":26,"h":70}
},
"arrow_0005.png":
{
	"frame": {"x":0,"y":280,"w":26,"h":70},
	"rotated": false,
	"trimmed": false,
	"spriteSourceSize": {"x":0,"y":0,"w":26,"h":70},
	"sourceSize": {"w":26,"h":70}
},
"arrow_0006.png":
{
	"frame": {"x":0,"y":350,"w":26,"h":70},
	"rotated": false,
	"trimmed": false,
	"spriteSourceSize": {"x":0,"y":0,"w":26,"h":70},
	"sourceSize": {"w":26,"h":70}
},
"arrow_0007.png":
{
	"frame": {"x":0,"y":420,"w":26,"h":70},
	"rotated": false,
	"trimmed": false,
	"spriteSourceSize": {"x":0,"y":0,"w":26,"h":70},
	"sourceSize": {"w":26,"h":70}
},
"arrow_0008.png":
{
	"frame": {"x":0,"y":490,"w":26,"h":70},
	"rotated": false,
	"trimmed": false,
	"spriteSourceSize": {"x":0,"y":0,"w":26,"h":70},
	"sourceSize": {"w":26,"h":70}
},
"arrow_0009.png":
{
	"frame": {"x":0,"y":560,"w":26,"h":70},
	"rotated": false,
	"trimmed": false,
	"spriteSourceSize": {"x":0,"y":0,"w":26,"h":70},
	"sourceSize": {"w":26,"h":70}
},
"arrow_0010.png":
{
	"frame": {"x":0,"y":630,"w":26,"h":70},
	"rotated": false,
	"trimmed": false,
	"spriteSourceSize": {"x":0,"y":0,"w":26,"h":70},
	"sourceSize": {"w":26,"h":70}
}},
"meta": {
	"app": "https://www.codeandweb.com/texturepacker",
	"version": "1.0",
	"image": "arrow.png",
	"format": "RGBA8888",
	"size": {"w":26,"h":700},
	"scale": "1",
	"smartupdate": "$TexturePacker:SmartUpdate:b53b34458247fbcd6048020ec3fd54dd:57f1f898d249782df73a3bc717df6ca1:da7b7f302b584bc2843bb50b1ff3bd62$"
}
}
