{"frames": {

"Onion_pealing0001.png":
{
	"frame": {"x":0,"y":0,"w":600,"h":450},
	"rotated": false,
	"trimmed": false,
	"spriteSourceSize": {"x":0,"y":0,"w":600,"h":450},
	"sourceSize": {"w":600,"h":450}
},
"Onion_pealing0002.png":
{
	"frame": {"x":600,"y":0,"w":600,"h":450},
	"rotated": false,
	"trimmed": false,
	"spriteSourceSize": {"x":0,"y":0,"w":600,"h":450},
	"sourceSize": {"w":600,"h":450}
},
"Onion_pealing0003.png":
{
	"frame": {"x":1200,"y":0,"w":600,"h":450},
	"rotated": false,
	"trimmed": false,
	"spriteSourceSize": {"x":0,"y":0,"w":600,"h":450},
	"sourceSize": {"w":600,"h":450}
},
"Onion_pealing0004.png":
{
	"frame": {"x":0,"y":450,"w":600,"h":450},
	"rotated": false,
	"trimmed": false,
	"spriteSourceSize": {"x":0,"y":0,"w":600,"h":450},
	"sourceSize": {"w":600,"h":450}
},
"Onion_pealing0005.png":
{
	"frame": {"x":600,"y":450,"w":600,"h":450},
	"rotated": false,
	"trimmed": false,
	"spriteSourceSize": {"x":0,"y":0,"w":600,"h":450},
	"sourceSize": {"w":600,"h":450}
},
"Onion_pealing0006.png":
{
	"frame": {"x":1200,"y":450,"w":600,"h":450},
	"rotated": false,
	"trimmed": false,
	"spriteSourceSize": {"x":0,"y":0,"w":600,"h":450},
	"sourceSize": {"w":600,"h":450}
}},
"meta": {
	"app": "https://www.codeandweb.com/texturepacker",
	"version": "1.0",
	"image": "onion_peel_sprite.png",
	"format": "RGBA8888",
	"size": {"w":1800,"h":900},
	"scale": "1",
	"smartupdate": "$TexturePacker:SmartUpdate:d9de929e9fad8ace8e3b1df35b0e2713:f1e5f06dcbd1610d3a525102df763851:5a225e533f30f16f22407d1af68c419b$"
}
}
