{"frames": {

"Water_To_Dropper0001.png":
{
	"frame": {"x":0,"y":0,"w":75,"h":550},
	"rotated": false,
	"trimmed": false,
	"spriteSourceSize": {"x":0,"y":0,"w":75,"h":550},
	"sourceSize": {"w":75,"h":550}
},
"Water_To_Dropper0002.png":
{
	"frame": {"x":75,"y":0,"w":75,"h":550},
	"rotated": false,
	"trimmed": false,
	"spriteSourceSize": {"x":0,"y":0,"w":75,"h":550},
	"sourceSize": {"w":75,"h":550}
},
"Water_To_Dropper0003.png":
{
	"frame": {"x":150,"y":0,"w":75,"h":550},
	"rotated": false,
	"trimmed": false,
	"spriteSourceSize": {"x":0,"y":0,"w":75,"h":550},
	"sourceSize": {"w":75,"h":550}
},
"Water_To_Dropper0004.png":
{
	"frame": {"x":225,"y":0,"w":75,"h":550},
	"rotated": false,
	"trimmed": false,
	"spriteSourceSize": {"x":0,"y":0,"w":75,"h":550},
	"sourceSize": {"w":75,"h":550}
},
"Water_To_Dropper0005.png":
{
	"frame": {"x":300,"y":0,"w":75,"h":550},
	"rotated": false,
	"trimmed": false,
	"spriteSourceSize": {"x":0,"y":0,"w":75,"h":550},
	"sourceSize": {"w":75,"h":550}
}},
"meta": {
	"app": "https://www.codeandweb.com/texturepacker",
	"version": "1.0",
	"image": "water_dropper_sprite.png",
	"format": "RGBA8888",
	"size": {"w":375,"h":550},
	"scale": "1",
	"smartupdate": "$TexturePacker:SmartUpdate:94df638b4591ec301b728ba2519b298a:8b58aebfe82b522023b03192a6360103:9ee5768b9e6b96ec11ed708801bdb3f8$"
}
}
