{"frames": {

"Testube_with_holder_and_Naso40001.png":
{
	"frame": {"x":0,"y":0,"w":850,"h":850},
	"rotated": false,
	"trimmed": false,
	"spriteSourceSize": {"x":0,"y":0,"w":850,"h":850},
	"sourceSize": {"w":850,"h":850}
},
"Testube_with_holder_and_Naso40002.png":
{
	"frame": {"x":850,"y":0,"w":850,"h":850},
	"rotated": false,
	"trimmed": false,
	"spriteSourceSize": {"x":0,"y":0,"w":850,"h":850},
	"sourceSize": {"w":850,"h":850}
},
"Testube_with_holder_and_Naso40003.png":
{
	"frame": {"x":1700,"y":0,"w":850,"h":850},
	"rotated": false,
	"trimmed": false,
	"spriteSourceSize": {"x":0,"y":0,"w":850,"h":850},
	"sourceSize": {"w":850,"h":850}
},
"Testube_with_holder_and_Naso40004.png":
{
	"frame": {"x":2550,"y":0,"w":850,"h":850},
	"rotated": false,
	"trimmed": false,
	"spriteSourceSize": {"x":0,"y":0,"w":850,"h":850},
	"sourceSize": {"w":850,"h":850}
},
"Testube_with_holder_and_Naso40005.png":
{
	"frame": {"x":3400,"y":0,"w":850,"h":850},
	"rotated": false,
	"trimmed": false,
	"spriteSourceSize": {"x":0,"y":0,"w":850,"h":850},
	"sourceSize": {"w":850,"h":850}
},
"Testube_with_holder_and_Naso40006.png":
{
	"frame": {"x":4250,"y":0,"w":850,"h":850},
	"rotated": false,
	"trimmed": false,
	"spriteSourceSize": {"x":0,"y":0,"w":850,"h":850},
	"sourceSize": {"w":850,"h":850}
},
"Testube_with_holder_and_Naso40007.png":
{
	"frame": {"x":5100,"y":0,"w":850,"h":850},
	"rotated": false,
	"trimmed": false,
	"spriteSourceSize": {"x":0,"y":0,"w":850,"h":850},
	"sourceSize": {"w":850,"h":850}
},
"Testube_with_holder_and_Naso40008.png":
{
	"frame": {"x":5950,"y":0,"w":850,"h":850},
	"rotated": false,
	"trimmed": false,
	"spriteSourceSize": {"x":0,"y":0,"w":850,"h":850},
	"sourceSize": {"w":850,"h":850}
},
"Testube_with_holder_and_Naso40009.png":
{
	"frame": {"x":6800,"y":0,"w":850,"h":850},
	"rotated": false,
	"trimmed": false,
	"spriteSourceSize": {"x":0,"y":0,"w":850,"h":850},
	"sourceSize": {"w":850,"h":850}
},
"Testube_with_holder_and_Naso40010.png":
{
	"frame": {"x":0,"y":850,"w":850,"h":850},
	"rotated": false,
	"trimmed": false,
	"spriteSourceSize": {"x":0,"y":0,"w":850,"h":850},
	"sourceSize": {"w":850,"h":850}
},
"Testube_with_holder_and_Naso40011.png":
{
	"frame": {"x":850,"y":850,"w":850,"h":850},
	"rotated": false,
	"trimmed": false,
	"spriteSourceSize": {"x":0,"y":0,"w":850,"h":850},
	"sourceSize": {"w":850,"h":850}
},
"Testube_with_holder_and_Naso40012.png":
{
	"frame": {"x":1700,"y":850,"w":850,"h":850},
	"rotated": false,
	"trimmed": false,
	"spriteSourceSize": {"x":0,"y":0,"w":850,"h":850},
	"sourceSize": {"w":850,"h":850}
},
"Testube_with_holder_and_Naso40013.png":
{
	"frame": {"x":2550,"y":850,"w":850,"h":850},
	"rotated": false,
	"trimmed": false,
	"spriteSourceSize": {"x":0,"y":0,"w":850,"h":850},
	"sourceSize": {"w":850,"h":850}
},
"Testube_with_holder_and_Naso40014.png":
{
	"frame": {"x":3400,"y":850,"w":850,"h":850},
	"rotated": false,
	"trimmed": false,
	"spriteSourceSize": {"x":0,"y":0,"w":850,"h":850},
	"sourceSize": {"w":850,"h":850}
},
"Testube_with_holder_and_Naso40015.png":
{
	"frame": {"x":4250,"y":850,"w":850,"h":850},
	"rotated": false,
	"trimmed": false,
	"spriteSourceSize": {"x":0,"y":0,"w":850,"h":850},
	"sourceSize": {"w":850,"h":850}
},
"Testube_with_holder_and_Naso40016.png":
{
	"frame": {"x":5100,"y":850,"w":850,"h":850},
	"rotated": false,
	"trimmed": false,
	"spriteSourceSize": {"x":0,"y":0,"w":850,"h":850},
	"sourceSize": {"w":850,"h":850}
},
"Testube_with_holder_and_Naso40017.png":
{
	"frame": {"x":5950,"y":850,"w":850,"h":850},
	"rotated": false,
	"trimmed": false,
	"spriteSourceSize": {"x":0,"y":0,"w":850,"h":850},
	"sourceSize": {"w":850,"h":850}
},
"Testube_with_holder_and_Naso40018.png":
{
	"frame": {"x":6800,"y":850,"w":850,"h":850},
	"rotated": false,
	"trimmed": false,
	"spriteSourceSize": {"x":0,"y":0,"w":850,"h":850},
	"sourceSize": {"w":850,"h":850}
},
"Testube_with_holder_and_Naso40019.png":
{
	"frame": {"x":0,"y":1700,"w":850,"h":850},
	"rotated": false,
	"trimmed": false,
	"spriteSourceSize": {"x":0,"y":0,"w":850,"h":850},
	"sourceSize": {"w":850,"h":850}
},
"Testube_with_holder_and_Naso40020.png":
{
	"frame": {"x":850,"y":1700,"w":850,"h":850},
	"rotated": false,
	"trimmed": false,
	"spriteSourceSize": {"x":0,"y":0,"w":850,"h":850},
	"sourceSize": {"w":850,"h":850}
},
"Testube_with_holder_and_Naso40021.png":
{
	"frame": {"x":1700,"y":1700,"w":850,"h":850},
	"rotated": false,
	"trimmed": false,
	"spriteSourceSize": {"x":0,"y":0,"w":850,"h":850},
	"sourceSize": {"w":850,"h":850}
},
"Testube_with_holder_and_Naso40022.png":
{
	"frame": {"x":2550,"y":1700,"w":850,"h":850},
	"rotated": false,
	"trimmed": false,
	"spriteSourceSize": {"x":0,"y":0,"w":850,"h":850},
	"sourceSize": {"w":850,"h":850}
},
"Testube_with_holder_and_Naso40023.png":
{
	"frame": {"x":3400,"y":1700,"w":850,"h":850},
	"rotated": false,
	"trimmed": false,
	"spriteSourceSize": {"x":0,"y":0,"w":850,"h":850},
	"sourceSize": {"w":850,"h":850}
},
"Testube_with_holder_and_Naso40024.png":
{
	"frame": {"x":4250,"y":1700,"w":850,"h":850},
	"rotated": false,
	"trimmed": false,
	"spriteSourceSize": {"x":0,"y":0,"w":850,"h":850},
	"sourceSize": {"w":850,"h":850}
},
"Testube_with_holder_and_Naso40025.png":
{
	"frame": {"x":5100,"y":1700,"w":850,"h":850},
	"rotated": false,
	"trimmed": false,
	"spriteSourceSize": {"x":0,"y":0,"w":850,"h":850},
	"sourceSize": {"w":850,"h":850}
},
"Testube_with_holder_and_Naso40026.png":
{
	"frame": {"x":5950,"y":1700,"w":850,"h":850},
	"rotated": false,
	"trimmed": false,
	"spriteSourceSize": {"x":0,"y":0,"w":850,"h":850},
	"sourceSize": {"w":850,"h":850}
},
"Testube_with_holder_and_Naso40027.png":
{
	"frame": {"x":6800,"y":1700,"w":850,"h":850},
	"rotated": false,
	"trimmed": false,
	"spriteSourceSize": {"x":0,"y":0,"w":850,"h":850},
	"sourceSize": {"w":850,"h":850}
},
"Testube_with_holder_and_Naso40028.png":
{
	"frame": {"x":0,"y":2550,"w":850,"h":850},
	"rotated": false,
	"trimmed": false,
	"spriteSourceSize": {"x":0,"y":0,"w":850,"h":850},
	"sourceSize": {"w":850,"h":850}
},
"Testube_with_holder_and_Naso40029.png":
{
	"frame": {"x":850,"y":2550,"w":850,"h":850},
	"rotated": false,
	"trimmed": false,
	"spriteSourceSize": {"x":0,"y":0,"w":850,"h":850},
	"sourceSize": {"w":850,"h":850}
},
"Testube_with_holder_and_Naso40030.png":
{
	"frame": {"x":1700,"y":2550,"w":850,"h":850},
	"rotated": false,
	"trimmed": false,
	"spriteSourceSize": {"x":0,"y":0,"w":850,"h":850},
	"sourceSize": {"w":850,"h":850}
},
"Testube_with_holder_and_Naso40031.png":
{
	"frame": {"x":2550,"y":2550,"w":850,"h":850},
	"rotated": false,
	"trimmed": false,
	"spriteSourceSize": {"x":0,"y":0,"w":850,"h":850},
	"sourceSize": {"w":850,"h":850}
},
"Testube_with_holder_and_Naso40032.png":
{
	"frame": {"x":3400,"y":2550,"w":850,"h":850},
	"rotated": false,
	"trimmed": false,
	"spriteSourceSize": {"x":0,"y":0,"w":850,"h":850},
	"sourceSize": {"w":850,"h":850}
},
"Testube_with_holder_and_Naso40033.png":
{
	"frame": {"x":4250,"y":2550,"w":850,"h":850},
	"rotated": false,
	"trimmed": false,
	"spriteSourceSize": {"x":0,"y":0,"w":850,"h":850},
	"sourceSize": {"w":850,"h":850}
},
"Testube_with_holder_and_Naso40034.png":
{
	"frame": {"x":5100,"y":2550,"w":850,"h":850},
	"rotated": false,
	"trimmed": false,
	"spriteSourceSize": {"x":0,"y":0,"w":850,"h":850},
	"sourceSize": {"w":850,"h":850}
},
"Testube_with_holder_and_Naso40035.png":
{
	"frame": {"x":5950,"y":2550,"w":850,"h":850},
	"rotated": false,
	"trimmed": false,
	"spriteSourceSize": {"x":0,"y":0,"w":850,"h":850},
	"sourceSize": {"w":850,"h":850}
}},
"meta": {
	"app": "https://www.codeandweb.com/texturepacker",
	"version": "1.0",
	"image": "bacl_pour_sprite.png",
	"format": "RGBA8888",
	"size": {"w":7650,"h":3400},
	"scale": "1",
	"smartupdate": "$TexturePacker:SmartUpdate:9e76447679f71418f594e538f47becd2:9e0f73bed7fdde4b3430a0f99f443ef8:a94be5909c3185c7ab4200deeb183ea2$"
}
}
