{"frames": {

"Solution_removing_to another_testube _holder0001.png":
{
	"frame": {"x":0,"y":0,"w":850,"h":850},
	"rotated": false,
	"trimmed": false,
	"spriteSourceSize": {"x":0,"y":0,"w":850,"h":850},
	"sourceSize": {"w":850,"h":850}
},
"Solution_removing_to another_testube _holder0002.png":
{
	"frame": {"x":850,"y":0,"w":850,"h":850},
	"rotated": false,
	"trimmed": false,
	"spriteSourceSize": {"x":0,"y":0,"w":850,"h":850},
	"sourceSize": {"w":850,"h":850}
},
"Solution_removing_to another_testube _holder0003.png":
{
	"frame": {"x":1700,"y":0,"w":850,"h":850},
	"rotated": false,
	"trimmed": false,
	"spriteSourceSize": {"x":0,"y":0,"w":850,"h":850},
	"sourceSize": {"w":850,"h":850}
},
"Solution_removing_to another_testube _holder0004.png":
{
	"frame": {"x":2550,"y":0,"w":850,"h":850},
	"rotated": false,
	"trimmed": false,
	"spriteSourceSize": {"x":0,"y":0,"w":850,"h":850},
	"sourceSize": {"w":850,"h":850}
},
"Solution_removing_to another_testube _holder0005.png":
{
	"frame": {"x":3400,"y":0,"w":850,"h":850},
	"rotated": false,
	"trimmed": false,
	"spriteSourceSize": {"x":0,"y":0,"w":850,"h":850},
	"sourceSize": {"w":850,"h":850}
},
"Solution_removing_to another_testube _holder0006.png":
{
	"frame": {"x":4250,"y":0,"w":850,"h":850},
	"rotated": false,
	"trimmed": false,
	"spriteSourceSize": {"x":0,"y":0,"w":850,"h":850},
	"sourceSize": {"w":850,"h":850}
},
"Solution_removing_to another_testube _holder0007.png":
{
	"frame": {"x":5100,"y":0,"w":850,"h":850},
	"rotated": false,
	"trimmed": false,
	"spriteSourceSize": {"x":0,"y":0,"w":850,"h":850},
	"sourceSize": {"w":850,"h":850}
},
"Solution_removing_to another_testube _holder0008.png":
{
	"frame": {"x":5950,"y":0,"w":850,"h":850},
	"rotated": false,
	"trimmed": false,
	"spriteSourceSize": {"x":0,"y":0,"w":850,"h":850},
	"sourceSize": {"w":850,"h":850}
},
"Solution_removing_to another_testube _holder0009.png":
{
	"frame": {"x":0,"y":850,"w":850,"h":850},
	"rotated": false,
	"trimmed": false,
	"spriteSourceSize": {"x":0,"y":0,"w":850,"h":850},
	"sourceSize": {"w":850,"h":850}
},
"Solution_removing_to another_testube _holder0010.png":
{
	"frame": {"x":850,"y":850,"w":850,"h":850},
	"rotated": false,
	"trimmed": false,
	"spriteSourceSize": {"x":0,"y":0,"w":850,"h":850},
	"sourceSize": {"w":850,"h":850}
},
"Solution_removing_to another_testube _holder0011.png":
{
	"frame": {"x":1700,"y":850,"w":850,"h":850},
	"rotated": false,
	"trimmed": false,
	"spriteSourceSize": {"x":0,"y":0,"w":850,"h":850},
	"sourceSize": {"w":850,"h":850}
},
"Solution_removing_to another_testube _holder0012.png":
{
	"frame": {"x":2550,"y":850,"w":850,"h":850},
	"rotated": false,
	"trimmed": false,
	"spriteSourceSize": {"x":0,"y":0,"w":850,"h":850},
	"sourceSize": {"w":850,"h":850}
},
"Solution_removing_to another_testube _holder0013.png":
{
	"frame": {"x":3400,"y":850,"w":850,"h":850},
	"rotated": false,
	"trimmed": false,
	"spriteSourceSize": {"x":0,"y":0,"w":850,"h":850},
	"sourceSize": {"w":850,"h":850}
},
"Solution_removing_to another_testube _holder0014.png":
{
	"frame": {"x":4250,"y":850,"w":850,"h":850},
	"rotated": false,
	"trimmed": false,
	"spriteSourceSize": {"x":0,"y":0,"w":850,"h":850},
	"sourceSize": {"w":850,"h":850}
},
"Solution_removing_to another_testube _holder0015.png":
{
	"frame": {"x":5100,"y":850,"w":850,"h":850},
	"rotated": false,
	"trimmed": false,
	"spriteSourceSize": {"x":0,"y":0,"w":850,"h":850},
	"sourceSize": {"w":850,"h":850}
},
"Solution_removing_to another_testube _holder0016.png":
{
	"frame": {"x":5950,"y":850,"w":850,"h":850},
	"rotated": false,
	"trimmed": false,
	"spriteSourceSize": {"x":0,"y":0,"w":850,"h":850},
	"sourceSize": {"w":850,"h":850}
},
"Solution_removing_to another_testube _holder0017.png":
{
	"frame": {"x":0,"y":1700,"w":850,"h":850},
	"rotated": false,
	"trimmed": false,
	"spriteSourceSize": {"x":0,"y":0,"w":850,"h":850},
	"sourceSize": {"w":850,"h":850}
},
"Solution_removing_to another_testube _holder0018.png":
{
	"frame": {"x":850,"y":1700,"w":850,"h":850},
	"rotated": false,
	"trimmed": false,
	"spriteSourceSize": {"x":0,"y":0,"w":850,"h":850},
	"sourceSize": {"w":850,"h":850}
},
"Solution_removing_to another_testube _holder0019.png":
{
	"frame": {"x":1700,"y":1700,"w":850,"h":850},
	"rotated": false,
	"trimmed": false,
	"spriteSourceSize": {"x":0,"y":0,"w":850,"h":850},
	"sourceSize": {"w":850,"h":850}
},
"Solution_removing_to another_testube _holder0020.png":
{
	"frame": {"x":2550,"y":1700,"w":850,"h":850},
	"rotated": false,
	"trimmed": false,
	"spriteSourceSize": {"x":0,"y":0,"w":850,"h":850},
	"sourceSize": {"w":850,"h":850}
},
"Solution_removing_to another_testube _holder0021.png":
{
	"frame": {"x":3400,"y":1700,"w":850,"h":850},
	"rotated": false,
	"trimmed": false,
	"spriteSourceSize": {"x":0,"y":0,"w":850,"h":850},
	"sourceSize": {"w":850,"h":850}
},
"Solution_removing_to another_testube _holder0022.png":
{
	"frame": {"x":4250,"y":1700,"w":850,"h":850},
	"rotated": false,
	"trimmed": false,
	"spriteSourceSize": {"x":0,"y":0,"w":850,"h":850},
	"sourceSize": {"w":850,"h":850}
},
"Solution_removing_to another_testube _holder0023.png":
{
	"frame": {"x":5100,"y":1700,"w":850,"h":850},
	"rotated": false,
	"trimmed": false,
	"spriteSourceSize": {"x":0,"y":0,"w":850,"h":850},
	"sourceSize": {"w":850,"h":850}
},
"Solution_removing_to another_testube _holder0024.png":
{
	"frame": {"x":5950,"y":1700,"w":850,"h":850},
	"rotated": false,
	"trimmed": false,
	"spriteSourceSize": {"x":0,"y":0,"w":850,"h":850},
	"sourceSize": {"w":850,"h":850}
},
"Solution_removing_to another_testube _holder0025.png":
{
	"frame": {"x":0,"y":2550,"w":850,"h":850},
	"rotated": false,
	"trimmed": false,
	"spriteSourceSize": {"x":0,"y":0,"w":850,"h":850},
	"sourceSize": {"w":850,"h":850}
},
"Solution_removing_to another_testube _holder0026.png":
{
	"frame": {"x":850,"y":2550,"w":850,"h":850},
	"rotated": false,
	"trimmed": false,
	"spriteSourceSize": {"x":0,"y":0,"w":850,"h":850},
	"sourceSize": {"w":850,"h":850}
},
"Solution_removing_to another_testube _holder0027.png":
{
	"frame": {"x":1700,"y":2550,"w":850,"h":850},
	"rotated": false,
	"trimmed": false,
	"spriteSourceSize": {"x":0,"y":0,"w":850,"h":850},
	"sourceSize": {"w":850,"h":850}
},
"Solution_removing_to another_testube _holder0028.png":
{
	"frame": {"x":2550,"y":2550,"w":850,"h":850},
	"rotated": false,
	"trimmed": false,
	"spriteSourceSize": {"x":0,"y":0,"w":850,"h":850},
	"sourceSize": {"w":850,"h":850}
},
"Solution_removing_to another_testube _holder0029.png":
{
	"frame": {"x":3400,"y":2550,"w":850,"h":850},
	"rotated": false,
	"trimmed": false,
	"spriteSourceSize": {"x":0,"y":0,"w":850,"h":850},
	"sourceSize": {"w":850,"h":850}
},
"Solution_removing_to another_testube _holder0030.png":
{
	"frame": {"x":4250,"y":2550,"w":850,"h":850},
	"rotated": false,
	"trimmed": false,
	"spriteSourceSize": {"x":0,"y":0,"w":850,"h":850},
	"sourceSize": {"w":850,"h":850}
},
"Solution_removing_to another_testube _holder0031.png":
{
	"frame": {"x":5100,"y":2550,"w":850,"h":850},
	"rotated": false,
	"trimmed": false,
	"spriteSourceSize": {"x":0,"y":0,"w":850,"h":850},
	"sourceSize": {"w":850,"h":850}
},
"Solution_removing_to another_testube _holder0032.png":
{
	"frame": {"x":5950,"y":2550,"w":850,"h":850},
	"rotated": false,
	"trimmed": false,
	"spriteSourceSize": {"x":0,"y":0,"w":850,"h":850},
	"sourceSize": {"w":850,"h":850}
},
"Solution_removing_to another_testube _holder0033.png":
{
	"frame": {"x":0,"y":3400,"w":850,"h":850},
	"rotated": false,
	"trimmed": false,
	"spriteSourceSize": {"x":0,"y":0,"w":850,"h":850},
	"sourceSize": {"w":850,"h":850}
},
"Solution_removing_to another_testube _holder0034.png":
{
	"frame": {"x":850,"y":3400,"w":850,"h":850},
	"rotated": false,
	"trimmed": false,
	"spriteSourceSize": {"x":0,"y":0,"w":850,"h":850},
	"sourceSize": {"w":850,"h":850}
},
"Solution_removing_to another_testube _holder0035.png":
{
	"frame": {"x":1700,"y":3400,"w":850,"h":850},
	"rotated": false,
	"trimmed": false,
	"spriteSourceSize": {"x":0,"y":0,"w":850,"h":850},
	"sourceSize": {"w":850,"h":850}
},
"Solution_removing_to another_testube _holder0036.png":
{
	"frame": {"x":2550,"y":3400,"w":850,"h":850},
	"rotated": false,
	"trimmed": false,
	"spriteSourceSize": {"x":0,"y":0,"w":850,"h":850},
	"sourceSize": {"w":850,"h":850}
},
"Solution_removing_to another_testube _holder0037.png":
{
	"frame": {"x":3400,"y":3400,"w":850,"h":850},
	"rotated": false,
	"trimmed": false,
	"spriteSourceSize": {"x":0,"y":0,"w":850,"h":850},
	"sourceSize": {"w":850,"h":850}
},
"Solution_removing_to another_testube _holder0038.png":
{
	"frame": {"x":4250,"y":3400,"w":850,"h":850},
	"rotated": false,
	"trimmed": false,
	"spriteSourceSize": {"x":0,"y":0,"w":850,"h":850},
	"sourceSize": {"w":850,"h":850}
},
"Solution_removing_to another_testube _holder0039.png":
{
	"frame": {"x":5100,"y":3400,"w":850,"h":850},
	"rotated": false,
	"trimmed": false,
	"spriteSourceSize": {"x":0,"y":0,"w":850,"h":850},
	"sourceSize": {"w":850,"h":850}
},
"Solution_removing_to another_testube _holder0040.png":
{
	"frame": {"x":5950,"y":3400,"w":850,"h":850},
	"rotated": false,
	"trimmed": false,
	"spriteSourceSize": {"x":0,"y":0,"w":850,"h":850},
	"sourceSize": {"w":850,"h":850}
}},
"meta": {
	"app": "https://www.codeandweb.com/texturepacker",
	"version": "1.0",
	"image": "solution_pour_sprite.png",
	"format": "RGBA8888",
	"size": {"w":6800,"h":4250},
	"scale": "1",
	"smartupdate": "$TexturePacker:SmartUpdate:f0c145bf7c4f3a181594a67e2fbfdd11:3b3dc98da445e83d62e35132cc692bbf:fa24ca1b47eeb612fa469697144d36ab$"
}
}
