{"frames": {

"Testtube Cork rod0001.png":
{
	"frame": {"x":0,"y":0,"w":150,"h":550},
	"rotated": false,
	"trimmed": false,
	"spriteSourceSize": {"x":0,"y":0,"w":150,"h":550},
	"sourceSize": {"w":150,"h":550}
},
"Testtube Cork rod0002.png":
{
	"frame": {"x":150,"y":0,"w":150,"h":550},
	"rotated": false,
	"trimmed": false,
	"spriteSourceSize": {"x":0,"y":0,"w":150,"h":550},
	"sourceSize": {"w":150,"h":550}
},
"Testtube Cork rod0003.png":
{
	"frame": {"x":300,"y":0,"w":150,"h":550},
	"rotated": false,
	"trimmed": false,
	"spriteSourceSize": {"x":0,"y":0,"w":150,"h":550},
	"sourceSize": {"w":150,"h":550}
},
"Testtube Cork rod0004.png":
{
	"frame": {"x":450,"y":0,"w":150,"h":550},
	"rotated": false,
	"trimmed": false,
	"spriteSourceSize": {"x":0,"y":0,"w":150,"h":550},
	"sourceSize": {"w":150,"h":550}
},
"Testtube Cork rod0005.png":
{
	"frame": {"x":600,"y":0,"w":150,"h":550},
	"rotated": false,
	"trimmed": false,
	"spriteSourceSize": {"x":0,"y":0,"w":150,"h":550},
	"sourceSize": {"w":150,"h":550}
},
"Testtube Cork rod0006.png":
{
	"frame": {"x":750,"y":0,"w":150,"h":550},
	"rotated": false,
	"trimmed": false,
	"spriteSourceSize": {"x":0,"y":0,"w":150,"h":550},
	"sourceSize": {"w":150,"h":550}
},
"Testtube Cork rod0007.png":
{
	"frame": {"x":900,"y":0,"w":150,"h":550},
	"rotated": false,
	"trimmed": false,
	"spriteSourceSize": {"x":0,"y":0,"w":150,"h":550},
	"sourceSize": {"w":150,"h":550}
},
"Testtube Cork rod0008.png":
{
	"frame": {"x":1050,"y":0,"w":150,"h":550},
	"rotated": false,
	"trimmed": false,
	"spriteSourceSize": {"x":0,"y":0,"w":150,"h":550},
	"sourceSize": {"w":150,"h":550}
},
"Testtube Cork rod0009.png":
{
	"frame": {"x":1200,"y":0,"w":150,"h":550},
	"rotated": false,
	"trimmed": false,
	"spriteSourceSize": {"x":0,"y":0,"w":150,"h":550},
	"sourceSize": {"w":150,"h":550}
},
"Testtube Cork rod0010.png":
{
	"frame": {"x":1350,"y":0,"w":150,"h":550},
	"rotated": false,
	"trimmed": false,
	"spriteSourceSize": {"x":0,"y":0,"w":150,"h":550},
	"sourceSize": {"w":150,"h":550}
},
"Testtube Cork rod0011.png":
{
	"frame": {"x":1500,"y":0,"w":150,"h":550},
	"rotated": false,
	"trimmed": false,
	"spriteSourceSize": {"x":0,"y":0,"w":150,"h":550},
	"sourceSize": {"w":150,"h":550}
},
"Testtube Cork rod0012.png":
{
	"frame": {"x":1650,"y":0,"w":150,"h":550},
	"rotated": false,
	"trimmed": false,
	"spriteSourceSize": {"x":0,"y":0,"w":150,"h":550},
	"sourceSize": {"w":150,"h":550}
},
"Testtube Cork rod0013.png":
{
	"frame": {"x":1800,"y":0,"w":150,"h":550},
	"rotated": false,
	"trimmed": false,
	"spriteSourceSize": {"x":0,"y":0,"w":150,"h":550},
	"sourceSize": {"w":150,"h":550}
},
"Testtube Cork rod0014.png":
{
	"frame": {"x":0,"y":550,"w":150,"h":550},
	"rotated": false,
	"trimmed": false,
	"spriteSourceSize": {"x":0,"y":0,"w":150,"h":550},
	"sourceSize": {"w":150,"h":550}
},
"Testtube Cork rod0015.png":
{
	"frame": {"x":150,"y":550,"w":150,"h":550},
	"rotated": false,
	"trimmed": false,
	"spriteSourceSize": {"x":0,"y":0,"w":150,"h":550},
	"sourceSize": {"w":150,"h":550}
},
"Testtube Cork rod0016.png":
{
	"frame": {"x":300,"y":550,"w":150,"h":550},
	"rotated": false,
	"trimmed": false,
	"spriteSourceSize": {"x":0,"y":0,"w":150,"h":550},
	"sourceSize": {"w":150,"h":550}
},
"Testtube Cork rod0017.png":
{
	"frame": {"x":450,"y":550,"w":150,"h":550},
	"rotated": false,
	"trimmed": false,
	"spriteSourceSize": {"x":0,"y":0,"w":150,"h":550},
	"sourceSize": {"w":150,"h":550}
},
"Testtube Cork rod0018.png":
{
	"frame": {"x":600,"y":550,"w":150,"h":550},
	"rotated": false,
	"trimmed": false,
	"spriteSourceSize": {"x":0,"y":0,"w":150,"h":550},
	"sourceSize": {"w":150,"h":550}
},
"Testtube Cork rod0019.png":
{
	"frame": {"x":750,"y":550,"w":150,"h":550},
	"rotated": false,
	"trimmed": false,
	"spriteSourceSize": {"x":0,"y":0,"w":150,"h":550},
	"sourceSize": {"w":150,"h":550}
},
"Testtube Cork rod0020.png":
{
	"frame": {"x":900,"y":550,"w":150,"h":550},
	"rotated": false,
	"trimmed": false,
	"spriteSourceSize": {"x":0,"y":0,"w":150,"h":550},
	"sourceSize": {"w":150,"h":550}
},
"Testtube Cork rod0021.png":
{
	"frame": {"x":1050,"y":550,"w":150,"h":550},
	"rotated": false,
	"trimmed": false,
	"spriteSourceSize": {"x":0,"y":0,"w":150,"h":550},
	"sourceSize": {"w":150,"h":550}
},
"Testtube Cork rod0022.png":
{
	"frame": {"x":1200,"y":550,"w":150,"h":550},
	"rotated": false,
	"trimmed": false,
	"spriteSourceSize": {"x":0,"y":0,"w":150,"h":550},
	"sourceSize": {"w":150,"h":550}
},
"Testtube Cork rod0023.png":
{
	"frame": {"x":1350,"y":550,"w":150,"h":550},
	"rotated": false,
	"trimmed": false,
	"spriteSourceSize": {"x":0,"y":0,"w":150,"h":550},
	"sourceSize": {"w":150,"h":550}
},
"Testtube Cork rod0024.png":
{
	"frame": {"x":1500,"y":550,"w":150,"h":550},
	"rotated": false,
	"trimmed": false,
	"spriteSourceSize": {"x":0,"y":0,"w":150,"h":550},
	"sourceSize": {"w":150,"h":550}
},
"Testtube Cork rod0025.png":
{
	"frame": {"x":1650,"y":550,"w":150,"h":550},
	"rotated": false,
	"trimmed": false,
	"spriteSourceSize": {"x":0,"y":0,"w":150,"h":550},
	"sourceSize": {"w":150,"h":550}
},
"Testtube Cork rod0026.png":
{
	"frame": {"x":1800,"y":550,"w":150,"h":550},
	"rotated": false,
	"trimmed": false,
	"spriteSourceSize": {"x":0,"y":0,"w":150,"h":550},
	"sourceSize": {"w":150,"h":550}
}},
"meta": {
	"app": "https://www.codeandweb.com/texturepacker",
	"version": "1.0",
	"image": "Cork_tube_testtube.png",
	"format": "RGBA8888",
	"size": {"w":1950,"h":1100},
	"scale": "1",
	"smartupdate": "$TexturePacker:SmartUpdate:25454cd5cc6340f05516e5ed9eccd080:19fa459f0cc22f97a4dcaa4d7ed0a07c:9865e6a2bb3fd035e9d9835c61b48692$"
}
}
